<?xml version="1.0" encoding="UTF-8" standalone="no"?>
<svg
   xmlns:dc="http://purl.org/dc/elements/1.1/"
   xmlns:cc="http://creativecommons.org/ns#"
   xmlns:rdf="http://www.w3.org/1999/02/22-rdf-syntax-ns#"
   xmlns:svg="http://www.w3.org/2000/svg"
   xmlns="http://www.w3.org/2000/svg"
   xmlns:xlink="http://www.w3.org/1999/xlink"
   xmlns:sodipodi="http://sodipodi.sourceforge.net/DTD/sodipodi-0.dtd"
   xmlns:inkscape="http://www.inkscape.org/namespaces/inkscape"
   width="310mm"
   height="80mm"
   viewBox="0 0 310 80"
   version="1.1"
   id="svg8"
   inkscape:version="1.0.2-2 (e86c870879, 2021-01-15)"
   sodipodi:docname="PRBS9.svg">
  <defs
     id="defs2">
    <marker
       style="overflow:visible"
       id="marker2894"
       refX="0"
       refY="0"
       orient="auto"
       inkscape:stockid="Arrow1Lend"
       inkscape:isstock="true">
      <path
         transform="matrix(-0.8,0,0,-0.8,-10,0)"
         style="fill:#000000;fill-opacity:1;fill-rule:evenodd;stroke:#000000;stroke-width:1pt;stroke-opacity:1"
         d="M 0,0 5,-5 -12.5,0 5,5 Z"
         id="path2892" />
    </marker>
    <rect
       x="321.64752"
       y="21.96158"
       width="30"
       height="10"
       id="rect6684" />
    <marker
       style="overflow:visible"
       id="marker5365"
       refX="0"
       refY="0"
       orient="auto"
       inkscape:stockid="Arrow1Lend"
       inkscape:isstock="true">
      <path
         transform="matrix(-0.8,0,0,-0.8,-10,0)"
         style="fill:#000000;fill-opacity:1;fill-rule:evenodd;stroke:#000000;stroke-width:1pt;stroke-opacity:1"
         d="M 0,0 5,-5 -12.5,0 5,5 Z"
         id="path5363" />
    </marker>
    <marker
       style="overflow:visible"
       id="DotL"
       refX="0"
       refY="0"
       orient="auto"
       inkscape:stockid="DotL"
       inkscape:isstock="true">
      <path
         transform="matrix(0.8,0,0,0.8,5.92,0.8)"
         style="fill:#000000;fill-opacity:1;fill-rule:evenodd;stroke:#000000;stroke-width:1pt;stroke-opacity:1"
         d="m -2.5,-1 c 0,2.76 -2.24,5 -5,5 -2.76,0 -5,-2.24 -5,-5 0,-2.76 2.24,-5 5,-5 2.76,0 5,2.24 5,5 z"
         id="path1426" />
    </marker>
    <symbol
       id="AuxillaryOp">
      <title
         id="title913">Auxiliary Operation</title>
      <desc
         id="desc915">Offline operation.</desc>
      <rect
         x="9.260417"
         y="9.260417"
         width="21.166666"
         height="21.166666"
         style="stroke-width:0.529167"
         id="rect917" />
    </symbol>
    <symbol
       id="LogicalOr">
      <title
         id="title1069">Logical Or</title>
      <desc
         id="desc1071">Shows when a process diverges.</desc>
      <circle
         cx="19.84375"
         cy="19.84375"
         r="5.2916665"
         style="stroke-width:0.529167"
         id="circle1073" />
      <path
         d="M 14.552083,19.84375 H 25.135417"
         style="stroke-width:0.529167"
         id="path1075" />
      <path
         d="M 19.84375,14.552083 V 25.135417"
         style="stroke-width:0.529167"
         id="path1077" />
    </symbol>
    <symbol
       id="ManualOperation">
      <title
         id="title869">Manual Operation</title>
      <desc
         id="desc871">An offline process (at &quot;human speed&quot;).</desc>
      <path
         d="m 3.96875,9.2604167 h 31.75 l -7.9375,21.1666663 h -15.875 z"
         style="stroke-width:0.529167px"
         id="path873" />
    </symbol>
    <symbol
       id="Comment">
      <title
         id="title1011">Comment/Annotation</title>
      <desc
         id="desc1013">Additional descriptive clarification (connect by dotted line).</desc>
      <path
         d="m 35.71875,30.427083 h -31.75 V 9.2604167 h 31.75"
         style="stroke-width:0.529167"
         id="path1015" />
    </symbol>
    <symbol
       id="Connector">
      <title
         id="title976">Connector</title>
      <desc
         id="desc978">Exit to or entry from another part of chart.</desc>
      <circle
         cx="19.84375"
         cy="19.84375"
         r="5.2916665"
         style="stroke-width:0.529167"
         id="circle980" />
    </symbol>
    <symbol
       id="LogicalAnd">
      <title
         id="title1080">Logical And</title>
      <desc
         id="desc1082">Summing junction. Shows when multiple branches converge.</desc>
      <circle
         cx="19.84375"
         cy="19.84375"
         r="5.2916665"
         style="stroke-width:0.529167"
         id="circle1084" />
      <path
         d="m 16.139583,16.139583 7.408334,7.408334"
         style="stroke-width:0.529167"
         id="path1086" />
      <path
         d="m 16.139583,23.547917 7.408334,-7.408334"
         style="stroke-width:0.529167"
         id="path1088" />
    </symbol>
    <marker
       style="overflow:visible"
       id="Arrow1Lend-0"
       refX="0"
       refY="0"
       orient="auto"
       inkscape:stockid="Arrow1Lend"
       inkscape:isstock="true">
      <path
         transform="matrix(-0.8,0,0,-0.8,-10,0)"
         style="fill:#000000;fill-opacity:1;fill-rule:evenodd;stroke:#000000;stroke-width:1pt;stroke-opacity:1"
         d="M 0,0 5,-5 -12.5,0 5,5 Z"
         id="path1368-5" />
    </marker>
    <marker
       style="overflow:visible"
       id="Arrow1Lend-7"
       refX="0"
       refY="0"
       orient="auto"
       inkscape:stockid="Arrow1Lend"
       inkscape:isstock="true">
      <path
         transform="matrix(-0.8,0,0,-0.8,-10,0)"
         style="fill:#000000;fill-opacity:1;fill-rule:evenodd;stroke:#000000;stroke-width:1pt;stroke-opacity:1"
         d="M 0,0 5,-5 -12.5,0 5,5 Z"
         id="path1368-9" />
    </marker>
    <marker
       style="overflow:visible"
       id="Arrow1Lend-8"
       refX="0"
       refY="0"
       orient="auto"
       inkscape:stockid="Arrow1Lend"
       inkscape:isstock="true">
      <path
         transform="matrix(-0.8,0,0,-0.8,-10,0)"
         style="fill:#000000;fill-opacity:1;fill-rule:evenodd;stroke:#000000;stroke-width:1pt;stroke-opacity:1"
         d="M 0,0 5,-5 -12.5,0 5,5 Z"
         id="path1368-2" />
    </marker>
    <marker
       style="overflow:visible"
       id="Arrow1Lend-6"
       refX="0"
       refY="0"
       orient="auto"
       inkscape:stockid="Arrow1Lend"
       inkscape:isstock="true">
      <path
         transform="matrix(-0.8,0,0,-0.8,-10,0)"
         style="fill:#000000;fill-opacity:1;fill-rule:evenodd;stroke:#000000;stroke-width:1pt;stroke-opacity:1"
         d="M 0,0 5,-5 -12.5,0 5,5 Z"
         id="path1368-8" />
    </marker>
    <marker
       style="overflow:visible"
       id="Arrow1Lend-02"
       refX="0"
       refY="0"
       orient="auto"
       inkscape:stockid="Arrow1Lend"
       inkscape:isstock="true">
      <path
         transform="matrix(-0.8,0,0,-0.8,-10,0)"
         style="fill:#000000;fill-opacity:1;fill-rule:evenodd;stroke:#000000;stroke-width:1pt;stroke-opacity:1"
         d="M 0,0 5,-5 -12.5,0 5,5 Z"
         id="path1368-85" />
    </marker>
    <marker
       style="overflow:visible"
       id="Arrow1Lend-2"
       refX="0"
       refY="0"
       orient="auto"
       inkscape:stockid="Arrow1Lend"
       inkscape:isstock="true">
      <path
         transform="matrix(-0.8,0,0,-0.8,-10,0)"
         style="fill:#000000;fill-opacity:1;fill-rule:evenodd;stroke:#000000;stroke-width:1pt;stroke-opacity:1"
         d="M 0,0 5,-5 -12.5,0 5,5 Z"
         id="path1368-55" />
    </marker>
    <marker
       style="overflow:visible"
       id="Arrow1Lend-84"
       refX="0"
       refY="0"
       orient="auto"
       inkscape:stockid="Arrow1Lend"
       inkscape:isstock="true">
      <path
         transform="matrix(-0.8,0,0,-0.8,-10,0)"
         style="fill:#000000;fill-opacity:1;fill-rule:evenodd;stroke:#000000;stroke-width:1pt;stroke-opacity:1"
         d="M 0,0 5,-5 -12.5,0 5,5 Z"
         id="path1368-91" />
    </marker>
    <marker
       style="overflow:visible"
       id="Arrow1Lend-9"
       refX="0"
       refY="0"
       orient="auto"
       inkscape:stockid="Arrow1Lend"
       inkscape:isstock="true">
      <path
         transform="matrix(-0.8,0,0,-0.8,-10,0)"
         style="fill:#000000;fill-opacity:1;fill-rule:evenodd;stroke:#000000;stroke-width:1pt;stroke-opacity:1"
         d="M 0,0 5,-5 -12.5,0 5,5 Z"
         id="path1368-89" />
    </marker>
    <marker
       style="overflow:visible"
       id="Arrow1Lend-63"
       refX="0"
       refY="0"
       orient="auto"
       inkscape:stockid="Arrow1Lend"
       inkscape:isstock="true">
      <path
         transform="matrix(-0.8,0,0,-0.8,-10,0)"
         style="fill:#000000;fill-opacity:1;fill-rule:evenodd;stroke:#000000;stroke-width:1pt;stroke-opacity:1"
         d="M 0,0 5,-5 -12.5,0 5,5 Z"
         id="path1368-80" />
    </marker>
    <marker
       style="overflow:visible"
       id="DotL-4"
       refX="0"
       refY="0"
       orient="auto"
       inkscape:stockid="DotL"
       inkscape:isstock="true">
      <path
         transform="matrix(0.8,0,0,0.8,5.92,0.8)"
         style="fill:#000000;fill-opacity:1;fill-rule:evenodd;stroke:#000000;stroke-width:1pt;stroke-opacity:1"
         d="m -2.5,-1 c 0,2.76 -2.24,5 -5,5 -2.76,0 -5,-2.24 -5,-5 0,-2.76 2.24,-5 5,-5 2.76,0 5,2.24 5,5 z"
         id="path1426-7" />
    </marker>
    <marker
       style="overflow:visible"
       id="marker2925-9"
       refX="0"
       refY="0"
       orient="auto"
       inkscape:stockid="Arrow1Lend"
       inkscape:isstock="true">
      <path
         transform="matrix(-0.8,0,0,-0.8,-10,0)"
         style="fill:#000000;fill-opacity:1;fill-rule:evenodd;stroke:#000000;stroke-width:1pt;stroke-opacity:1"
         d="M 0,0 5,-5 -12.5,0 5,5 Z"
         id="path2923-5" />
    </marker>
    <marker
       style="overflow:visible"
       id="Arrow1Lend-9-5"
       refX="0"
       refY="0"
       orient="auto"
       inkscape:stockid="Arrow1Lend"
       inkscape:isstock="true">
      <path
         transform="matrix(-0.8,0,0,-0.8,-10,0)"
         style="fill:#000000;fill-opacity:1;fill-rule:evenodd;stroke:#000000;stroke-width:1pt;stroke-opacity:1"
         d="M 0,0 5,-5 -12.5,0 5,5 Z"
         id="path1368-89-5" />
    </marker>
    <marker
       style="overflow:visible"
       id="Arrow1Lend-63-4"
       refX="0"
       refY="0"
       orient="auto"
       inkscape:stockid="Arrow1Lend"
       inkscape:isstock="true">
      <path
         transform="matrix(-0.8,0,0,-0.8,-10,0)"
         style="fill:#000000;fill-opacity:1;fill-rule:evenodd;stroke:#000000;stroke-width:1pt;stroke-opacity:1"
         d="M 0,0 5,-5 -12.5,0 5,5 Z"
         id="path1368-80-6" />
    </marker>
    <marker
       style="overflow:visible"
       id="Arrow1Lend-6-2"
       refX="0"
       refY="0"
       orient="auto"
       inkscape:stockid="Arrow1Lend"
       inkscape:isstock="true">
      <path
         transform="matrix(-0.8,0,0,-0.8,-10,0)"
         style="fill:#000000;fill-opacity:1;fill-rule:evenodd;stroke:#000000;stroke-width:1pt;stroke-opacity:1"
         d="M 0,0 5,-5 -12.5,0 5,5 Z"
         id="path1368-8-3" />
    </marker>
    <marker
       style="overflow:visible"
       id="Arrow1Lend-2-3"
       refX="0"
       refY="0"
       orient="auto"
       inkscape:stockid="Arrow1Lend"
       inkscape:isstock="true">
      <path
         transform="matrix(-0.8,0,0,-0.8,-10,0)"
         style="fill:#000000;fill-opacity:1;fill-rule:evenodd;stroke:#000000;stroke-width:1pt;stroke-opacity:1"
         d="M 0,0 5,-5 -12.5,0 5,5 Z"
         id="path1368-55-7" />
    </marker>
    <marker
       style="overflow:visible"
       id="Arrow1Lend-63-7"
       refX="0"
       refY="0"
       orient="auto"
       inkscape:stockid="Arrow1Lend"
       inkscape:isstock="true">
      <path
         transform="matrix(-0.8,0,0,-0.8,-10,0)"
         style="fill:#000000;fill-opacity:1;fill-rule:evenodd;stroke:#000000;stroke-width:1pt;stroke-opacity:1"
         d="M 0,0 5,-5 -12.5,0 5,5 Z"
         id="path1368-80-8" />
    </marker>
    <marker
       style="overflow:visible"
       id="Arrow1Lend-6-6"
       refX="0"
       refY="0"
       orient="auto"
       inkscape:stockid="Arrow1Lend"
       inkscape:isstock="true">
      <path
         transform="matrix(-0.8,0,0,-0.8,-10,0)"
         style="fill:#000000;fill-opacity:1;fill-rule:evenodd;stroke:#000000;stroke-width:1pt;stroke-opacity:1"
         d="M 0,0 5,-5 -12.5,0 5,5 Z"
         id="path1368-8-34" />
    </marker>
    <symbol
       id="Xor_Gate">
      <title
         id="title4319">Xor Gate</title>
      <path
         d="M 6.5236328,18.520833 H 11.90625 c 5.291667,0 7.9375,-5.291666 7.9375,-5.291666 0,0 -1.322917,-5.291667 -7.9375,-5.291667 H 6.5236328 c 0.4735846,0.8186706 0.8337984,1.7074809 1.0748698,2.645833 0.2173208,0.845905 0.3389974,1.731915 0.3389974,2.645834 0,0.913918 -0.1216766,1.799928 -0.3389974,2.645833 -0.2410714,0.938352 -0.6012852,1.827163 -1.0748698,2.645833 z"
         id="path4321"
         style="stroke-width:0.264583" />
      <path
         d="m 4.9361328,18.520833 c 1.0512687,-1.50219 1.6784505,-3.319012 1.6784505,-5.291666 0,-1.972655 -0.6271818,-3.7894769 -1.6784505,-5.291667"
         id="path4323"
         style="stroke-width:0.264583" />
    </symbol>
  </defs>
  <sodipodi:namedview
     id="base"
     pagecolor="#ffffff"
     bordercolor="#666666"
     borderopacity="1.0"
     inkscape:pageopacity="0.0"
     inkscape:pageshadow="2"
     inkscape:zoom="1.4"
     inkscape:cx="619.11012"
     inkscape:cy="196.66164"
     inkscape:document-units="mm"
     inkscape:current-layer="g5405-4-9-3-1-8-5-8"
     inkscape:document-rotation="0"
     showgrid="true"
     units="mm"
     showguides="true"
     objecttolerance="10000"
     inkscape:window-width="2400"
     inkscape:window-height="1284"
     inkscape:window-x="-9"
     inkscape:window-y="-9"
     inkscape:window-maximized="1"
     height="211mm">
    <inkscape:grid
       type="xygrid"
       id="grid833"
       units="mm"
       spacingx="1"
       spacingy="1" />
  </sodipodi:namedview>
  <metadata
     id="metadata5">
    <rdf:RDF>
      <cc:Work
         rdf:about="">
        <dc:format>image/svg+xml</dc:format>
        <dc:type
           rdf:resource="http://purl.org/dc/dcmitype/StillImage" />
        <dc:title />
      </cc:Work>
    </rdf:RDF>
  </metadata>
  <g
     inkscape:label="Layer 1"
     inkscape:groupmode="layer"
     id="layer1">
    <g
       id="g5413-0-1-7"
       transform="translate(-84.871078,-15.500744)">
      <g
         id="g5469-5-3" />
    </g>
    <g
       id="g8006"
       transform="translate(-8.1750024,1.4299299)">
      <g
         id="g7477">
        <g
           id="g7081">
          <g
             id="g5405-4-9-3-1-8-5-8"
             transform="translate(-104.23761,87.639625)">
            <g
               id="g10279"
               transform="translate(-29.999995,-4.9999999)"
               style="stroke-width:0.5;stroke-miterlimit:4;stroke-dasharray:none">
              <path
                 style="fill:none;stroke:#000000;stroke-width:0.5;stroke-linecap:butt;stroke-linejoin:miter;stroke-miterlimit:4;stroke-dasharray:none;stroke-opacity:1"
                 d="m 197.41261,-32.069555 5,3.000001 -5,3"
                 id="path10264" />
              <path
                 style="fill:none;stroke:#000000;stroke-width:0.5;stroke-linecap:butt;stroke-linejoin:miter;stroke-miterlimit:4;stroke-dasharray:none;stroke-opacity:1"
                 d="m 197.41261,-49.069555 h 20 v 30 h -20 z"
                 id="path10266" />
              <path
                 style="fill:none;stroke:#000000;stroke-width:0.5;stroke-linecap:butt;stroke-linejoin:miter;stroke-miterlimit:4;stroke-dasharray:none;stroke-opacity:1"
                 d="m 217.41261,-39.069555 h 10"
                 id="path10268" />
              <path
                 style="fill:none;stroke:#000000;stroke-width:0.5;stroke-linecap:butt;stroke-linejoin:miter;stroke-miterlimit:4;stroke-dasharray:none;stroke-opacity:1"
                 d="m 197.41261,-39.069555 h -10"
                 id="path10270" />
              <path
                 style="fill:none;stroke:#000000;stroke-width:0.5;stroke-linecap:butt;stroke-linejoin:miter;stroke-miterlimit:4;stroke-dasharray:1.5, 0.5;stroke-dashoffset:0;stroke-opacity:1"
                 d="m 197.41261,-29.069557 h -5 v 19.9999997"
                 id="path10272" />
            </g>
            <g
               id="g10279-1"
               transform="translate(5.2000001e-6,-4.9999999)"
               style="stroke-width:0.5;stroke-miterlimit:4;stroke-dasharray:none">
              <path
                 style="fill:none;stroke:#000000;stroke-width:0.5;stroke-linecap:butt;stroke-linejoin:miter;stroke-miterlimit:4;stroke-dasharray:none;stroke-opacity:1"
                 d="m 197.41261,-32.069555 5,3.000001 -5,3"
                 id="path10264-0" />
              <path
                 style="fill:none;stroke:#000000;stroke-width:0.5;stroke-linecap:butt;stroke-linejoin:miter;stroke-miterlimit:4;stroke-dasharray:none;stroke-opacity:1"
                 d="m 197.41261,-49.069555 h 20 v 30 h -20 z"
                 id="path10266-8" />
              <path
                 style="fill:none;stroke:#000000;stroke-width:0.5;stroke-linecap:butt;stroke-linejoin:miter;stroke-miterlimit:4;stroke-dasharray:none;stroke-opacity:1"
                 d="m 217.41261,-39.069555 h 10"
                 id="path10268-7" />
              <path
                 style="fill:none;stroke:#000000;stroke-width:0.5;stroke-linecap:butt;stroke-linejoin:miter;stroke-miterlimit:4;stroke-dasharray:none;stroke-opacity:1"
                 d="m 197.41261,-39.069555 h -10"
                 id="path10270-7" />
              <path
                 style="fill:none;stroke:#000000;stroke-width:0.50000001;stroke-linecap:butt;stroke-linejoin:miter;stroke-miterlimit:4;stroke-dasharray:1.50000004,0.50000001;stroke-opacity:1;stroke-dashoffset:0"
                 d="m 197.41261,-29.069557 h -5 v 19.9999997"
                 id="path10272-5" />
            </g>
            <g
               id="g10279-6"
               transform="translate(30.000004,-4.9999999)"
               style="stroke-width:0.5;stroke-miterlimit:4;stroke-dasharray:none">
              <path
                 style="fill:none;stroke:#000000;stroke-width:0.5;stroke-linecap:butt;stroke-linejoin:miter;stroke-miterlimit:4;stroke-dasharray:none;stroke-opacity:1"
                 d="m 197.41261,-32.069555 5,3.000001 -5,3"
                 id="path10264-4" />
              <path
                 style="fill:none;stroke:#000000;stroke-width:0.5;stroke-linecap:butt;stroke-linejoin:miter;stroke-miterlimit:4;stroke-dasharray:none;stroke-opacity:1"
                 d="m 197.41261,-49.069555 h 20 v 30 h -20 z"
                 id="path10266-0" />
              <path
                 style="fill:none;stroke:#000000;stroke-width:0.5;stroke-linecap:butt;stroke-linejoin:miter;stroke-miterlimit:4;stroke-dasharray:none;stroke-opacity:1"
                 d="m 217.41261,-39.069555 h 10"
                 id="path10268-1" />
              <path
                 style="fill:none;stroke:#000000;stroke-width:0.5;stroke-linecap:butt;stroke-linejoin:miter;stroke-miterlimit:4;stroke-dasharray:none;stroke-opacity:1"
                 d="m 197.41261,-39.069555 h -10"
                 id="path10270-9" />
              <path
                 style="fill:none;stroke:#000000;stroke-width:0.50000001;stroke-linecap:butt;stroke-linejoin:miter;stroke-miterlimit:4;stroke-dasharray:1.50000004,0.50000001;stroke-opacity:1;stroke-dashoffset:0"
                 d="m 197.41261,-29.069557 h -5 v 19.9999997"
                 id="path10272-53" />
            </g>
            <g
               id="g10279-1-5"
               transform="translate(60.000004,-4.9999999)"
               style="stroke-width:0.5;stroke-miterlimit:4;stroke-dasharray:none">
              <path
                 style="fill:none;stroke:#000000;stroke-width:0.5;stroke-linecap:butt;stroke-linejoin:miter;stroke-miterlimit:4;stroke-dasharray:none;stroke-opacity:1"
                 d="m 197.41261,-32.069555 5,3.000001 -5,3"
                 id="path10264-0-8" />
              <path
                 style="fill:none;stroke:#000000;stroke-width:0.5;stroke-linecap:butt;stroke-linejoin:miter;stroke-miterlimit:4;stroke-dasharray:none;stroke-opacity:1"
                 d="m 197.41261,-49.069555 h 20 v 30 h -20 z"
                 id="path10266-8-5" />
              <path
                 style="fill:none;stroke:#000000;stroke-width:0.5;stroke-linecap:butt;stroke-linejoin:miter;stroke-miterlimit:4;stroke-dasharray:none;stroke-opacity:1"
                 d="m 217.41261,-39.069555 h 10"
                 id="path10268-7-9" />
              <path
                 style="fill:none;stroke:#000000;stroke-width:0.5;stroke-linecap:butt;stroke-linejoin:miter;stroke-miterlimit:4;stroke-dasharray:none;stroke-opacity:1"
                 d="m 197.41261,-39.069555 h -10"
                 id="path10270-7-1" />
              <path
                 style="fill:none;stroke:#000000;stroke-width:0.50000001;stroke-linecap:butt;stroke-linejoin:miter;stroke-miterlimit:4;stroke-dasharray:1.50000004,0.50000001;stroke-opacity:1;stroke-dashoffset:0"
                 d="m 197.41261,-29.069557 h -5 v 19.9999997"
                 id="path10272-5-8" />
            </g>
            <g
               id="g10279-9"
               transform="translate(90.000002,-4.9999999)"
               style="stroke-width:0.5;stroke-miterlimit:4;stroke-dasharray:none">
              <path
                 style="fill:none;stroke:#000000;stroke-width:0.5;stroke-linecap:butt;stroke-linejoin:miter;stroke-miterlimit:4;stroke-dasharray:none;stroke-opacity:1"
                 d="m 197.41261,-32.069555 5,3.000001 -5,3"
                 id="path10264-6" />
              <path
                 style="fill:none;stroke:#000000;stroke-width:0.5;stroke-linecap:butt;stroke-linejoin:miter;stroke-miterlimit:4;stroke-dasharray:none;stroke-opacity:1"
                 d="m 197.41261,-49.069555 h 20 v 30 h -20 z"
                 id="path10266-7" />
              <path
                 style="fill:none;stroke:#000000;stroke-width:0.5;stroke-linecap:butt;stroke-linejoin:miter;stroke-miterlimit:4;stroke-dasharray:none;stroke-opacity:1"
                 d="m 217.41261,-39.069555 h 10"
                 id="path10268-77" />
              <path
                 style="fill:none;stroke:#000000;stroke-width:0.5;stroke-linecap:butt;stroke-linejoin:miter;stroke-miterlimit:4;stroke-dasharray:none;stroke-opacity:1"
                 d="m 197.41261,-39.069555 h -10"
                 id="path10270-0" />
              <path
                 style="fill:none;stroke:#000000;stroke-width:0.50000001;stroke-linecap:butt;stroke-linejoin:miter;stroke-miterlimit:4;stroke-dasharray:1.50000004,0.50000001;stroke-opacity:1;stroke-dashoffset:0"
                 d="m 197.41261,-29.069557 h -5 v 19.9999997"
                 id="path10272-530" />
            </g>
            <g
               id="g10279-1-9"
               transform="translate(120,-4.9999999)"
               style="stroke-width:0.5;stroke-miterlimit:4;stroke-dasharray:none">
              <path
                 style="fill:none;stroke:#000000;stroke-width:0.5;stroke-linecap:butt;stroke-linejoin:miter;stroke-miterlimit:4;stroke-dasharray:none;stroke-opacity:1"
                 d="m 197.41261,-32.069555 5,3.000001 -5,3"
                 id="path10264-0-7" />
              <path
                 style="fill:none;stroke:#000000;stroke-width:0.5;stroke-linecap:butt;stroke-linejoin:miter;stroke-miterlimit:4;stroke-dasharray:none;stroke-opacity:1"
                 d="m 197.41261,-49.069555 h 20 v 30 h -20 z"
                 id="path10266-8-1" />
              <path
                 style="fill:none;stroke:#000000;stroke-width:0.5;stroke-linecap:butt;stroke-linejoin:miter;stroke-miterlimit:4;stroke-dasharray:none;stroke-opacity:1"
                 d="m 217.41261,-39.069555 h 10"
                 id="path10268-7-0" />
              <path
                 style="fill:none;stroke:#000000;stroke-width:0.5;stroke-linecap:butt;stroke-linejoin:miter;stroke-miterlimit:4;stroke-dasharray:none;stroke-opacity:1"
                 d="m 197.41261,-39.069555 h -10"
                 id="path10270-7-6" />
              <path
                 style="fill:none;stroke:#000000;stroke-width:0.50000001;stroke-linecap:butt;stroke-linejoin:miter;stroke-miterlimit:4;stroke-dasharray:1.50000004,0.50000001;stroke-opacity:1;stroke-dashoffset:0"
                 d="m 197.41261,-29.069557 h -5 v 19.9999997"
                 id="path10272-5-1" />
            </g>
            <g
               id="g10279-6-6"
               transform="translate(150,-4.9999999)"
               style="stroke-width:0.5;stroke-miterlimit:4;stroke-dasharray:none">
              <path
                 style="fill:none;stroke:#000000;stroke-width:0.5;stroke-linecap:butt;stroke-linejoin:miter;stroke-miterlimit:4;stroke-dasharray:none;stroke-opacity:1"
                 d="m 197.41261,-32.069555 5,3.000001 -5,3"
                 id="path10264-4-0" />
              <path
                 style="fill:none;stroke:#000000;stroke-width:0.5;stroke-linecap:butt;stroke-linejoin:miter;stroke-miterlimit:4;stroke-dasharray:none;stroke-opacity:1"
                 d="m 197.41261,-49.069555 h 20 v 30 h -20 z"
                 id="path10266-0-5" />
              <path
                 style="fill:none;stroke:#000000;stroke-width:0.5;stroke-linecap:butt;stroke-linejoin:miter;stroke-miterlimit:4;stroke-dasharray:none;stroke-opacity:1"
                 d="m 217.41261,-39.069555 h 10"
                 id="path10268-1-6" />
              <path
                 style="fill:none;stroke:#000000;stroke-width:0.5;stroke-linecap:butt;stroke-linejoin:miter;stroke-miterlimit:4;stroke-dasharray:none;stroke-opacity:1"
                 d="m 197.41261,-39.069555 h -10"
                 id="path10270-9-5" />
              <path
                 style="fill:none;stroke:#000000;stroke-width:0.50000001;stroke-linecap:butt;stroke-linejoin:miter;stroke-miterlimit:4;stroke-dasharray:1.50000004,0.50000001;stroke-opacity:1;stroke-dashoffset:0"
                 d="m 197.41261,-29.069557 h -5 v 19.9999997"
                 id="path10272-53-5" />
            </g>
            <g
               id="g10279-1-5-8"
               transform="translate(180,-4.9999999)"
               style="stroke-width:0.5;stroke-miterlimit:4;stroke-dasharray:none">
              <path
                 style="fill:none;stroke:#000000;stroke-width:0.5;stroke-linecap:butt;stroke-linejoin:miter;stroke-miterlimit:4;stroke-dasharray:none;stroke-opacity:1"
                 d="m 197.41261,-32.069555 5,3.000001 -5,3"
                 id="path10264-0-8-8" />
              <path
                 style="fill:none;stroke:#000000;stroke-width:0.5;stroke-linecap:butt;stroke-linejoin:miter;stroke-miterlimit:4;stroke-dasharray:none;stroke-opacity:1"
                 d="m 197.41261,-49.069555 h 20 v 30 h -20 z"
                 id="path10266-8-5-1" />
              <path
                 style="fill:none;stroke:#000000;stroke-width:0.5;stroke-linecap:butt;stroke-linejoin:miter;stroke-miterlimit:4;stroke-dasharray:none;stroke-opacity:1"
                 d="m 217.41261,-39.069555 h 10"
                 id="path10268-7-9-1" />
              <path
                 style="fill:none;stroke:#000000;stroke-width:0.5;stroke-linecap:butt;stroke-linejoin:miter;stroke-miterlimit:4;stroke-dasharray:none;stroke-opacity:1"
                 d="m 197.41261,-39.069555 h -10"
                 id="path10270-7-1-8" />
              <path
                 style="fill:none;stroke:#000000;stroke-width:0.50000001;stroke-linecap:butt;stroke-linejoin:miter;stroke-miterlimit:4;stroke-dasharray:1.50000004,0.50000001;stroke-opacity:1;stroke-dashoffset:0"
                 d="m 197.41261,-29.069557 h -5 v 19.9999997"
                 id="path10272-5-8-8" />
            </g>
            <g
               id="g10279-8"
               transform="translate(-59.999996,-4.9999999)"
               style="stroke-width:0.5;stroke-miterlimit:4;stroke-dasharray:none">
              <path
                 style="fill:none;stroke:#000000;stroke-width:0.5;stroke-linecap:butt;stroke-linejoin:miter;stroke-miterlimit:4;stroke-dasharray:none;stroke-opacity:1"
                 d="m 197.41261,-32.069555 5,3.000001 -5,3"
                 id="path10264-9" />
              <path
                 style="fill:none;stroke:#000000;stroke-width:0.5;stroke-linecap:butt;stroke-linejoin:miter;stroke-miterlimit:4;stroke-dasharray:none;stroke-opacity:1"
                 d="m 197.41261,-49.069555 h 20 v 30 h -20 z"
                 id="path10266-6" />
              <path
                 style="fill:none;stroke:#000000;stroke-width:0.5;stroke-linecap:butt;stroke-linejoin:miter;stroke-miterlimit:4;stroke-dasharray:none;stroke-opacity:1"
                 d="m 217.41261,-39.069555 h 10"
                 id="path10268-8" />
              <path
                 style="fill:none;stroke:#000000;stroke-width:0.5;stroke-linecap:butt;stroke-linejoin:miter;stroke-miterlimit:4;stroke-dasharray:none;stroke-opacity:1"
                 d="m 197.41261,-39.069555 h -10"
                 id="path10270-6" />
              <path
                 style="fill:none;stroke:#000000;stroke-width:0.5;stroke-linecap:butt;stroke-linejoin:miter;stroke-miterlimit:4;stroke-dasharray:1.5, 0.5;stroke-dashoffset:0;stroke-opacity:1"
                 d="m 197.41261,-29.069557 h -5 v 19.9999997"
                 id="path10272-51" />
            </g>
            <g
               id="g10547"
               transform="translate(4.8000001e-6,-19.999997)"
               style="stroke-width:0.5;stroke-miterlimit:4;stroke-dasharray:none">
              <use
                 xlink:href="#Xor_Gate"
                 style="fill:none;stroke:#000000;stroke-width:0.5;stroke-miterlimit:4;stroke-dasharray:none"
                 transform="rotate(180,93.628181,-22.920194)"
                 id="use4497"
                 x="0"
                 y="0"
                 width="100%"
                 height="100%" />
              <path
                 style="fill:none;stroke:#000000;stroke-width:0.5;stroke-linecap:butt;stroke-linejoin:miter;stroke-miterlimit:4;stroke-dasharray:none;stroke-opacity:1"
                 d="m 181.41261,-61.069556 h 10"
                 id="path10537" />
              <path
                 style="fill:none;stroke:#000000;stroke-width:0.5;stroke-linecap:butt;stroke-linejoin:miter;stroke-miterlimit:4;stroke-dasharray:none;stroke-opacity:1"
                 d="m 181.41261,-57.069556 h 10"
                 id="path10539" />
              <path
                 style="fill:none;stroke:#000000;stroke-width:0.5;stroke-linecap:butt;stroke-linejoin:miter;stroke-miterlimit:4;stroke-dasharray:none;stroke-opacity:1"
                 d="m 167.41261,-59.069555 h -12"
                 id="path10541" />
            </g>
            <path
               style="fill:none;stroke:#000000;stroke-width:0.5;stroke-linecap:butt;stroke-linejoin:miter;stroke-miterlimit:4;stroke-dasharray:none;stroke-opacity:1"
               d="m 127.41261,-44.069556 v -34.999999 h 28"
               id="path10549" />
            <path
               style="fill:none;stroke:#000000;stroke-width:0.5;stroke-linecap:butt;stroke-linejoin:miter;stroke-miterlimit:4;stroke-dasharray:none;stroke-opacity:1"
               d="m 282.41261,-44.069556 v -33 h -91"
               id="path10551" />
            <path
               style="fill:none;stroke:#000000;stroke-width:0.5;stroke-linecap:butt;stroke-linejoin:miter;stroke-miterlimit:4;stroke-dasharray:none;stroke-opacity:1"
               d="m 191.41261,-81.069556 h 211.00001 v 37"
               id="path10553" />
            <path
               style="fill:none;stroke:#000000;stroke-width:0.5;stroke-linecap:butt;stroke-linejoin:miter;stroke-miterlimit:4;stroke-dasharray:1.5, 0.5;stroke-dashoffset:0;stroke-opacity:1"
               d="m 372.41261,-14.069553 h -30 -30 -30 -30 -30 -30 -30 -30 -5"
               id="path10555" />
            <text
               xml:space="preserve"
               style="font-style:normal;font-variant:normal;font-weight:normal;font-stretch:normal;font-size:7.05556px;line-height:1.25;font-family:sans-serif;-inkscape-font-specification:'sans-serif, Normal';font-variant-ligatures:normal;font-variant-caps:normal;font-variant-numeric:normal;font-variant-east-asian:normal;stroke-width:1;stroke-miterlimit:4;stroke-dasharray:none"
               x="120.4225"
               y="-15.510406"
               id="text10879"><tspan
                 sodipodi:role="line"
                 id="tspan10877"
                 x="120.4225"
                 y="-15.510406"
                 style="font-style:normal;font-variant:normal;font-weight:normal;font-stretch:normal;font-size:7.05556px;font-family:sans-serif;-inkscape-font-specification:'sans-serif, Normal';font-variant-ligatures:normal;font-variant-caps:normal;font-variant-numeric:normal;font-variant-east-asian:normal;stroke-width:1;stroke-miterlimit:4;stroke-dasharray:none">clk</tspan></text>
            <text
               xml:space="preserve"
               style="font-size:3.52777px;line-height:1.25;font-family:sans-serif;stroke-width:1;stroke-miterlimit:4;stroke-dasharray:none"
               x="398.58453"
               y="-37.114021"
               id="text10879-3"><tspan
                 sodipodi:role="line"
                 id="tspan10877-3"
                 x="398.58453"
                 y="-37.114021"
                 style="font-style:normal;font-variant:normal;font-weight:normal;font-stretch:normal;font-size:7.05556px;font-family:sans-serif;-inkscape-font-specification:'sans-serif, Normal';font-variant-ligatures:normal;font-variant-caps:normal;font-variant-numeric:normal;font-variant-east-asian:normal;stroke-width:1;stroke-miterlimit:4;stroke-dasharray:none">PRBS9</tspan></text>
          </g>
        </g>
      </g>
    </g>
  </g>
</svg>
