0.234375
-0.4296875
-0.9921875
-1.3671875
-1.46875
-1.3671875
-0.9921875
-0.4140625
0.265625
0.8359375
0.9921875
0.6640625
-0.03125
-0.7265625
-0.9921875
-0.7265625
-0.03125
0.6640625
0.9921875
0.8359375
0.265625
-0.4140625
-0.9921875
-1.3515625
-1.4375
-1.3203125
-0.9921875
-0.5234375
0.03125
0.5859375
0.9921875
1.1953125
1.171875
1.0546875
0.9921875
1.0703125
1.203125
1.2421875
0.9921875
0.4765625
-0.203125
-0.7734375
-0.9921875
-0.7890625
-0.234375
0.4296875
0.9921875
1.3671875
1.46875
1.3671875
0.9921875
0.4140625
-0.265625
-0.8359375
-0.9921875
-0.6796875
0.0
0.6796875
0.9921875
0.8203125
0.234375
-0.4609375
-0.9921875
-1.2421875
-1.203125
-1.0703125
-0.9921875
-1.0546875
-1.171875
-1.1953125
-0.9921875
-0.5703125
0.0
0.5703125
0.9921875
1.2109375
1.203125
1.1015625
0.9921875
0.9453125
0.9375
0.9453125
0.9921875
1.1015625
1.203125
1.2109375
0.9921875
0.5859375
0.03125
-0.5234375
-0.9921875
-1.3046875
-1.40625
-1.3046875
-0.9921875
-0.5234375
0.03125
0.5859375
0.9921875
1.2109375
