<?xml version="1.0" encoding="utf-8" standalone="no"?>
<!DOCTYPE svg PUBLIC "-//W3C//DTD SVG 1.1//EN"
  "http://www.w3.org/Graphics/SVG/1.1/DTD/svg11.dtd">
<svg height="396pt" version="1.1" viewBox="0 0 396 396" width="396pt" xmlns="http://www.w3.org/2000/svg" xmlns:xlink="http://www.w3.org/1999/xlink">
 <metadata>
  <rdf:RDF xmlns:cc="http://creativecommons.org/ns#" xmlns:dc="http://purl.org/dc/elements/1.1/" xmlns:rdf="http://www.w3.org/1999/02/22-rdf-syntax-ns#">
   <cc:Work>
    <dc:type rdf:resource="http://purl.org/dc/dcmitype/StillImage"/>
    <dc:date>2021-07-01T23:00:05.535541</dc:date>
    <dc:format>image/svg+xml</dc:format>
    <dc:creator>
     <cc:Agent>
      <dc:title>Matplotlib v3.4.1, https://matplotlib.org/</dc:title>
     </cc:Agent>
    </dc:creator>
   </cc:Work>
  </rdf:RDF>
 </metadata>
 <defs>
  <style type="text/css">*{stroke-linecap:butt;stroke-linejoin:round;}</style>
 </defs>
 <g id="figure_1">
  <g id="patch_1">
   <path d="M 0 396 
L 396 396 
L 396 0 
L 0 0 
z
" style="fill:#ffffff;"/>
  </g>
  <g id="axes_1">
   <g id="patch_2">
    <path d="M 49.5 352.44 
L 356.4 352.44 
L 356.4 47.52 
L 49.5 47.52 
z
" style="fill:#ffffff;"/>
   </g>
   <g id="matplotlib.axis_1">
    <g id="xtick_1">
     <g id="line2d_1">
      <path clip-path="url(#p17aace4be1)" d="M 49.5 352.44 
L 49.5 47.52 
" style="fill:none;stroke:#b0b0b0;stroke-linecap:square;stroke-width:0.8;"/>
     </g>
     <g id="line2d_2">
      <defs>
       <path d="M 0 0 
L 0 3.5 
" id="mdba06a2306" style="stroke:#000000;stroke-width:0.8;"/>
      </defs>
      <g>
       <use style="stroke:#000000;stroke-width:0.8;" x="49.5" xlink:href="#mdba06a2306" y="352.44"/>
      </g>
     </g>
     <g id="text_1">
      <!-- −2.0 -->
      <g transform="translate(37.358594 367.038437)scale(0.1 -0.1)">
       <defs>
        <path d="M 678 2272 
L 4684 2272 
L 4684 1741 
L 678 1741 
L 678 2272 
z
" id="DejaVuSans-2212" transform="scale(0.015625)"/>
        <path d="M 1228 531 
L 3431 531 
L 3431 0 
L 469 0 
L 469 531 
Q 828 903 1448 1529 
Q 2069 2156 2228 2338 
Q 2531 2678 2651 2914 
Q 2772 3150 2772 3378 
Q 2772 3750 2511 3984 
Q 2250 4219 1831 4219 
Q 1534 4219 1204 4116 
Q 875 4013 500 3803 
L 500 4441 
Q 881 4594 1212 4672 
Q 1544 4750 1819 4750 
Q 2544 4750 2975 4387 
Q 3406 4025 3406 3419 
Q 3406 3131 3298 2873 
Q 3191 2616 2906 2266 
Q 2828 2175 2409 1742 
Q 1991 1309 1228 531 
z
" id="DejaVuSans-32" transform="scale(0.015625)"/>
        <path d="M 684 794 
L 1344 794 
L 1344 0 
L 684 0 
L 684 794 
z
" id="DejaVuSans-2e" transform="scale(0.015625)"/>
        <path d="M 2034 4250 
Q 1547 4250 1301 3770 
Q 1056 3291 1056 2328 
Q 1056 1369 1301 889 
Q 1547 409 2034 409 
Q 2525 409 2770 889 
Q 3016 1369 3016 2328 
Q 3016 3291 2770 3770 
Q 2525 4250 2034 4250 
z
M 2034 4750 
Q 2819 4750 3233 4129 
Q 3647 3509 3647 2328 
Q 3647 1150 3233 529 
Q 2819 -91 2034 -91 
Q 1250 -91 836 529 
Q 422 1150 422 2328 
Q 422 3509 836 4129 
Q 1250 4750 2034 4750 
z
" id="DejaVuSans-30" transform="scale(0.015625)"/>
       </defs>
       <use xlink:href="#DejaVuSans-2212"/>
       <use x="83.789062" xlink:href="#DejaVuSans-32"/>
       <use x="147.412109" xlink:href="#DejaVuSans-2e"/>
       <use x="179.199219" xlink:href="#DejaVuSans-30"/>
      </g>
     </g>
    </g>
    <g id="xtick_2">
     <g id="line2d_3">
      <path clip-path="url(#p17aace4be1)" d="M 87.8625 352.44 
L 87.8625 47.52 
" style="fill:none;stroke:#b0b0b0;stroke-linecap:square;stroke-width:0.8;"/>
     </g>
     <g id="line2d_4">
      <g>
       <use style="stroke:#000000;stroke-width:0.8;" x="87.8625" xlink:href="#mdba06a2306" y="352.44"/>
      </g>
     </g>
     <g id="text_2">
      <!-- −1.5 -->
      <g transform="translate(75.721094 367.038437)scale(0.1 -0.1)">
       <defs>
        <path d="M 794 531 
L 1825 531 
L 1825 4091 
L 703 3866 
L 703 4441 
L 1819 4666 
L 2450 4666 
L 2450 531 
L 3481 531 
L 3481 0 
L 794 0 
L 794 531 
z
" id="DejaVuSans-31" transform="scale(0.015625)"/>
        <path d="M 691 4666 
L 3169 4666 
L 3169 4134 
L 1269 4134 
L 1269 2991 
Q 1406 3038 1543 3061 
Q 1681 3084 1819 3084 
Q 2600 3084 3056 2656 
Q 3513 2228 3513 1497 
Q 3513 744 3044 326 
Q 2575 -91 1722 -91 
Q 1428 -91 1123 -41 
Q 819 9 494 109 
L 494 744 
Q 775 591 1075 516 
Q 1375 441 1709 441 
Q 2250 441 2565 725 
Q 2881 1009 2881 1497 
Q 2881 1984 2565 2268 
Q 2250 2553 1709 2553 
Q 1456 2553 1204 2497 
Q 953 2441 691 2322 
L 691 4666 
z
" id="DejaVuSans-35" transform="scale(0.015625)"/>
       </defs>
       <use xlink:href="#DejaVuSans-2212"/>
       <use x="83.789062" xlink:href="#DejaVuSans-31"/>
       <use x="147.412109" xlink:href="#DejaVuSans-2e"/>
       <use x="179.199219" xlink:href="#DejaVuSans-35"/>
      </g>
     </g>
    </g>
    <g id="xtick_3">
     <g id="line2d_5">
      <path clip-path="url(#p17aace4be1)" d="M 126.225 352.44 
L 126.225 47.52 
" style="fill:none;stroke:#b0b0b0;stroke-linecap:square;stroke-width:0.8;"/>
     </g>
     <g id="line2d_6">
      <g>
       <use style="stroke:#000000;stroke-width:0.8;" x="126.225" xlink:href="#mdba06a2306" y="352.44"/>
      </g>
     </g>
     <g id="text_3">
      <!-- −1.0 -->
      <g transform="translate(114.083594 367.038437)scale(0.1 -0.1)">
       <use xlink:href="#DejaVuSans-2212"/>
       <use x="83.789062" xlink:href="#DejaVuSans-31"/>
       <use x="147.412109" xlink:href="#DejaVuSans-2e"/>
       <use x="179.199219" xlink:href="#DejaVuSans-30"/>
      </g>
     </g>
    </g>
    <g id="xtick_4">
     <g id="line2d_7">
      <path clip-path="url(#p17aace4be1)" d="M 164.5875 352.44 
L 164.5875 47.52 
" style="fill:none;stroke:#b0b0b0;stroke-linecap:square;stroke-width:0.8;"/>
     </g>
     <g id="line2d_8">
      <g>
       <use style="stroke:#000000;stroke-width:0.8;" x="164.5875" xlink:href="#mdba06a2306" y="352.44"/>
      </g>
     </g>
     <g id="text_4">
      <!-- −0.5 -->
      <g transform="translate(152.446094 367.038437)scale(0.1 -0.1)">
       <use xlink:href="#DejaVuSans-2212"/>
       <use x="83.789062" xlink:href="#DejaVuSans-30"/>
       <use x="147.412109" xlink:href="#DejaVuSans-2e"/>
       <use x="179.199219" xlink:href="#DejaVuSans-35"/>
      </g>
     </g>
    </g>
    <g id="xtick_5">
     <g id="line2d_9">
      <path clip-path="url(#p17aace4be1)" d="M 202.95 352.44 
L 202.95 47.52 
" style="fill:none;stroke:#b0b0b0;stroke-linecap:square;stroke-width:0.8;"/>
     </g>
     <g id="line2d_10">
      <g>
       <use style="stroke:#000000;stroke-width:0.8;" x="202.95" xlink:href="#mdba06a2306" y="352.44"/>
      </g>
     </g>
     <g id="text_5">
      <!-- 0.0 -->
      <g transform="translate(194.998438 367.038437)scale(0.1 -0.1)">
       <use xlink:href="#DejaVuSans-30"/>
       <use x="63.623047" xlink:href="#DejaVuSans-2e"/>
       <use x="95.410156" xlink:href="#DejaVuSans-30"/>
      </g>
     </g>
    </g>
    <g id="xtick_6">
     <g id="line2d_11">
      <path clip-path="url(#p17aace4be1)" d="M 241.3125 352.44 
L 241.3125 47.52 
" style="fill:none;stroke:#b0b0b0;stroke-linecap:square;stroke-width:0.8;"/>
     </g>
     <g id="line2d_12">
      <g>
       <use style="stroke:#000000;stroke-width:0.8;" x="241.3125" xlink:href="#mdba06a2306" y="352.44"/>
      </g>
     </g>
     <g id="text_6">
      <!-- 0.5 -->
      <g transform="translate(233.360938 367.038437)scale(0.1 -0.1)">
       <use xlink:href="#DejaVuSans-30"/>
       <use x="63.623047" xlink:href="#DejaVuSans-2e"/>
       <use x="95.410156" xlink:href="#DejaVuSans-35"/>
      </g>
     </g>
    </g>
    <g id="xtick_7">
     <g id="line2d_13">
      <path clip-path="url(#p17aace4be1)" d="M 279.675 352.44 
L 279.675 47.52 
" style="fill:none;stroke:#b0b0b0;stroke-linecap:square;stroke-width:0.8;"/>
     </g>
     <g id="line2d_14">
      <g>
       <use style="stroke:#000000;stroke-width:0.8;" x="279.675" xlink:href="#mdba06a2306" y="352.44"/>
      </g>
     </g>
     <g id="text_7">
      <!-- 1.0 -->
      <g transform="translate(271.723437 367.038437)scale(0.1 -0.1)">
       <use xlink:href="#DejaVuSans-31"/>
       <use x="63.623047" xlink:href="#DejaVuSans-2e"/>
       <use x="95.410156" xlink:href="#DejaVuSans-30"/>
      </g>
     </g>
    </g>
    <g id="xtick_8">
     <g id="line2d_15">
      <path clip-path="url(#p17aace4be1)" d="M 318.0375 352.44 
L 318.0375 47.52 
" style="fill:none;stroke:#b0b0b0;stroke-linecap:square;stroke-width:0.8;"/>
     </g>
     <g id="line2d_16">
      <g>
       <use style="stroke:#000000;stroke-width:0.8;" x="318.0375" xlink:href="#mdba06a2306" y="352.44"/>
      </g>
     </g>
     <g id="text_8">
      <!-- 1.5 -->
      <g transform="translate(310.085938 367.038437)scale(0.1 -0.1)">
       <use xlink:href="#DejaVuSans-31"/>
       <use x="63.623047" xlink:href="#DejaVuSans-2e"/>
       <use x="95.410156" xlink:href="#DejaVuSans-35"/>
      </g>
     </g>
    </g>
    <g id="xtick_9">
     <g id="line2d_17">
      <path clip-path="url(#p17aace4be1)" d="M 356.4 352.44 
L 356.4 47.52 
" style="fill:none;stroke:#b0b0b0;stroke-linecap:square;stroke-width:0.8;"/>
     </g>
     <g id="line2d_18">
      <g>
       <use style="stroke:#000000;stroke-width:0.8;" x="356.4" xlink:href="#mdba06a2306" y="352.44"/>
      </g>
     </g>
     <g id="text_9">
      <!-- 2.0 -->
      <g transform="translate(348.448438 367.038437)scale(0.1 -0.1)">
       <use xlink:href="#DejaVuSans-32"/>
       <use x="63.623047" xlink:href="#DejaVuSans-2e"/>
       <use x="95.410156" xlink:href="#DejaVuSans-30"/>
      </g>
     </g>
    </g>
    <g id="text_10">
     <!-- Frequency [GHz] -->
     <g transform="translate(161.371094 380.716563)scale(0.1 -0.1)">
      <defs>
       <path d="M 628 4666 
L 3309 4666 
L 3309 4134 
L 1259 4134 
L 1259 2759 
L 3109 2759 
L 3109 2228 
L 1259 2228 
L 1259 0 
L 628 0 
L 628 4666 
z
" id="DejaVuSans-46" transform="scale(0.015625)"/>
       <path d="M 2631 2963 
Q 2534 3019 2420 3045 
Q 2306 3072 2169 3072 
Q 1681 3072 1420 2755 
Q 1159 2438 1159 1844 
L 1159 0 
L 581 0 
L 581 3500 
L 1159 3500 
L 1159 2956 
Q 1341 3275 1631 3429 
Q 1922 3584 2338 3584 
Q 2397 3584 2469 3576 
Q 2541 3569 2628 3553 
L 2631 2963 
z
" id="DejaVuSans-72" transform="scale(0.015625)"/>
       <path d="M 3597 1894 
L 3597 1613 
L 953 1613 
Q 991 1019 1311 708 
Q 1631 397 2203 397 
Q 2534 397 2845 478 
Q 3156 559 3463 722 
L 3463 178 
Q 3153 47 2828 -22 
Q 2503 -91 2169 -91 
Q 1331 -91 842 396 
Q 353 884 353 1716 
Q 353 2575 817 3079 
Q 1281 3584 2069 3584 
Q 2775 3584 3186 3129 
Q 3597 2675 3597 1894 
z
M 3022 2063 
Q 3016 2534 2758 2815 
Q 2500 3097 2075 3097 
Q 1594 3097 1305 2825 
Q 1016 2553 972 2059 
L 3022 2063 
z
" id="DejaVuSans-65" transform="scale(0.015625)"/>
       <path d="M 947 1747 
Q 947 1113 1208 752 
Q 1469 391 1925 391 
Q 2381 391 2643 752 
Q 2906 1113 2906 1747 
Q 2906 2381 2643 2742 
Q 2381 3103 1925 3103 
Q 1469 3103 1208 2742 
Q 947 2381 947 1747 
z
M 2906 525 
Q 2725 213 2448 61 
Q 2172 -91 1784 -91 
Q 1150 -91 751 415 
Q 353 922 353 1747 
Q 353 2572 751 3078 
Q 1150 3584 1784 3584 
Q 2172 3584 2448 3432 
Q 2725 3281 2906 2969 
L 2906 3500 
L 3481 3500 
L 3481 -1331 
L 2906 -1331 
L 2906 525 
z
" id="DejaVuSans-71" transform="scale(0.015625)"/>
       <path d="M 544 1381 
L 544 3500 
L 1119 3500 
L 1119 1403 
Q 1119 906 1312 657 
Q 1506 409 1894 409 
Q 2359 409 2629 706 
Q 2900 1003 2900 1516 
L 2900 3500 
L 3475 3500 
L 3475 0 
L 2900 0 
L 2900 538 
Q 2691 219 2414 64 
Q 2138 -91 1772 -91 
Q 1169 -91 856 284 
Q 544 659 544 1381 
z
M 1991 3584 
L 1991 3584 
z
" id="DejaVuSans-75" transform="scale(0.015625)"/>
       <path d="M 3513 2113 
L 3513 0 
L 2938 0 
L 2938 2094 
Q 2938 2591 2744 2837 
Q 2550 3084 2163 3084 
Q 1697 3084 1428 2787 
Q 1159 2491 1159 1978 
L 1159 0 
L 581 0 
L 581 3500 
L 1159 3500 
L 1159 2956 
Q 1366 3272 1645 3428 
Q 1925 3584 2291 3584 
Q 2894 3584 3203 3211 
Q 3513 2838 3513 2113 
z
" id="DejaVuSans-6e" transform="scale(0.015625)"/>
       <path d="M 3122 3366 
L 3122 2828 
Q 2878 2963 2633 3030 
Q 2388 3097 2138 3097 
Q 1578 3097 1268 2742 
Q 959 2388 959 1747 
Q 959 1106 1268 751 
Q 1578 397 2138 397 
Q 2388 397 2633 464 
Q 2878 531 3122 666 
L 3122 134 
Q 2881 22 2623 -34 
Q 2366 -91 2075 -91 
Q 1284 -91 818 406 
Q 353 903 353 1747 
Q 353 2603 823 3093 
Q 1294 3584 2113 3584 
Q 2378 3584 2631 3529 
Q 2884 3475 3122 3366 
z
" id="DejaVuSans-63" transform="scale(0.015625)"/>
       <path d="M 2059 -325 
Q 1816 -950 1584 -1140 
Q 1353 -1331 966 -1331 
L 506 -1331 
L 506 -850 
L 844 -850 
Q 1081 -850 1212 -737 
Q 1344 -625 1503 -206 
L 1606 56 
L 191 3500 
L 800 3500 
L 1894 763 
L 2988 3500 
L 3597 3500 
L 2059 -325 
z
" id="DejaVuSans-79" transform="scale(0.015625)"/>
       <path id="DejaVuSans-20" transform="scale(0.015625)"/>
       <path d="M 550 4863 
L 1875 4863 
L 1875 4416 
L 1125 4416 
L 1125 -397 
L 1875 -397 
L 1875 -844 
L 550 -844 
L 550 4863 
z
" id="DejaVuSans-5b" transform="scale(0.015625)"/>
       <path d="M 3809 666 
L 3809 1919 
L 2778 1919 
L 2778 2438 
L 4434 2438 
L 4434 434 
Q 4069 175 3628 42 
Q 3188 -91 2688 -91 
Q 1594 -91 976 548 
Q 359 1188 359 2328 
Q 359 3472 976 4111 
Q 1594 4750 2688 4750 
Q 3144 4750 3555 4637 
Q 3966 4525 4313 4306 
L 4313 3634 
Q 3963 3931 3569 4081 
Q 3175 4231 2741 4231 
Q 1884 4231 1454 3753 
Q 1025 3275 1025 2328 
Q 1025 1384 1454 906 
Q 1884 428 2741 428 
Q 3075 428 3337 486 
Q 3600 544 3809 666 
z
" id="DejaVuSans-47" transform="scale(0.015625)"/>
       <path d="M 628 4666 
L 1259 4666 
L 1259 2753 
L 3553 2753 
L 3553 4666 
L 4184 4666 
L 4184 0 
L 3553 0 
L 3553 2222 
L 1259 2222 
L 1259 0 
L 628 0 
L 628 4666 
z
" id="DejaVuSans-48" transform="scale(0.015625)"/>
       <path d="M 353 3500 
L 3084 3500 
L 3084 2975 
L 922 459 
L 3084 459 
L 3084 0 
L 275 0 
L 275 525 
L 2438 3041 
L 353 3041 
L 353 3500 
z
" id="DejaVuSans-7a" transform="scale(0.015625)"/>
       <path d="M 1947 4863 
L 1947 -844 
L 622 -844 
L 622 -397 
L 1369 -397 
L 1369 4416 
L 622 4416 
L 622 4863 
L 1947 4863 
z
" id="DejaVuSans-5d" transform="scale(0.015625)"/>
      </defs>
      <use xlink:href="#DejaVuSans-46"/>
      <use x="50.269531" xlink:href="#DejaVuSans-72"/>
      <use x="89.132812" xlink:href="#DejaVuSans-65"/>
      <use x="150.65625" xlink:href="#DejaVuSans-71"/>
      <use x="214.132812" xlink:href="#DejaVuSans-75"/>
      <use x="277.511719" xlink:href="#DejaVuSans-65"/>
      <use x="339.035156" xlink:href="#DejaVuSans-6e"/>
      <use x="402.414062" xlink:href="#DejaVuSans-63"/>
      <use x="457.394531" xlink:href="#DejaVuSans-79"/>
      <use x="516.574219" xlink:href="#DejaVuSans-20"/>
      <use x="548.361328" xlink:href="#DejaVuSans-5b"/>
      <use x="587.375" xlink:href="#DejaVuSans-47"/>
      <use x="664.865234" xlink:href="#DejaVuSans-48"/>
      <use x="740.060547" xlink:href="#DejaVuSans-7a"/>
      <use x="792.550781" xlink:href="#DejaVuSans-5d"/>
     </g>
    </g>
   </g>
   <g id="matplotlib.axis_2">
    <g id="ytick_1">
     <g id="line2d_19">
      <path clip-path="url(#p17aace4be1)" d="M 49.5 352.44 
L 356.4 352.44 
" style="fill:none;stroke:#b0b0b0;stroke-linecap:square;stroke-width:0.8;"/>
     </g>
     <g id="line2d_20">
      <defs>
       <path d="M 0 0 
L -3.5 0 
" id="mf0444e5d8b" style="stroke:#000000;stroke-width:0.8;"/>
      </defs>
      <g>
       <use style="stroke:#000000;stroke-width:0.8;" x="49.5" xlink:href="#mf0444e5d8b" y="352.44"/>
      </g>
     </g>
     <g id="text_11">
      <!-- −6 -->
      <g transform="translate(27.757812 356.239219)scale(0.1 -0.1)">
       <defs>
        <path d="M 2113 2584 
Q 1688 2584 1439 2293 
Q 1191 2003 1191 1497 
Q 1191 994 1439 701 
Q 1688 409 2113 409 
Q 2538 409 2786 701 
Q 3034 994 3034 1497 
Q 3034 2003 2786 2293 
Q 2538 2584 2113 2584 
z
M 3366 4563 
L 3366 3988 
Q 3128 4100 2886 4159 
Q 2644 4219 2406 4219 
Q 1781 4219 1451 3797 
Q 1122 3375 1075 2522 
Q 1259 2794 1537 2939 
Q 1816 3084 2150 3084 
Q 2853 3084 3261 2657 
Q 3669 2231 3669 1497 
Q 3669 778 3244 343 
Q 2819 -91 2113 -91 
Q 1303 -91 875 529 
Q 447 1150 447 2328 
Q 447 3434 972 4092 
Q 1497 4750 2381 4750 
Q 2619 4750 2861 4703 
Q 3103 4656 3366 4563 
z
" id="DejaVuSans-36" transform="scale(0.015625)"/>
       </defs>
       <use xlink:href="#DejaVuSans-2212"/>
       <use x="83.789062" xlink:href="#DejaVuSans-36"/>
      </g>
     </g>
    </g>
    <g id="ytick_2">
     <g id="line2d_21">
      <path clip-path="url(#p17aace4be1)" d="M 49.5 308.88 
L 356.4 308.88 
" style="fill:none;stroke:#b0b0b0;stroke-linecap:square;stroke-width:0.8;"/>
     </g>
     <g id="line2d_22">
      <g>
       <use style="stroke:#000000;stroke-width:0.8;" x="49.5" xlink:href="#mf0444e5d8b" y="308.88"/>
      </g>
     </g>
     <g id="text_12">
      <!-- −5 -->
      <g transform="translate(27.757812 312.679219)scale(0.1 -0.1)">
       <use xlink:href="#DejaVuSans-2212"/>
       <use x="83.789062" xlink:href="#DejaVuSans-35"/>
      </g>
     </g>
    </g>
    <g id="ytick_3">
     <g id="line2d_23">
      <path clip-path="url(#p17aace4be1)" d="M 49.5 265.32 
L 356.4 265.32 
" style="fill:none;stroke:#b0b0b0;stroke-linecap:square;stroke-width:0.8;"/>
     </g>
     <g id="line2d_24">
      <g>
       <use style="stroke:#000000;stroke-width:0.8;" x="49.5" xlink:href="#mf0444e5d8b" y="265.32"/>
      </g>
     </g>
     <g id="text_13">
      <!-- −4 -->
      <g transform="translate(27.757812 269.119219)scale(0.1 -0.1)">
       <defs>
        <path d="M 2419 4116 
L 825 1625 
L 2419 1625 
L 2419 4116 
z
M 2253 4666 
L 3047 4666 
L 3047 1625 
L 3713 1625 
L 3713 1100 
L 3047 1100 
L 3047 0 
L 2419 0 
L 2419 1100 
L 313 1100 
L 313 1709 
L 2253 4666 
z
" id="DejaVuSans-34" transform="scale(0.015625)"/>
       </defs>
       <use xlink:href="#DejaVuSans-2212"/>
       <use x="83.789062" xlink:href="#DejaVuSans-34"/>
      </g>
     </g>
    </g>
    <g id="ytick_4">
     <g id="line2d_25">
      <path clip-path="url(#p17aace4be1)" d="M 49.5 221.76 
L 356.4 221.76 
" style="fill:none;stroke:#b0b0b0;stroke-linecap:square;stroke-width:0.8;"/>
     </g>
     <g id="line2d_26">
      <g>
       <use style="stroke:#000000;stroke-width:0.8;" x="49.5" xlink:href="#mf0444e5d8b" y="221.76"/>
      </g>
     </g>
     <g id="text_14">
      <!-- −3 -->
      <g transform="translate(27.757812 225.559219)scale(0.1 -0.1)">
       <defs>
        <path d="M 2597 2516 
Q 3050 2419 3304 2112 
Q 3559 1806 3559 1356 
Q 3559 666 3084 287 
Q 2609 -91 1734 -91 
Q 1441 -91 1130 -33 
Q 819 25 488 141 
L 488 750 
Q 750 597 1062 519 
Q 1375 441 1716 441 
Q 2309 441 2620 675 
Q 2931 909 2931 1356 
Q 2931 1769 2642 2001 
Q 2353 2234 1838 2234 
L 1294 2234 
L 1294 2753 
L 1863 2753 
Q 2328 2753 2575 2939 
Q 2822 3125 2822 3475 
Q 2822 3834 2567 4026 
Q 2313 4219 1838 4219 
Q 1578 4219 1281 4162 
Q 984 4106 628 3988 
L 628 4550 
Q 988 4650 1302 4700 
Q 1616 4750 1894 4750 
Q 2613 4750 3031 4423 
Q 3450 4097 3450 3541 
Q 3450 3153 3228 2886 
Q 3006 2619 2597 2516 
z
" id="DejaVuSans-33" transform="scale(0.015625)"/>
       </defs>
       <use xlink:href="#DejaVuSans-2212"/>
       <use x="83.789062" xlink:href="#DejaVuSans-33"/>
      </g>
     </g>
    </g>
    <g id="ytick_5">
     <g id="line2d_27">
      <path clip-path="url(#p17aace4be1)" d="M 49.5 178.2 
L 356.4 178.2 
" style="fill:none;stroke:#b0b0b0;stroke-linecap:square;stroke-width:0.8;"/>
     </g>
     <g id="line2d_28">
      <g>
       <use style="stroke:#000000;stroke-width:0.8;" x="49.5" xlink:href="#mf0444e5d8b" y="178.2"/>
      </g>
     </g>
     <g id="text_15">
      <!-- −2 -->
      <g transform="translate(27.757812 181.999219)scale(0.1 -0.1)">
       <use xlink:href="#DejaVuSans-2212"/>
       <use x="83.789062" xlink:href="#DejaVuSans-32"/>
      </g>
     </g>
    </g>
    <g id="ytick_6">
     <g id="line2d_29">
      <path clip-path="url(#p17aace4be1)" d="M 49.5 134.64 
L 356.4 134.64 
" style="fill:none;stroke:#b0b0b0;stroke-linecap:square;stroke-width:0.8;"/>
     </g>
     <g id="line2d_30">
      <g>
       <use style="stroke:#000000;stroke-width:0.8;" x="49.5" xlink:href="#mf0444e5d8b" y="134.64"/>
      </g>
     </g>
     <g id="text_16">
      <!-- −1 -->
      <g transform="translate(27.757812 138.439219)scale(0.1 -0.1)">
       <use xlink:href="#DejaVuSans-2212"/>
       <use x="83.789062" xlink:href="#DejaVuSans-31"/>
      </g>
     </g>
    </g>
    <g id="ytick_7">
     <g id="line2d_31">
      <path clip-path="url(#p17aace4be1)" d="M 49.5 91.08 
L 356.4 91.08 
" style="fill:none;stroke:#b0b0b0;stroke-linecap:square;stroke-width:0.8;"/>
     </g>
     <g id="line2d_32">
      <g>
       <use style="stroke:#000000;stroke-width:0.8;" x="49.5" xlink:href="#mf0444e5d8b" y="91.08"/>
      </g>
     </g>
     <g id="text_17">
      <!-- 0 -->
      <g transform="translate(36.1375 94.879219)scale(0.1 -0.1)">
       <use xlink:href="#DejaVuSans-30"/>
      </g>
     </g>
    </g>
    <g id="ytick_8">
     <g id="line2d_33">
      <path clip-path="url(#p17aace4be1)" d="M 49.5 47.52 
L 356.4 47.52 
" style="fill:none;stroke:#b0b0b0;stroke-linecap:square;stroke-width:0.8;"/>
     </g>
     <g id="line2d_34">
      <g>
       <use style="stroke:#000000;stroke-width:0.8;" x="49.5" xlink:href="#mf0444e5d8b" y="47.52"/>
      </g>
     </g>
     <g id="text_18">
      <!-- 1 -->
      <g transform="translate(36.1375 51.319219)scale(0.1 -0.1)">
       <use xlink:href="#DejaVuSans-31"/>
      </g>
     </g>
    </g>
    <g id="text_19">
     <!-- Magnitude [dB] -->
     <g transform="translate(21.678125 238.565156)rotate(-90)scale(0.1 -0.1)">
      <defs>
       <path d="M 628 4666 
L 1569 4666 
L 2759 1491 
L 3956 4666 
L 4897 4666 
L 4897 0 
L 4281 0 
L 4281 4097 
L 3078 897 
L 2444 897 
L 1241 4097 
L 1241 0 
L 628 0 
L 628 4666 
z
" id="DejaVuSans-4d" transform="scale(0.015625)"/>
       <path d="M 2194 1759 
Q 1497 1759 1228 1600 
Q 959 1441 959 1056 
Q 959 750 1161 570 
Q 1363 391 1709 391 
Q 2188 391 2477 730 
Q 2766 1069 2766 1631 
L 2766 1759 
L 2194 1759 
z
M 3341 1997 
L 3341 0 
L 2766 0 
L 2766 531 
Q 2569 213 2275 61 
Q 1981 -91 1556 -91 
Q 1019 -91 701 211 
Q 384 513 384 1019 
Q 384 1609 779 1909 
Q 1175 2209 1959 2209 
L 2766 2209 
L 2766 2266 
Q 2766 2663 2505 2880 
Q 2244 3097 1772 3097 
Q 1472 3097 1187 3025 
Q 903 2953 641 2809 
L 641 3341 
Q 956 3463 1253 3523 
Q 1550 3584 1831 3584 
Q 2591 3584 2966 3190 
Q 3341 2797 3341 1997 
z
" id="DejaVuSans-61" transform="scale(0.015625)"/>
       <path d="M 2906 1791 
Q 2906 2416 2648 2759 
Q 2391 3103 1925 3103 
Q 1463 3103 1205 2759 
Q 947 2416 947 1791 
Q 947 1169 1205 825 
Q 1463 481 1925 481 
Q 2391 481 2648 825 
Q 2906 1169 2906 1791 
z
M 3481 434 
Q 3481 -459 3084 -895 
Q 2688 -1331 1869 -1331 
Q 1566 -1331 1297 -1286 
Q 1028 -1241 775 -1147 
L 775 -588 
Q 1028 -725 1275 -790 
Q 1522 -856 1778 -856 
Q 2344 -856 2625 -561 
Q 2906 -266 2906 331 
L 2906 616 
Q 2728 306 2450 153 
Q 2172 0 1784 0 
Q 1141 0 747 490 
Q 353 981 353 1791 
Q 353 2603 747 3093 
Q 1141 3584 1784 3584 
Q 2172 3584 2450 3431 
Q 2728 3278 2906 2969 
L 2906 3500 
L 3481 3500 
L 3481 434 
z
" id="DejaVuSans-67" transform="scale(0.015625)"/>
       <path d="M 603 3500 
L 1178 3500 
L 1178 0 
L 603 0 
L 603 3500 
z
M 603 4863 
L 1178 4863 
L 1178 4134 
L 603 4134 
L 603 4863 
z
" id="DejaVuSans-69" transform="scale(0.015625)"/>
       <path d="M 1172 4494 
L 1172 3500 
L 2356 3500 
L 2356 3053 
L 1172 3053 
L 1172 1153 
Q 1172 725 1289 603 
Q 1406 481 1766 481 
L 2356 481 
L 2356 0 
L 1766 0 
Q 1100 0 847 248 
Q 594 497 594 1153 
L 594 3053 
L 172 3053 
L 172 3500 
L 594 3500 
L 594 4494 
L 1172 4494 
z
" id="DejaVuSans-74" transform="scale(0.015625)"/>
       <path d="M 2906 2969 
L 2906 4863 
L 3481 4863 
L 3481 0 
L 2906 0 
L 2906 525 
Q 2725 213 2448 61 
Q 2172 -91 1784 -91 
Q 1150 -91 751 415 
Q 353 922 353 1747 
Q 353 2572 751 3078 
Q 1150 3584 1784 3584 
Q 2172 3584 2448 3432 
Q 2725 3281 2906 2969 
z
M 947 1747 
Q 947 1113 1208 752 
Q 1469 391 1925 391 
Q 2381 391 2643 752 
Q 2906 1113 2906 1747 
Q 2906 2381 2643 2742 
Q 2381 3103 1925 3103 
Q 1469 3103 1208 2742 
Q 947 2381 947 1747 
z
" id="DejaVuSans-64" transform="scale(0.015625)"/>
       <path d="M 1259 2228 
L 1259 519 
L 2272 519 
Q 2781 519 3026 730 
Q 3272 941 3272 1375 
Q 3272 1813 3026 2020 
Q 2781 2228 2272 2228 
L 1259 2228 
z
M 1259 4147 
L 1259 2741 
L 2194 2741 
Q 2656 2741 2882 2914 
Q 3109 3088 3109 3444 
Q 3109 3797 2882 3972 
Q 2656 4147 2194 4147 
L 1259 4147 
z
M 628 4666 
L 2241 4666 
Q 2963 4666 3353 4366 
Q 3744 4066 3744 3513 
Q 3744 3084 3544 2831 
Q 3344 2578 2956 2516 
Q 3422 2416 3680 2098 
Q 3938 1781 3938 1306 
Q 3938 681 3513 340 
Q 3088 0 2303 0 
L 628 0 
L 628 4666 
z
" id="DejaVuSans-42" transform="scale(0.015625)"/>
      </defs>
      <use xlink:href="#DejaVuSans-4d"/>
      <use x="86.279297" xlink:href="#DejaVuSans-61"/>
      <use x="147.558594" xlink:href="#DejaVuSans-67"/>
      <use x="211.035156" xlink:href="#DejaVuSans-6e"/>
      <use x="274.414062" xlink:href="#DejaVuSans-69"/>
      <use x="302.197266" xlink:href="#DejaVuSans-74"/>
      <use x="341.40625" xlink:href="#DejaVuSans-75"/>
      <use x="404.785156" xlink:href="#DejaVuSans-64"/>
      <use x="468.261719" xlink:href="#DejaVuSans-65"/>
      <use x="529.785156" xlink:href="#DejaVuSans-20"/>
      <use x="561.572266" xlink:href="#DejaVuSans-5b"/>
      <use x="600.585938" xlink:href="#DejaVuSans-64"/>
      <use x="664.0625" xlink:href="#DejaVuSans-42"/>
      <use x="732.666016" xlink:href="#DejaVuSans-5d"/>
     </g>
    </g>
   </g>
   <g id="line2d_35">
    <path clip-path="url(#p17aace4be1)" d="M 49.425073 168.781757 
L 49.574927 168.781783 
L 49.799707 169.127029 
L 50.099414 170.264565 
L 50.474048 172.940746 
L 50.848682 177.483214 
L 51.223315 185.170328 
L 51.523022 196.447342 
L 51.747803 215.880888 
L 51.897656 244.943404 
L 52.122437 202.410236 
L 52.422144 187.818574 
L 52.796777 178.685098 
L 53.246338 172.556986 
L 53.695898 169.219047 
L 54.070532 167.93315 
L 54.295313 167.72751 
L 54.445166 167.818989 
L 54.669946 168.305198 
L 54.969653 169.648879 
L 55.344287 172.647145 
L 55.718921 177.677998 
L 56.093555 186.347099 
L 56.393262 199.996091 
L 56.543115 215.046744 
L 56.692969 242.870469 
L 56.917749 201.239161 
L 57.217456 186.704539 
L 57.667017 176.301981 
L 58.116577 170.75158 
L 58.566138 167.774547 
L 58.865845 166.844916 
L 59.090625 166.639284 
L 59.240479 166.730774 
L 59.465259 167.217101 
L 59.764966 168.561359 
L 60.1396 171.561783 
L 60.514233 176.598526 
L 60.888867 185.285005 
L 61.188574 198.988547 
L 61.338428 214.172329 
L 61.488281 240.726081 
L 61.713062 200.00241 
L 62.012769 185.528191 
L 62.462329 175.145783 
L 62.91189 169.600925 
L 63.36145 166.625431 
L 63.661157 165.695999 
L 63.885938 165.490375 
L 64.035791 165.581877 
L 64.260571 166.068332 
L 64.560278 167.413213 
L 64.934912 170.415964 
L 65.309546 175.459055 
L 65.68418 184.164283 
L 65.983887 197.926901 
L 66.13374 213.256361 
L 66.283594 238.50237 
L 66.508374 198.694899 
L 66.808081 184.284874 
L 67.257642 173.92397 
L 67.707202 168.385031 
L 68.156763 165.411178 
L 68.45647 164.481955 
L 68.68125 164.276339 
L 68.831104 164.367855 
L 69.055884 164.854448 
L 69.355591 166.200006 
L 69.730225 169.205279 
L 70.104858 174.255246 
L 70.479492 182.980801 
L 70.779199 196.807735 
L 70.929053 212.297605 
L 71.078906 236.190523 
L 71.303687 197.310785 
L 71.603394 182.969245 
L 72.052954 172.631387 
L 72.502515 167.098795 
L 72.952075 164.126696 
L 73.251782 163.197696 
L 73.476563 162.992087 
L 73.626416 163.083618 
L 73.851196 163.570365 
L 74.150903 164.916662 
L 74.525537 167.924682 
L 74.900171 172.982135 
L 75.274805 181.729847 
L 75.574512 195.627213 
L 75.724365 211.294952 
L 75.874219 233.780565 
L 76.098999 195.843305 
L 76.398706 181.575137 
L 76.848267 171.262087 
L 77.297827 165.736334 
L 77.747388 162.76612 
L 78.047095 161.837355 
L 78.271875 161.631753 
L 78.421729 161.723301 
L 78.646509 162.210217 
L 78.946216 163.557326 
L 79.32085 166.568358 
L 79.695483 171.63401 
L 80.070117 180.40602 
L 80.369824 194.381017 
L 80.519678 210.247538 
L 80.669531 231.261077 
L 80.894312 194.284578 
L 81.194019 180.095377 
L 81.643579 169.809165 
L 82.09314 164.290814 
L 82.5427 161.322635 
L 82.842407 160.39412 
L 83.067188 160.188525 
L 83.217041 160.280092 
L 83.441821 160.767196 
L 83.741528 162.115204 
L 84.116162 165.129557 
L 84.490796 170.204251 
L 84.86543 179.003087 
L 85.165137 193.064269 
L 85.31499 209.154927 
L 85.389917 230.560893 
L 85.464844 228.618846 
L 85.689624 192.62533 
L 85.989331 178.521548 
L 86.438892 168.264529 
L 86.888452 162.754236 
L 87.338013 159.788264 
L 87.63772 158.860017 
L 87.8625 158.654427 
L 88.012354 158.746016 
L 88.237134 159.233331 
L 88.536841 160.582341 
L 88.911475 163.600387 
L 89.286108 168.685121 
L 89.660742 177.513799 
L 89.960449 191.671449 
L 90.110303 208.017417 
L 90.185229 230.395469 
L 90.260156 225.838399 
L 90.484937 190.854553 
L 90.784644 176.843686 
L 91.234204 166.618613 
L 91.683765 161.117144 
L 92.133325 158.153579 
L 92.433032 157.225619 
L 92.657813 157.020032 
L 92.807666 157.111647 
L 93.032446 157.599202 
L 93.332153 158.949338 
L 93.706787 161.971521 
L 94.081421 167.067502 
L 94.456055 175.929659 
L 94.755762 190.196299 
L 94.905615 206.836519 
L 94.980542 230.418566 
L 95.055469 222.901384 
L 95.280249 188.959027 
L 95.579956 175.04986 
L 96.029517 164.859981 
L 96.479077 159.368241 
L 96.928638 156.407318 
L 97.228345 155.479667 
L 97.453125 155.274081 
L 97.602979 155.365725 
L 97.827759 155.853554 
L 98.127466 157.204969 
L 98.5021 160.231835 
L 98.876733 165.340531 
L 99.251367 174.240617 
L 99.551074 188.631714 
L 99.700928 205.615777 
L 99.775854 230.736043 
L 99.850781 219.785748 
L 100.075562 186.922687 
L 100.375269 173.12561 
L 100.824829 162.974802 
L 101.27439 157.49387 
L 101.72395 154.535867 
L 102.023657 153.608547 
L 102.248438 153.402959 
L 102.398291 153.494638 
L 102.623071 153.982785 
L 102.922778 155.335669 
L 103.297412 158.36789 
L 103.672046 163.491122 
L 104.04668 172.434663 
L 104.27146 182.066469 
L 104.421313 193.697475 
L 104.49624 204.362135 
L 104.571167 231.53111 
L 104.870874 184.72572 
L 105.245508 168.834338 
L 105.695068 159.803574 
L 106.144629 154.837368 
L 106.594189 152.218563 
L 106.893896 151.481271 
L 107.118677 151.41285 
L 107.343457 151.759516 
L 107.643164 152.905576 
L 108.017798 155.615834 
L 108.392432 160.252362 
L 108.767065 168.207551 
L 109.066772 180.224978 
L 109.216626 192.067214 
L 109.291553 203.088388 
L 109.366479 233.152913 
L 109.59126 188.205796 
L 109.890967 171.348945 
L 110.265601 161.398131 
L 110.715161 154.781709 
L 111.164722 151.106437 
L 111.539355 149.580429 
L 111.764136 149.237155 
L 111.913989 149.237213 
L 112.13877 149.584146 
L 112.438477 150.731723 
L 112.81311 153.447894 
L 113.187744 158.100637 
L 113.562378 166.102387 
L 113.862085 178.2524 
L 114.011938 190.350291 
L 114.086865 201.817683 
L 114.161792 236.376359 
L 114.386572 185.491922 
L 114.686279 168.886253 
L 115.060913 159.002013 
L 115.510474 152.409158 
L 115.960034 148.740602 
L 116.334668 147.215701 
L 116.559448 146.872435 
L 116.709302 146.872497 
L 116.934082 147.219759 
L 117.233789 148.369165 
L 117.608423 151.092423 
L 117.983057 155.764566 
L 118.35769 163.822174 
L 118.657397 176.132878 
L 118.807251 188.547789 
L 118.882178 200.59235 
L 118.957104 243.486643 
L 119.181885 182.50464 
L 119.481592 166.18475 
L 119.856226 156.37758 
L 120.305786 149.812082 
L 120.755347 146.151268 
L 121.12998 144.627598 
L 121.354761 144.284321 
L 121.504614 144.28439 
L 121.729395 144.632063 
L 122.029102 145.783728 
L 122.403735 148.515666 
L 122.778369 153.211535 
L 123.153003 161.337677 
L 123.45271 173.848046 
L 123.602563 186.668303 
L 123.67749 199.49252 
L 123.752417 270.627274 
L 123.902271 186.937877 
L 124.201978 166.06685 
L 124.576611 154.993838 
L 125.026172 147.792603 
L 125.475732 143.750637 
L 125.850366 141.977449 
L 126.150073 141.427015 
L 126.299927 141.427092 
L 126.524707 141.775298 
L 126.824414 142.929829 
L 127.199048 145.672695 
L 127.573682 150.398377 
L 127.948315 158.61101 
L 128.248022 171.377404 
L 128.397876 184.737041 
L 128.472803 198.679629 
L 128.547729 242.65161 
L 128.697583 182.860414 
L 128.99729 162.670873 
L 129.371924 151.740597 
L 129.821484 144.587106 
L 130.271045 140.558674 
L 130.645679 138.787806 
L 130.945386 138.237329 
L 131.095239 138.237416 
L 131.32002 138.586336 
L 131.619727 139.744639 
L 131.99436 142.501744 
L 132.368994 147.266209 
L 132.743628 155.592007 
L 133.043335 168.700467 
L 133.193188 182.817796 
L 133.343042 221.113924 
L 133.567822 171.181 
L 133.867529 156.036728 
L 134.31709 145.217107 
L 134.76665 139.350107 
L 135.216211 136.084001 
L 135.590845 134.807503 
L 135.815625 134.601475 
L 135.965479 134.693847 
L 136.190259 135.187687 
L 136.489966 136.565315 
L 136.8646 139.685337 
L 137.239233 145.046063 
L 137.53894 152.212828 
L 137.838647 165.80454 
L 137.988501 181.072567 
L 138.138354 205.963086 
L 138.363135 166.199381 
L 138.662842 151.617214 
L 139.112402 140.981476 
L 139.561963 135.163434 
L 140.011523 131.909566 
L 140.386157 130.633759 
L 140.610938 130.427404 
L 140.760791 130.520095 
L 140.985571 131.016353 
L 141.285278 132.403956 
L 141.659912 135.55855 
L 142.034546 141.012879 
L 142.334253 148.380463 
L 142.559033 157.86321 
L 142.708887 169.37766 
L 142.783813 179.9558 
L 142.85874 206.780702 
L 143.158447 160.215174 
L 143.533081 144.071607 
L 143.982642 134.753579 
L 144.432202 129.502142 
L 144.881763 126.599472 
L 145.18147 125.674811 
L 145.40625 125.467824 
L 145.556104 125.561054 
L 145.780884 126.061255 
L 146.080591 127.464783 
L 146.455225 130.674072 
L 146.829858 136.277149 
L 147.129565 143.970274 
L 147.354346 154.172681 
L 147.504199 167.361101 
L 147.579126 181.089354 
L 147.654053 229.002478 
L 147.803906 165.595037 
L 148.103613 145.124163 
L 148.478247 133.935104 
L 148.927808 126.485465 
L 149.377368 122.164399 
L 149.752002 120.152207 
L 150.051709 119.412078 
L 150.276489 119.342739 
L 150.50127 119.701405 
L 150.800977 120.907177 
L 151.100684 123.100983 
L 151.475317 127.775121 
L 151.775024 134.095029 
L 152.074731 145.693698 
L 152.224585 157.262028 
L 152.299512 168.042833 
L 152.374438 196.766999 
L 152.674146 147.270131 
L 153.048779 130.989117 
L 153.49834 121.396484 
L 153.9479 115.846607 
L 154.397461 112.639727 
L 154.772095 111.351032 
L 154.996875 111.138938 
L 155.146729 111.235742 
L 155.371509 111.760645 
L 155.671216 113.260263 
L 155.970923 115.906487 
L 156.345557 121.667544 
L 156.645264 130.08459 
L 156.870044 142.424278 
L 157.019897 162.791754 
L 157.094824 275.79228 
L 157.244678 149.044851 
L 157.544385 127.730562 
L 157.919019 115.917405 
L 158.368579 107.778891 
L 158.893066 102.159331 
L 159.342627 99.523582 
L 159.642334 98.732532 
L 159.867114 98.656857 
L 160.016968 98.873721 
L 160.241748 99.653041 
L 160.541455 101.737527 
L 160.841162 105.551596 
L 161.140869 112.542017 
L 161.365649 122.824267 
L 161.515503 137.986211 
L 161.59043 158.470201 
L 161.665356 157.632476 
L 161.890137 119.773773 
L 162.264771 101.159163 
L 162.789258 87.58203 
L 163.388672 77.655578 
L 164.137939 69.030347 
L 164.887207 62.829505 
L 165.636475 58.261439 
L 166.385742 54.926866 
L 167.13501 52.585981 
L 167.809351 51.190649 
L 168.408765 50.434046 
L 168.933252 50.094119 
L 169.457739 50.01102 
L 170.057153 50.173961 
L 170.806421 50.659233 
L 173.503784 52.706338 
L 174.178125 52.821409 
L 174.852466 52.71523 
L 175.751587 52.314127 
L 178.074316 51.1205 
L 178.898511 50.990322 
L 179.722705 51.075867 
L 180.77168 51.43082 
L 183.094409 52.31512 
L 183.99353 52.371819 
L 184.967578 52.193146 
L 186.690894 51.570745 
L 187.964648 51.242246 
L 188.938696 51.217 
L 189.987671 51.414502 
L 193.359375 52.251043 
L 194.40835 52.134741 
L 195.906885 51.70093 
L 197.480347 51.31357 
L 198.529321 51.282398 
L 199.653223 51.476635 
L 202.875073 52.218323 
L 203.924048 52.123651 
L 205.347656 51.739043 
L 207.070972 51.313299 
L 208.119946 51.282445 
L 209.243848 51.479415 
L 212.540625 52.251043 
L 213.5896 52.132453 
L 215.013208 51.701387 
L 216.661597 51.25203 
L 217.635645 51.211372 
L 218.684619 51.402257 
L 220.333008 51.994147 
L 221.606763 52.341104 
L 222.505884 52.359087 
L 223.405005 52.158499 
L 224.828613 51.562058 
L 226.177295 51.075867 
L 227.076416 50.993046 
L 227.90061 51.143009 
L 228.874658 51.570867 
L 231.272314 52.773109 
L 231.946655 52.808762 
L 232.620996 52.616973 
L 233.370264 52.155853 
L 234.644019 51.042004 
L 235.692993 50.249914 
L 236.367334 50.017589 
L 236.891821 50.067519 
L 237.416309 50.368163 
L 237.940796 50.961553 
L 238.465283 51.889219 
L 239.064697 53.414794 
L 239.739038 55.813907 
L 240.413379 59.066698 
L 241.08772 63.367349 
L 241.762061 69.030347 
L 242.436401 76.643989 
L 243.035815 86.115762 
L 243.485376 96.488269 
L 243.86001 110.467852 
L 244.08479 126.524655 
L 244.30957 158.470201 
L 244.534351 122.824267 
L 244.834058 110.336522 
L 245.208691 103.371819 
L 245.583325 100.049929 
L 245.883032 98.873721 
L 246.107813 98.630548 
L 246.257666 98.732532 
L 246.482446 99.25406 
L 246.782153 100.619019 
L 247.156787 103.452146 
L 247.606348 108.868709 
L 247.980981 115.917405 
L 248.355615 127.730562 
L 248.580396 141.223673 
L 248.730249 162.307065 
L 248.805176 275.79228 
L 248.955029 149.87164 
L 249.254736 130.08459 
L 249.62937 120.214616 
L 250.078931 114.417017 
L 250.453564 112.044241 
L 250.753271 111.235742 
L 250.978052 111.162693 
L 251.202832 111.514978 
L 251.502539 112.639727 
L 251.877173 115.171818 
L 252.251807 119.221947 
L 252.62644 125.479702 
L 253.001074 135.939105 
L 253.225854 147.270131 
L 253.375708 162.025231 
L 253.525562 196.766999 
L 253.750342 150.546304 
L 254.050049 136.285324 
L 254.424683 127.775121 
L 254.874243 122.44575 
L 255.248877 120.193789 
L 255.548584 119.413568 
L 255.773364 119.342553 
L 255.998145 119.689337 
L 256.297852 120.805627 
L 256.672485 123.345549 
L 257.047119 127.461517 
L 257.421753 133.935104 
L 257.72146 142.244176 
L 257.94624 152.719737 
L 258.096094 165.595037 
L 258.171021 178.123653 
L 258.245947 229.002478 
L 258.395801 167.361101 
L 258.695508 146.726224 
L 259.070142 136.277149 
L 259.519702 129.877547 
L 259.969263 126.650731 
L 260.26897 125.678685 
L 260.49375 125.467824 
L 260.643604 125.559912 
L 260.868384 126.043031 
L 261.168091 127.352074 
L 261.542725 130.189531 
L 261.917358 134.753579 
L 262.291992 142.072547 
L 262.591699 151.995398 
L 262.816479 166.238751 
L 262.966333 192.239162 
L 263.04126 206.780702 
L 263.26604 162.711873 
L 263.565747 148.380463 
L 263.940381 139.671496 
L 264.389941 134.077719 
L 264.764575 131.599863 
L 265.064282 130.636925 
L 265.289062 130.427404 
L 265.438916 130.519162 
L 265.663696 131.001462 
L 265.963403 132.311915 
L 266.338037 135.163434 
L 266.712671 139.774398 
L 267.087305 147.23012 
L 267.387012 157.493297 
L 267.611792 172.762476 
L 267.761646 205.963086 
L 267.836572 199.959053 
L 268.061353 165.80454 
L 268.36106 152.212828 
L 268.735693 143.731702 
L 269.185254 138.222588 
L 269.559888 135.76748 
L 269.859595 134.810192 
L 270.084375 134.601475 
L 270.234229 134.693054 
L 270.459009 135.175039 
L 270.758716 136.487161 
L 271.13335 139.350107 
L 271.507983 143.99715 
L 271.882617 151.557058 
L 272.182324 162.083818 
L 272.407104 178.19983 
L 272.482031 189.473102 
L 272.556958 221.113924 
L 272.781738 174.428771 
L 273.081445 158.031399 
L 273.456079 148.561988 
L 273.90564 142.501744 
L 274.3552 139.37609 
L 274.654907 138.422634 
L 274.879688 138.214446 
L 275.029541 138.305919 
L 275.254321 138.787806 
L 275.554028 140.101532 
L 275.928662 142.973835 
L 276.303296 147.649501 
L 276.67793 155.291693 
L 276.977637 166.029522 
L 277.202417 182.860414 
L 277.277344 195.210701 
L 277.352271 242.65161 
L 277.502124 184.737041 
L 277.801831 163.813351 
L 278.176465 153.112785 
L 278.626025 146.431692 
L 279.075586 142.929829 
L 279.45022 141.611969 
L 279.675 141.404154 
L 279.824854 141.495559 
L 280.049634 141.977449 
L 280.349341 143.292635 
L 280.723975 146.172717 
L 281.098608 150.871703 
L 281.473242 158.580786 
L 281.772949 169.492207 
L 281.997729 186.937877 
L 282.072656 200.301882 
L 282.147583 270.627274 
L 282.297437 186.668303 
L 282.597144 166.457173 
L 282.971777 155.902559 
L 283.421338 149.270786 
L 283.870898 145.783728 
L 284.245532 144.469015 
L 284.470312 144.261474 
L 284.620166 144.352836 
L 284.844946 144.834777 
L 285.144653 146.151268 
L 285.519287 149.037923 
L 285.893921 153.756335 
L 286.268555 161.521083 
L 286.568262 172.578399 
L 286.793042 190.560988 
L 286.867969 204.886529 
L 286.942896 243.486643 
L 287.092749 188.547789 
L 287.392456 168.876535 
L 287.76709 158.437009 
L 288.21665 151.844457 
L 288.666211 148.369165 
L 289.040845 147.056929 
L 289.265625 146.849598 
L 289.415479 146.94093 
L 289.640259 147.422946 
L 289.939966 148.740602 
L 290.3146 151.632891 
L 290.689233 156.36779 
L 291.063867 164.179759 
L 291.363574 175.361898 
L 291.588354 193.819533 
L 291.738208 236.376359 
L 291.962988 183.316082 
L 292.262695 168.410705 
L 292.637329 159.357243 
L 293.08689 153.447894 
L 293.53645 150.367105 
L 293.836157 149.421491 
L 294.060938 149.214327 
L 294.210791 149.305638 
L 294.435571 149.787739 
L 294.735278 151.106437 
L 295.109912 154.003622 
L 295.484546 158.752731 
L 295.85918 166.605403 
L 296.158887 177.89594 
L 296.383667 196.778537 
L 296.533521 233.152913 
L 296.758301 185.2011 
L 297.058008 170.497283 
L 297.432642 161.503296 
L 297.882202 155.615834 
L 298.331763 152.541519 
L 298.63147 151.597005 
L 298.85625 151.389975 
L 299.006104 151.481271 
L 299.230884 151.963461 
L 299.530591 153.283096 
L 299.905225 156.184583 
L 300.279858 160.946105 
L 300.654492 168.834338 
L 300.954199 180.220204 
L 301.178979 199.486575 
L 301.328833 231.53111 
L 301.553613 186.969657 
L 301.85332 172.434663 
L 302.227954 163.491122 
L 302.677515 157.622283 
L 303.127075 154.553466 
L 303.426782 153.609878 
L 303.651563 153.402959 
L 303.801416 153.494245 
L 304.026196 153.976524 
L 304.325903 155.297006 
L 304.700537 158.202313 
L 305.075171 162.974802 
L 305.449805 170.894463 
L 305.749512 182.365072 
L 305.974292 201.980882 
L 306.124146 230.736043 
L 306.348926 188.631714 
L 306.648633 174.240617 
L 307.023267 165.340531 
L 307.472827 159.487777 
L 307.922388 156.423702 
L 308.222095 155.480906 
L 308.446875 155.274081 
L 308.596729 155.365359 
L 308.821509 155.847726 
L 309.121216 157.168977 
L 309.49585 160.077706 
L 309.870483 164.859981 
L 310.245117 172.807695 
L 310.544824 184.354346 
L 310.769604 204.29063 
L 310.919458 230.418566 
L 311.144238 190.196299 
L 311.443945 175.929659 
L 311.818579 167.067502 
L 312.26814 161.228818 
L 312.7177 158.168886 
L 313.017407 157.226777 
L 313.242188 157.020032 
L 313.392041 157.111305 
L 313.616821 157.593756 
L 313.916528 158.915711 
L 314.291162 161.82753 
L 314.665796 166.618613 
L 315.04043 174.591585 
L 315.340137 186.20703 
L 315.564917 206.439098 
L 315.714771 230.395469 
L 315.939551 191.671449 
L 316.239258 177.513799 
L 316.613892 168.685121 
L 317.063452 162.858882 
L 317.513013 159.802608 
L 317.81272 158.861102 
L 318.0375 158.654427 
L 318.187354 158.745696 
L 318.412134 159.228228 
L 318.711841 160.55083 
L 319.086475 163.465459 
L 319.461108 168.264529 
L 319.835742 176.260418 
L 320.135449 187.938551 
L 320.360229 208.445167 
L 320.510083 230.560893 
L 320.734863 193.064269 
L 321.03457 179.003087 
L 321.409204 170.204251 
L 321.858765 164.389123 
L 322.308325 161.336111 
L 322.608032 160.39514 
L 322.832813 160.188525 
L 322.982666 160.279792 
L 323.207446 160.762402 
L 323.507153 162.0856 
L 323.881787 165.002802 
L 324.256421 169.809165 
L 324.631055 177.825988 
L 324.930762 189.561612 
L 325.155542 210.324366 
L 325.230469 231.261077 
L 325.305396 230.849465 
L 325.530176 194.381017 
L 325.829883 180.40602 
L 326.204517 171.63401 
L 326.654077 165.828887 
L 327.103638 162.778807 
L 327.403345 161.838315 
L 327.628125 161.631753 
L 327.777979 161.723018 
L 328.002759 162.205703 
L 328.302466 163.529455 
L 328.6771 166.449025 
L 329.051733 171.262087 
L 329.426367 179.298149 
L 329.726074 191.086804 
L 329.950854 212.089623 
L 330.025781 233.780565 
L 330.100708 231.218797 
L 330.325488 195.627213 
L 330.625195 181.729847 
L 330.999829 172.982135 
L 331.44939 167.186085 
L 331.89895 164.138663 
L 332.198657 163.198601 
L 332.423437 162.992087 
L 332.573291 163.083351 
L 332.798071 163.566107 
L 333.097778 164.890375 
L 333.472412 167.812137 
L 333.847046 172.631387 
L 334.22168 180.685226 
L 334.521387 192.523052 
L 334.746167 213.751816 
L 334.821094 236.190523 
L 334.896021 231.64037 
L 335.120801 196.807735 
L 335.420508 182.980801 
L 335.795142 174.255246 
L 336.244702 168.46748 
L 336.694263 165.422481 
L 336.99397 164.48281 
L 337.21875 164.276339 
L 337.368604 164.367603 
L 337.593384 164.850427 
L 337.893091 166.175177 
L 338.267725 169.098977 
L 338.642358 173.92397 
L 339.016992 181.994319 
L 339.316699 193.877953 
L 339.541479 215.320191 
L 339.616406 238.50237 
L 339.691333 232.094439 
L 339.916113 197.926901 
L 340.21582 184.164283 
L 340.590454 175.459055 
L 341.040015 169.678896 
L 341.489575 166.636121 
L 341.789282 165.696808 
L 342.014063 165.490375 
L 342.163916 165.581639 
L 342.388696 166.064529 
L 342.688403 167.389732 
L 343.063037 170.315434 
L 343.437671 175.145783 
L 343.812305 183.231533 
L 344.112012 195.158027 
L 344.336792 216.802669 
L 344.411719 240.726081 
L 344.486646 232.567013 
L 344.711426 198.988547 
L 345.011133 185.285005 
L 345.385767 176.598526 
L 345.835327 170.825391 
L 346.284888 167.784666 
L 346.584595 166.845682 
L 346.809375 166.639284 
L 346.959229 166.730548 
L 347.184009 167.2135 
L 347.483716 168.53913 
L 347.85835 171.466617 
L 348.232983 176.301981 
L 348.607617 184.402158 
L 348.907324 196.368912 
L 349.057178 207.865359 
L 349.207031 242.870469 
L 349.281958 233.047998 
L 349.506738 199.996091 
L 349.806445 186.347099 
L 350.256006 176.458351 
L 350.705566 171.248336 
L 351.155127 168.563686 
L 351.454834 167.818989 
L 351.679614 167.750312 
L 351.904395 168.093916 
L 352.204102 169.219047 
L 352.578735 171.841452 
L 352.953369 176.232016 
L 353.328003 183.491831 
L 353.62771 193.661643 
L 353.85249 209.082111 
L 354.002344 244.943404 
L 354.077271 233.530005 
L 354.302051 200.952587 
L 354.601758 187.354208 
L 355.051318 177.483214 
L 355.500879 172.278179 
L 355.950439 169.594933 
L 356.250146 168.850424 
L 356.474927 168.781757 
L 356.474927 168.781757 
" style="fill:none;stroke:#ff0000;stroke-linecap:square;"/>
   </g>
   <g id="line2d_36">
    <path clip-path="url(#p17aace4be1)" d="M 49.425073 246.329477 
L 49.574927 246.39802 
L 49.799707 246.849228 
L 50.099414 248.142468 
L 50.474048 251.063266 
L 50.848682 255.977913 
L 51.223315 264.41112 
L 51.523022 277.457127 
L 51.672876 291.190753 
L 51.822729 338.906631 
L 51.972583 288.322233 
L 52.27229 268.613662 
L 52.646924 257.935446 
L 53.096484 251.022636 
L 53.546045 247.218537 
L 53.920679 245.6306 
L 54.145459 245.257789 
L 54.295313 245.238903 
L 54.520093 245.555875 
L 54.8198 246.654292 
L 55.194434 249.274695 
L 55.569067 253.742237 
L 55.943701 261.298219 
L 56.243408 272.306266 
L 56.468188 290.768814 
L 56.618042 330.55264 
L 56.842822 279.567554 
L 57.142529 264.52796 
L 57.517163 255.229691 
L 57.966724 249.007803 
L 58.416284 245.609574 
L 58.790918 244.283394 
L 59.015698 244.055582 
L 59.165552 244.132661 
L 59.390332 244.597366 
L 59.690039 245.911481 
L 60.064673 248.868138 
L 60.439307 253.843747 
L 60.81394 262.413982 
L 61.113647 275.829305 
L 61.263501 290.370216 
L 61.413354 323.753987 
L 61.638135 277.926469 
L 61.937842 263.126227 
L 62.312476 253.907784 
L 62.762036 247.724867 
L 63.211597 244.347939 
L 63.58623 243.034816 
L 63.811011 242.8142 
L 63.960864 242.896113 
L 64.185645 243.368484 
L 64.485352 244.694497 
L 64.859985 247.671686 
L 65.234619 252.682393 
L 65.609253 261.332224 
L 65.90896 274.966735 
L 66.058813 290.011469 
L 66.208667 317.813453 
L 66.433447 276.18183 
L 66.733154 261.633926 
L 67.182715 251.211496 
L 67.632275 245.64223 
L 68.081836 242.647785 
L 68.381543 241.707646 
L 68.606323 241.494905 
L 68.756177 241.58212 
L 68.980957 242.062916 
L 69.280664 243.402044 
L 69.655298 246.401942 
L 70.029932 251.451629 
L 70.404565 260.190471 
L 70.704272 274.074297 
L 70.854126 289.716387 
L 71.003979 312.382714 
L 71.22876 274.322038 
L 71.528467 260.041328 
L 71.978027 249.721614 
L 72.427588 244.192883 
L 72.877148 241.222009 
L 73.176855 240.294154 
L 73.401636 240.090096 
L 73.551489 240.183171 
L 73.77627 240.673301 
L 74.075977 242.027002 
L 74.45061 245.05223 
L 74.825244 250.145597 
L 75.199878 258.98496 
L 75.499585 273.155835 
L 75.649438 289.520273 
L 75.724365 311.95694 
L 75.799292 307.25674 
L 76.024072 272.333151 
L 76.323779 258.336736 
L 76.77334 248.128577 
L 77.2229 242.644265 
L 77.672461 239.699371 
L 77.972168 238.785124 
L 78.196948 238.590721 
L 78.346802 238.690329 
L 78.571582 239.190892 
L 78.871289 240.560938 
L 79.245923 243.614698 
L 79.620557 248.757518 
L 79.99519 257.711687 
L 80.294897 272.217801 
L 80.444751 289.477294 
L 80.519678 315.899258 
L 80.894312 265.680488 
L 81.268945 252.340559 
L 81.718506 244.249868 
L 82.168066 239.780289 
L 82.5427 237.771334 
L 82.842407 237.062379 
L 83.067188 237.016315 
L 83.291968 237.386406 
L 83.591675 238.565753 
L 83.966309 241.322406 
L 84.340942 246.015181 
L 84.715576 254.052649 
L 85.015283 266.214355 
L 85.165137 278.282728 
L 85.240063 289.674387 
L 85.31499 323.29066 
L 85.539771 273.655636 
L 85.839478 257.042821 
L 86.214111 247.195702 
L 86.663672 240.659521 
L 87.113232 237.053007 
L 87.487866 235.582741 
L 87.712646 235.273514 
L 87.8625 235.296841 
L 88.08728 235.679973 
L 88.386987 236.879429 
L 88.761621 239.670433 
L 89.136255 244.420963 
L 89.510889 252.585135 
L 89.810596 265.067885 
L 89.960449 277.748591 
L 90.035376 290.259772 
L 90.110303 344.356284 
L 90.260156 278.775978 
L 90.559863 257.72639 
L 90.934497 246.677197 
L 91.384058 239.548127 
L 91.833618 235.59231 
L 92.208252 233.896199 
L 92.507959 233.409883 
L 92.657813 233.442734 
L 92.882593 233.840961 
L 93.1823 235.063813 
L 93.556934 237.895033 
L 93.931567 242.713671 
L 94.306201 251.029008 
L 94.605908 263.905073 
L 94.755762 277.379205 
L 94.830688 291.508683 
L 94.905615 332.170033 
L 95.055469 275.285926 
L 95.355176 255.262134 
L 95.72981 244.44885 
L 96.17937 237.421956 
L 96.628931 233.518663 
L 97.003564 231.853533 
L 97.303271 231.389383 
L 97.453125 231.433394 
L 97.677905 231.849386 
L 97.977612 233.099938 
L 98.352246 235.979113 
L 98.72688 240.87967 
L 99.101514 249.379366 
L 99.401221 262.75104 
L 99.551074 277.300536 
L 99.700928 310.1666 
L 99.925708 264.672723 
L 100.225415 249.833515 
L 100.674976 239.235654 
L 101.124536 233.545981 
L 101.574097 230.448063 
L 101.94873 229.311504 
L 102.173511 229.190639 
L 102.323364 229.340623 
L 102.548145 229.922597 
L 102.847852 231.422235 
L 103.222485 234.706673 
L 103.597119 240.259309 
L 103.896826 247.633644 
L 104.196533 261.652793 
L 104.346387 277.754248 
L 104.421313 299.289953 
L 104.49624 296.933052 
L 104.721021 261.058945 
L 105.020728 246.91591 
L 105.470288 236.585792 
L 105.919849 231.002391 
L 106.369409 227.967125 
L 106.669116 226.996194 
L 106.893896 226.761232 
L 107.04375 226.834878 
L 107.26853 227.298462 
L 107.568237 228.624091 
L 107.942871 231.635101 
L 108.317505 236.764785 
L 108.692139 245.795329 
L 108.916919 255.633513 
L 109.066772 267.750602 
L 109.141699 279.265991 
L 109.216626 314.442261 
L 109.441406 262.753421 
L 109.741113 246.157611 
L 110.115747 236.260505 
L 110.565308 229.649912 
L 111.014868 225.967296 
L 111.389502 224.435956 
L 111.614282 224.092177 
L 111.764136 224.093736 
L 111.988916 224.446764 
L 112.288623 225.612847 
L 112.663257 228.380493 
L 113.037891 233.150214 
L 113.412524 241.456122 
L 113.712231 254.452714 
L 113.862085 268.280623 
L 114.011938 312.274826 
L 114.236719 257.585411 
L 114.536426 242.296025 
L 114.985986 231.467399 
L 115.435547 225.638223 
L 115.885107 222.428722 
L 116.259741 221.210175 
L 116.484521 221.043778 
L 116.634375 221.164883 
L 116.859155 221.705928 
L 117.158862 223.156384 
L 117.533496 226.392438 
L 117.90813 231.926529 
L 118.207837 239.345877 
L 118.432617 248.834398 
L 118.582471 260.272074 
L 118.732324 296.161224 
L 118.807251 284.36886 
L 119.032031 251.668842 
L 119.406665 235.547987 
L 119.856226 226.350813 
L 120.305786 221.246213 
L 120.755347 218.506687 
L 121.055054 217.69952 
L 121.279834 217.585783 
L 121.429688 217.743985 
L 121.654468 218.346606 
L 121.954175 219.898518 
L 122.328809 223.322656 
L 122.703442 229.207638 
L 123.003149 237.264418 
L 123.22793 248.064979 
L 123.377783 262.571194 
L 123.527637 295.163039 
L 123.752417 249.745712 
L 124.052124 234.799047 
L 124.501685 224.035189 
L 124.951245 218.185835 
L 125.400806 214.939755 
L 125.775439 213.693465 
L 126.00022 213.515607 
L 126.150073 213.6326 
L 126.374854 214.174978 
L 126.674561 215.648101 
L 127.049194 218.972744 
L 127.423828 224.748628 
L 127.723535 232.69105 
L 127.948315 243.33503 
L 128.098169 257.524218 
L 128.248022 293.951312 
L 128.472803 245.438703 
L 128.77251 230.280445 
L 129.22207 219.377431 
L 129.671631 213.430648 
L 130.121191 210.106338 
L 130.495825 208.808679 
L 130.720605 208.607555 
L 130.870459 208.713092 
L 131.095239 209.246141 
L 131.394946 210.727484 
L 131.76958 214.120243 
L 132.144214 220.112153 
L 132.443921 228.560713 
L 132.668701 240.445617 
L 132.818555 258.387609 
L 132.893481 289.646688 
L 133.118262 242.789827 
L 133.417969 225.759201 
L 133.792603 215.526797 
L 134.242163 208.58238 
L 134.691724 204.616452 
L 135.066357 202.895434 
L 135.366064 202.420745 
L 135.515918 202.480382 
L 135.740698 202.958905 
L 136.040405 204.402351 
L 136.340112 206.97518 
L 136.714746 212.532126 
L 137.014453 220.443348 
L 137.239233 231.40192 
L 137.389087 246.829337 
L 137.53894 269.034844 
L 137.763721 230.769417 
L 138.063428 216.048406 
L 138.512988 205.098079 
L 138.962549 199.007534 
L 139.412109 195.58345 
L 139.786743 194.296116 
L 140.011523 194.170295 
L 140.161377 194.367738 
L 140.386157 195.125313 
L 140.685864 197.151564 
L 140.985571 200.752043 
L 141.285278 206.963415 
L 141.510059 215.126061 
L 141.734839 232.836729 
L 141.884692 273.565522 
L 142.109473 220.812624 
L 142.40918 204.950787 
L 142.85874 193.30148 
L 143.308301 186.885713 
L 143.682935 183.903462 
L 143.982642 182.865424 
L 144.132495 182.824016 
L 144.282349 183.146771 
L 144.507129 184.460685 
L 144.731909 187.146583 
L 144.956689 192.138673 
L 145.18147 202.38627 
L 145.331323 219.784764 
L 145.40625 255.97825 
L 145.63103 200.123919 
L 146.005664 177.594983 
L 146.530151 161.331652 
L 147.204492 147.600095 
L 148.028687 135.388151 
L 149.002734 124.353115 
L 150.051709 114.97427 
L 151.17561 106.859161 
L 152.374438 99.774756 
L 153.648193 93.551864 
L 154.996875 88.048005 
L 156.420483 83.13677 
L 157.993945 78.50691 
L 159.642334 74.340286 
L 161.365649 70.578658 
L 163.163892 67.193259 
L 164.962134 64.278579 
L 166.835303 61.671599 
L 168.708472 59.443387 
L 170.581641 57.549827 
L 172.45481 55.958453 
L 174.402905 54.595879 
L 176.351001 53.510235 
L 178.22417 52.718777 
L 180.097339 52.172832 
L 181.970508 51.859225 
L 184.143384 51.727478 
L 188.713916 51.755264 
L 224.528906 51.936211 
L 226.402075 52.321158 
L 228.200317 52.915533 
L 230.073486 53.77604 
L 231.946655 54.885129 
L 233.819824 56.253883 
L 235.692993 57.903438 
L 237.566162 59.861056 
L 239.364404 62.061898 
L 241.162646 64.619556 
L 242.885962 67.456393 
L 244.609277 70.731061 
L 246.257666 74.340286 
L 247.831128 78.303659 
L 249.329663 82.663347 
L 250.753271 87.492195 
L 252.101953 92.89111 
L 253.300781 98.590073 
L 254.499609 105.422164 
L 255.623511 113.213046 
L 256.672485 122.161104 
L 257.571606 131.685899 
L 258.395801 142.743125 
L 259.070142 154.61996 
L 259.594629 167.343231 
L 259.969263 180.815596 
L 260.26897 200.123919 
L 260.418823 224.655819 
L 260.49375 255.97825 
L 260.643604 208.809969 
L 260.943311 192.138673 
L 261.243018 186.058797 
L 261.542725 183.463046 
L 261.767505 182.824016 
L 261.917358 182.865424 
L 262.142139 183.530763 
L 262.441846 185.465007 
L 262.816479 189.644234 
L 263.191113 196.384191 
L 263.565747 207.882097 
L 263.790527 220.812624 
L 263.940381 239.713939 
L 264.015308 273.565522 
L 264.240088 224.736614 
L 264.539795 209.199853 
L 264.914429 200.752043 
L 265.289062 196.520229 
L 265.663696 194.556064 
L 265.888477 194.170295 
L 266.03833 194.199556 
L 266.26311 194.650023 
L 266.562817 196.004409 
L 266.937451 199.007534 
L 267.312085 203.840819 
L 267.686719 211.557113 
L 267.986426 222.016282 
L 268.211206 237.300684 
L 268.36106 269.034844 
L 268.435986 266.648916 
L 268.660767 231.40192 
L 268.960474 218.005156 
L 269.335107 209.907234 
L 269.784668 204.927285 
L 270.159302 202.958905 
L 270.459009 202.425396 
L 270.608862 202.465723 
L 270.833643 202.895434 
L 271.13335 204.167398 
L 271.507983 206.996134 
L 271.882617 211.575167 
L 272.257251 218.907384 
L 272.556958 228.787225 
L 272.781738 242.789827 
L 272.931592 267.249383 
L 273.006519 289.646688 
L 273.231299 240.445617 
L 273.531006 225.954369 
L 273.90564 217.297893 
L 274.3552 211.849965 
L 274.729834 209.529424 
L 275.029541 208.713092 
L 275.254321 208.627044 
L 275.479102 208.970816 
L 275.778809 210.106338 
L 276.153442 212.723539 
L 276.528076 217.019778 
L 276.90271 223.908317 
L 277.202417 233.060381 
L 277.427197 245.438703 
L 277.577051 263.580304 
L 277.651978 293.951312 
L 277.876758 249.077794 
L 278.176465 232.69105 
L 278.551099 223.322109 
L 279.000659 217.412492 
L 279.375293 214.797189 
L 279.675 213.763405 
L 279.89978 213.515607 
L 280.049634 213.58739 
L 280.274414 214.046825 
L 280.574121 215.338682 
L 280.948755 218.185835 
L 281.323389 222.819004 
L 281.698022 230.348463 
L 281.997729 240.788658 
L 282.22251 256.594218 
L 282.297437 267.418297 
L 282.372363 295.163039 
L 282.67207 248.064979 
L 282.971777 234.808547 
L 283.346411 226.462936 
L 283.795972 221.043287 
L 284.170605 218.650202 
L 284.470312 217.743985 
L 284.695093 217.577233 
L 284.844946 217.69952 
L 285.069727 218.233234 
L 285.369434 219.629403 
L 285.744067 222.637479 
L 286.118701 227.518483 
L 286.493335 235.547987 
L 286.793042 247.09748 
L 287.017822 266.714749 
L 287.167676 296.161224 
L 287.392456 253.66254 
L 287.692163 239.345877 
L 288.066797 230.569801 
L 288.516357 224.878844 
L 288.890991 222.320488 
L 289.190698 221.296375 
L 289.415479 221.043778 
L 289.565332 221.108505 
L 289.790112 221.55337 
L 290.089819 222.82144 
L 290.464453 225.638223 
L 290.839087 230.25187 
L 291.213721 237.803261 
L 291.513428 248.380847 
L 291.738208 264.742808 
L 291.813135 276.398741 
L 291.888062 312.274826 
L 292.112842 260.090697 
L 292.412549 243.882807 
L 292.787183 234.445231 
L 293.236743 228.380493 
L 293.686304 225.242194 
L 293.986011 224.28148 
L 294.210791 224.069882 
L 294.360645 224.160507 
L 294.585425 224.643991 
L 294.885132 225.967296 
L 295.259766 228.87095 
L 295.634399 233.620212 
L 296.009033 241.446808 
L 296.30874 252.634143 
L 296.533521 271.058841 
L 296.683374 314.442261 
L 296.908154 260.701997 
L 297.207861 245.795329 
L 297.582495 236.764785 
L 298.032056 230.892189 
L 298.481616 227.854632 
L 298.781323 226.941586 
L 299.006104 226.761232 
L 299.155957 226.871793 
L 299.380737 227.385314 
L 299.680444 228.752202 
L 300.055078 231.725606 
L 300.429712 236.585792 
L 300.804346 244.642956 
L 301.104053 256.364732 
L 301.328833 276.869311 
L 301.478687 299.289953 
L 301.703467 261.652793 
L 302.003174 247.633644 
L 302.377808 238.902891 
L 302.827368 233.176028 
L 303.276929 230.216306 
L 303.576636 229.340623 
L 303.801416 229.185021 
L 303.95127 229.311504 
L 304.17605 229.849209 
L 304.475757 231.251585 
L 304.850391 234.282562 
L 305.225024 239.235654 
L 305.599658 247.489776 
L 305.899365 259.686271 
L 306.049219 271.498896 
L 306.124146 282.311557 
L 306.199072 310.1666 
L 306.498779 262.75104 
L 306.798486 249.379366 
L 307.17312 240.87967 
L 307.622681 235.267679 
L 308.072241 232.37022 
L 308.371948 231.524776 
L 308.596729 231.389383 
L 308.746582 231.528951 
L 308.971362 232.086662 
L 309.271069 233.518663 
L 309.645703 236.598226 
L 310.020337 241.630662 
L 310.394971 250.055798 
L 310.694678 262.678894 
L 310.844531 275.285926 
L 310.919458 287.49157 
L 310.994385 332.170033 
L 311.219165 269.433362 
L 311.518872 253.445504 
L 311.893506 244.015273 
L 312.343066 237.895033 
L 312.792627 234.679379 
L 313.167261 233.528375 
L 313.392041 233.409883 
L 313.541895 233.560451 
L 313.766675 234.135077 
L 314.066382 235.59231 
L 314.441016 238.713628 
L 314.815649 243.814931 
L 315.190283 252.390624 
L 315.48999 265.400972 
L 315.639844 278.775978 
L 315.714771 292.497125 
L 315.789697 344.356284 
L 315.939551 277.748591 
L 316.239258 257.704901 
L 316.613892 247.130605 
L 317.063452 240.437027 
L 317.513013 236.879429 
L 317.887646 235.505046 
L 318.112427 235.262249 
L 318.26228 235.330553 
L 318.487061 235.778854 
L 318.786768 237.053007 
L 319.161401 239.893297 
L 319.536035 244.579529 
L 319.910669 252.349114 
L 320.210376 263.512127 
L 320.435156 282.017834 
L 320.58501 323.29066 
L 320.80979 271.270873 
L 321.109497 256.366536 
L 321.484131 247.279505 
L 321.933691 241.322406 
L 322.383252 238.193118 
L 322.682959 237.215956 
L 322.907739 236.985875 
L 323.057593 237.062379 
L 323.282373 237.523165 
L 323.58208 238.815679 
L 323.956714 241.685751 
L 324.331348 246.41974 
L 324.705981 254.288715 
L 325.005688 265.680488 
L 325.230469 285.049336 
L 325.380322 315.899258 
L 325.605103 272.217801 
L 325.90481 257.711687 
L 326.279443 248.757518 
L 326.729004 242.864844 
L 327.178564 239.770096 
L 327.478271 238.809647 
L 327.703052 238.590721 
L 327.852905 238.674442 
L 328.077686 239.146254 
L 328.377393 240.455061 
L 328.752026 243.351709 
L 329.12666 248.128577 
L 329.501294 256.087562 
L 329.801001 267.690062 
L 330.025781 287.900461 
L 330.175635 311.95694 
L 330.400415 273.155835 
L 330.700122 258.98496 
L 331.074756 250.145597 
L 331.524316 244.309178 
L 331.973877 241.244798 
L 332.273584 240.299122 
L 332.498364 240.090096 
L 332.648218 240.180241 
L 332.872998 240.661898 
L 333.172705 241.985311 
L 333.547339 244.905903 
L 333.921973 249.721614 
L 334.296606 257.762766 
L 334.596313 269.560667 
L 334.821094 290.595402 
L 334.896021 312.382714 
L 334.970947 309.560445 
L 335.195728 274.074297 
L 335.495435 260.190471 
L 335.870068 251.451629 
L 336.319629 245.664917 
L 336.769189 242.627536 
L 337.068896 241.695055 
L 337.293677 241.494905 
L 337.44353 241.590825 
L 337.668311 242.081355 
L 337.968018 243.417979 
L 338.342651 246.360323 
L 338.717285 251.211496 
L 339.091919 259.328187 
L 339.391626 271.308342 
L 339.616406 293.15402 
L 339.691333 317.813453 
L 339.76626 308.013353 
L 339.99104 274.966735 
L 340.290747 261.332224 
L 340.665381 252.682393 
L 341.114941 246.940058 
L 341.564502 243.926908 
L 341.864209 243.006323 
L 342.088989 242.8142 
L 342.238843 242.915355 
L 342.463623 243.413947 
L 342.76333 244.762615 
L 343.137964 247.724867 
L 343.512598 252.608637 
L 343.887231 260.79521 
L 344.186938 272.94625 
L 344.336792 284.753925 
L 344.411719 295.592873 
L 344.486646 323.753987 
L 344.786353 275.829305 
L 345.08606 262.413982 
L 345.53562 252.637057 
L 345.985181 247.486935 
L 346.359814 245.150165 
L 346.659521 244.240391 
L 346.884302 244.055582 
L 347.034155 244.161519 
L 347.258936 244.66749 
L 347.558643 246.027214 
L 347.933276 249.007803 
L 348.30791 253.921721 
L 348.682544 262.173308 
L 348.982251 274.485335 
L 349.132104 286.587492 
L 349.207031 297.925973 
L 349.281958 330.55264 
L 349.506738 282.399039 
L 349.806445 265.910802 
L 350.181079 256.271936 
L 350.63064 249.997018 
L 351.0802 246.654292 
L 351.454834 245.403598 
L 351.679614 245.225502 
L 351.829468 245.335834 
L 352.054248 245.848602 
L 352.353955 247.218537 
L 352.728589 250.216118 
L 353.103223 255.158071 
L 353.477856 263.470447 
L 353.777563 275.934791 
L 353.927417 288.322233 
L 354.002344 300.16534 
L 354.077271 338.906631 
L 354.302051 283.075287 
L 354.601758 266.858244 
L 354.976392 257.300403 
L 355.425952 251.063266 
L 355.875513 247.740406 
L 356.250146 246.501377 
L 356.474927 246.329477 
L 356.474927 246.329477 
" style="fill:none;stroke:#008000;stroke-linecap:square;"/>
   </g>
   <g id="line2d_37">
    <path clip-path="url(#p17aace4be1)" d="M 49.425073 280.376997 
L 49.649854 280.64488 
L 49.949561 281.470624 
L 50.548975 283.208259 
L 50.698828 283.034489 
L 50.923608 281.876168 
L 51.298242 277.887307 
L 52.49707 263.680863 
L 53.096484 259.153794 
L 53.695898 256.187517 
L 54.220386 254.610963 
L 54.669946 253.837421 
L 55.194434 253.376472 
L 56.243408 252.637654 
L 56.692969 251.953764 
L 57.36731 250.425171 
L 58.940771 246.66916 
L 59.764966 245.369854 
L 61.338428 243.077004 
L 63.736084 239.028639 
L 64.485352 238.389443 
L 66.808081 236.806206 
L 68.90603 234.825983 
L 70.254712 234.085739 
L 71.22876 233.415686 
L 73.476563 231.679006 
L 74.300757 231.43169 
L 76.024072 231.010144 
L 77.2229 230.346045 
L 78.271875 229.878731 
L 79.170996 229.735936 
L 80.594604 229.540169 
L 81.568652 229.123323 
L 82.76748 228.643933 
L 83.516748 228.59462 
L 85.839478 228.702526 
L 88.012354 228.179692 
L 88.761621 228.380644 
L 90.110303 228.776854 
L 90.784644 228.700943 
L 92.507959 228.353934 
L 93.107373 228.55266 
L 95.130396 229.486506 
L 95.72981 229.318683 
L 97.003564 228.871026 
L 97.453125 228.968538 
L 97.977612 229.329649 
L 98.801807 230.251676 
L 99.476147 230.898706 
L 99.925708 231.058196 
L 100.375269 230.965199 
L 101.873804 230.336281 
L 102.248438 230.511373 
L 102.697998 230.995724 
L 103.372339 232.128812 
L 104.04668 233.161388 
L 104.421313 233.368523 
L 104.721021 233.266736 
L 105.095654 232.840796 
L 106.444336 230.941681 
L 106.744043 230.922125 
L 107.04375 231.14953 
L 107.418384 231.800528 
L 107.867944 233.087187 
L 109.066772 236.945715 
L 109.291553 237.078653 
L 109.516333 236.883161 
L 109.81604 236.184207 
L 111.164722 232.273998 
L 111.464429 232.143893 
L 111.689209 232.327356 
L 111.988916 232.977299 
L 112.36355 234.476402 
L 112.888037 237.780141 
L 113.562378 241.935003 
L 113.712231 242.112826 
L 113.862085 241.827926 
L 114.086865 240.601057 
L 114.686279 235.214149 
L 115.285693 230.631799 
L 115.735254 228.636897 
L 116.034961 228.053256 
L 116.259741 228.025454 
L 116.484521 228.371032 
L 116.784229 229.47006 
L 117.158862 232.052947 
L 117.533496 236.374963 
L 117.983057 244.564007 
L 118.35769 250.453162 
L 118.432617 250.244108 
L 118.582471 248.077422 
L 119.556519 229.061567 
L 120.006079 224.709185 
L 120.380713 222.715012 
L 120.68042 222.088482 
L 120.830273 222.10261 
L 120.980127 222.348415 
L 121.204907 223.193679 
L 121.504614 225.385054 
L 121.804321 229.256672 
L 122.104028 235.978586 
L 122.403735 249.284018 
L 122.628516 264.964914 
L 123.377783 225.567638 
L 123.827344 216.855311 
L 124.276904 211.859858 
L 124.651538 209.771142 
L 124.876318 209.410887 
L 125.026172 209.591082 
L 125.250952 210.625486 
L 125.475732 212.885754 
L 125.700513 217.10345 
L 125.925293 225.337506 
L 126.075146 237.0444 
L 126.150073 249.664464 
L 126.225 317.382347 
L 126.374854 233.647486 
L 126.674561 210.316194 
L 127.124121 193.492715 
L 127.723535 179.350644 
L 128.472803 166.75527 
L 129.371924 155.30619 
L 130.420898 144.866737 
L 131.5448 135.927942 
L 132.743628 128.163719 
L 134.017383 121.356569 
L 135.366064 115.332089 
L 136.8646 109.674157 
L 138.512988 104.354076 
L 140.31123 99.329108 
L 142.184399 94.748508 
L 144.132495 90.554462 
L 146.155518 86.707299 
L 148.328394 83.043195 
L 150.651123 79.555344 
L 153.123706 76.244598 
L 155.671216 73.207472 
L 158.368579 70.345495 
L 161.215796 67.656242 
L 164.137939 65.204594 
L 167.13501 62.980461 
L 170.281934 60.922469 
L 173.503784 59.07794 
L 176.800562 57.444156 
L 180.247192 55.98493 
L 183.76875 54.736373 
L 187.365234 53.7012 
L 191.036646 52.87805 
L 194.708057 52.282242 
L 198.454395 51.902247 
L 202.200732 51.745384 
L 205.94707 51.812766 
L 209.693408 52.103179 
L 213.364819 52.607608 
L 217.03623 53.337486 
L 220.632715 54.27649 
L 224.154272 55.424379 
L 227.600903 56.779936 
L 230.972607 58.342269 
L 234.194458 60.075974 
L 237.416309 62.065849 
L 240.488306 64.225467 
L 243.410449 66.551125 
L 246.257666 69.103453 
L 248.955029 71.814406 
L 251.502539 74.681915 
L 253.975122 77.801974 
L 256.372778 81.193312 
L 258.620581 84.758102 
L 260.71853 88.50123 
L 262.666626 92.424754 
L 264.539795 96.691382 
L 266.338037 101.33887 
L 267.986426 106.197649 
L 269.484961 111.276674 
L 270.908569 116.903953 
L 272.182324 122.847526 
L 273.381152 129.506162 
L 274.505054 137.014512 
L 275.554028 145.535331 
L 276.528076 155.30619 
L 277.427197 166.75527 
L 278.176465 179.350644 
L 278.775879 193.492715 
L 279.150513 206.761326 
L 279.45022 225.363565 
L 279.600073 247.224776 
L 279.675 317.382347 
L 279.824854 237.0444 
L 280.124561 219.214164 
L 280.424268 212.885754 
L 280.723975 210.165756 
L 280.948755 209.455528 
L 281.098608 209.45143 
L 281.248462 209.771142 
L 281.473242 210.808498 
L 281.847876 213.99101 
L 282.22251 219.244813 
L 282.597144 227.583305 
L 282.896851 238.673203 
L 283.196558 260.523942 
L 283.271484 264.964914 
L 283.496265 249.284018 
L 283.795972 235.978586 
L 284.170605 228.086677 
L 284.545239 224.118448 
L 284.919873 222.348415 
L 285.144653 222.067443 
L 285.294507 222.16449 
L 285.519287 222.715012 
L 285.818994 224.199791 
L 286.193628 227.346686 
L 286.643188 233.434129 
L 287.092749 242.815674 
L 287.467383 250.244108 
L 287.54231 250.453162 
L 287.692163 249.037482 
L 288.741138 232.052947 
L 289.190698 229.121965 
L 289.490405 228.212657 
L 289.715186 227.994448 
L 289.865039 228.053256 
L 290.089819 228.433924 
L 290.389526 229.469452 
L 290.76416 231.585194 
L 291.288647 235.906539 
L 291.962988 241.515673 
L 292.187769 242.112826 
L 292.337622 241.935003 
L 292.562402 240.944325 
L 293.986011 232.769908 
L 294.285718 232.238142 
L 294.510498 232.137629 
L 294.735278 232.273998 
L 295.034985 232.786495 
L 295.484546 234.107964 
L 296.383667 236.883161 
L 296.608447 237.078653 
L 296.833228 236.945715 
L 297.132935 236.304384 
L 297.732349 234.17085 
L 298.406689 231.978963 
L 298.85625 231.14953 
L 299.230884 230.904783 
L 299.530591 230.981911 
L 299.905225 231.361864 
L 300.654492 232.605013 
L 301.178979 233.266736 
L 301.478687 233.368523 
L 301.778394 233.230711 
L 302.153027 232.772298 
L 303.726489 230.459517 
L 304.17605 230.322926 
L 304.62561 230.442921 
L 306.049219 231.050062 
L 306.498779 230.847259 
L 307.098193 230.251676 
L 308.222095 229.091938 
L 308.746582 228.881839 
L 309.271069 228.927297 
L 310.17019 229.318683 
L 310.844531 229.490338 
L 311.369019 229.392585 
L 312.118286 228.966773 
L 313.092334 228.426709 
L 313.691748 228.336768 
L 314.366089 228.465242 
L 315.714771 228.779251 
L 316.389111 228.661377 
L 318.26228 228.166921 
L 319.011548 228.326168 
L 320.734863 228.808179 
L 321.633984 228.70928 
L 322.757886 228.591737 
L 323.507153 228.751897 
L 324.705981 229.305069 
L 325.680029 229.633875 
L 326.953784 229.754723 
L 327.852905 229.951077 
L 328.752026 230.389194 
L 330.325488 231.180715 
L 331.44939 231.405216 
L 332.423437 231.679006 
L 333.172705 232.127809 
L 334.44646 233.225872 
L 335.495435 233.999057 
L 337.818164 235.484355 
L 340.440601 237.852867 
L 341.864209 238.732372 
L 342.53855 239.487531 
L 343.287817 240.686905 
L 345.53562 244.571804 
L 346.884302 246.532055 
L 347.633569 248.1118 
L 349.506738 252.44399 
L 350.031226 252.98811 
L 351.379907 254.046469 
L 351.829468 254.978188 
L 352.279028 256.484451 
L 352.803516 259.153794 
L 353.328003 263.017932 
L 353.927417 269.166186 
L 355.126245 282.772589 
L 355.351025 283.208259 
L 355.500879 283.004229 
L 355.875513 281.737486 
L 356.325073 280.519097 
L 356.474927 280.376997 
L 356.474927 280.376997 
" style="fill:none;stroke:#000000;stroke-linecap:square;"/>
   </g>
   <g id="patch_3">
    <path d="M 49.5 352.44 
L 49.5 47.52 
" style="fill:none;stroke:#000000;stroke-linecap:square;stroke-linejoin:miter;stroke-width:0.8;"/>
   </g>
   <g id="patch_4">
    <path d="M 356.4 352.44 
L 356.4 47.52 
" style="fill:none;stroke:#000000;stroke-linecap:square;stroke-linejoin:miter;stroke-width:0.8;"/>
   </g>
   <g id="patch_5">
    <path d="M 49.5 352.44 
L 356.4 352.44 
" style="fill:none;stroke:#000000;stroke-linecap:square;stroke-linejoin:miter;stroke-width:0.8;"/>
   </g>
   <g id="patch_6">
    <path d="M 49.5 47.52 
L 356.4 47.52 
" style="fill:none;stroke:#000000;stroke-linecap:square;stroke-linejoin:miter;stroke-width:0.8;"/>
   </g>
   <g id="text_20">
    <!-- Frequency responses -->
    <g transform="translate(139.6725 41.52)scale(0.12 -0.12)">
     <defs>
      <path d="M 2834 3397 
L 2834 2853 
Q 2591 2978 2328 3040 
Q 2066 3103 1784 3103 
Q 1356 3103 1142 2972 
Q 928 2841 928 2578 
Q 928 2378 1081 2264 
Q 1234 2150 1697 2047 
L 1894 2003 
Q 2506 1872 2764 1633 
Q 3022 1394 3022 966 
Q 3022 478 2636 193 
Q 2250 -91 1575 -91 
Q 1294 -91 989 -36 
Q 684 19 347 128 
L 347 722 
Q 666 556 975 473 
Q 1284 391 1588 391 
Q 1994 391 2212 530 
Q 2431 669 2431 922 
Q 2431 1156 2273 1281 
Q 2116 1406 1581 1522 
L 1381 1569 
Q 847 1681 609 1914 
Q 372 2147 372 2553 
Q 372 3047 722 3315 
Q 1072 3584 1716 3584 
Q 2034 3584 2315 3537 
Q 2597 3491 2834 3397 
z
" id="DejaVuSans-73" transform="scale(0.015625)"/>
      <path d="M 1159 525 
L 1159 -1331 
L 581 -1331 
L 581 3500 
L 1159 3500 
L 1159 2969 
Q 1341 3281 1617 3432 
Q 1894 3584 2278 3584 
Q 2916 3584 3314 3078 
Q 3713 2572 3713 1747 
Q 3713 922 3314 415 
Q 2916 -91 2278 -91 
Q 1894 -91 1617 61 
Q 1341 213 1159 525 
z
M 3116 1747 
Q 3116 2381 2855 2742 
Q 2594 3103 2138 3103 
Q 1681 3103 1420 2742 
Q 1159 2381 1159 1747 
Q 1159 1113 1420 752 
Q 1681 391 2138 391 
Q 2594 391 2855 752 
Q 3116 1113 3116 1747 
z
" id="DejaVuSans-70" transform="scale(0.015625)"/>
      <path d="M 1959 3097 
Q 1497 3097 1228 2736 
Q 959 2375 959 1747 
Q 959 1119 1226 758 
Q 1494 397 1959 397 
Q 2419 397 2687 759 
Q 2956 1122 2956 1747 
Q 2956 2369 2687 2733 
Q 2419 3097 1959 3097 
z
M 1959 3584 
Q 2709 3584 3137 3096 
Q 3566 2609 3566 1747 
Q 3566 888 3137 398 
Q 2709 -91 1959 -91 
Q 1206 -91 779 398 
Q 353 888 353 1747 
Q 353 2609 779 3096 
Q 1206 3584 1959 3584 
z
" id="DejaVuSans-6f" transform="scale(0.015625)"/>
     </defs>
     <use xlink:href="#DejaVuSans-46"/>
     <use x="50.269531" xlink:href="#DejaVuSans-72"/>
     <use x="89.132812" xlink:href="#DejaVuSans-65"/>
     <use x="150.65625" xlink:href="#DejaVuSans-71"/>
     <use x="214.132812" xlink:href="#DejaVuSans-75"/>
     <use x="277.511719" xlink:href="#DejaVuSans-65"/>
     <use x="339.035156" xlink:href="#DejaVuSans-6e"/>
     <use x="402.414062" xlink:href="#DejaVuSans-63"/>
     <use x="457.394531" xlink:href="#DejaVuSans-79"/>
     <use x="516.574219" xlink:href="#DejaVuSans-20"/>
     <use x="548.361328" xlink:href="#DejaVuSans-72"/>
     <use x="587.224609" xlink:href="#DejaVuSans-65"/>
     <use x="648.748047" xlink:href="#DejaVuSans-73"/>
     <use x="700.847656" xlink:href="#DejaVuSans-70"/>
     <use x="764.324219" xlink:href="#DejaVuSans-6f"/>
     <use x="825.505859" xlink:href="#DejaVuSans-6e"/>
     <use x="888.884766" xlink:href="#DejaVuSans-73"/>
     <use x="940.984375" xlink:href="#DejaVuSans-65"/>
     <use x="1002.507812" xlink:href="#DejaVuSans-73"/>
    </g>
   </g>
   <g id="legend_1">
    <g id="patch_7">
     <path d="M 282.8 99.92 
L 349.4 99.92 
Q 351.4 99.92 351.4 97.92 
L 351.4 54.52 
Q 351.4 52.52 349.4 52.52 
L 282.8 52.52 
Q 280.8 52.52 280.8 54.52 
L 280.8 97.92 
Q 280.8 99.92 282.8 99.92 
z
" style="fill:#ffffff;opacity:0.8;stroke:#cccccc;stroke-linejoin:miter;"/>
    </g>
    <g id="line2d_38">
     <path d="M 284.8 60.72 
L 304.8 60.72 
" style="fill:none;stroke:#ff0000;stroke-linecap:square;"/>
    </g>
    <g id="line2d_39"/>
    <g id="text_21">
     <!-- $\beta=0.0$ -->
     <g transform="translate(312.8 64.22)scale(0.1 -0.1)">
      <defs>
       <path d="M 872 216 
L 572 -1331 
L -6 -1331 
L 928 3478 
Q 1206 4903 2538 4903 
Q 3888 4903 3659 3700 
Q 3503 2844 2894 2531 
Q 3713 2250 3553 1416 
Q 3272 -69 1759 -66 
Q 1097 -63 872 216 
z
M 1019 966 
Q 1259 422 1875 425 
Q 2775 425 2966 1406 
Q 3138 2288 1675 2219 
L 1778 2750 
Q 2909 2731 3106 3750 
Q 3241 4438 2509 4434 
Q 1691 4434 1503 3459 
L 1019 966 
z
" id="DejaVuSans-Oblique-3b2" transform="scale(0.015625)"/>
       <path d="M 678 2906 
L 4684 2906 
L 4684 2381 
L 678 2381 
L 678 2906 
z
M 678 1631 
L 4684 1631 
L 4684 1100 
L 678 1100 
L 678 1631 
z
" id="DejaVuSans-3d" transform="scale(0.015625)"/>
      </defs>
      <use transform="translate(0 0.390625)" xlink:href="#DejaVuSans-Oblique-3b2"/>
      <use transform="translate(83.300781 0.390625)" xlink:href="#DejaVuSans-3d"/>
      <use transform="translate(186.572266 0.390625)" xlink:href="#DejaVuSans-30"/>
      <use transform="translate(250.195312 0.390625)" xlink:href="#DejaVuSans-2e"/>
      <use transform="translate(281.982422 0.390625)" xlink:href="#DejaVuSans-30"/>
     </g>
    </g>
    <g id="line2d_40">
     <path d="M 284.8 75.52 
L 304.8 75.52 
" style="fill:none;stroke:#008000;stroke-linecap:square;"/>
    </g>
    <g id="line2d_41"/>
    <g id="text_22">
     <!-- $\beta=0.5$ -->
     <g transform="translate(312.8 79.02)scale(0.1 -0.1)">
      <use transform="translate(0 0.390625)" xlink:href="#DejaVuSans-Oblique-3b2"/>
      <use transform="translate(83.300781 0.390625)" xlink:href="#DejaVuSans-3d"/>
      <use transform="translate(186.572266 0.390625)" xlink:href="#DejaVuSans-30"/>
      <use transform="translate(250.195312 0.390625)" xlink:href="#DejaVuSans-2e"/>
      <use transform="translate(281.982422 0.390625)" xlink:href="#DejaVuSans-35"/>
     </g>
    </g>
    <g id="line2d_42">
     <path d="M 284.8 90.32 
L 304.8 90.32 
" style="fill:none;stroke:#000000;stroke-linecap:square;"/>
    </g>
    <g id="line2d_43"/>
    <g id="text_23">
     <!-- $\beta=1.0$ -->
     <g transform="translate(312.8 93.82)scale(0.1 -0.1)">
      <use transform="translate(0 0.390625)" xlink:href="#DejaVuSans-Oblique-3b2"/>
      <use transform="translate(83.300781 0.390625)" xlink:href="#DejaVuSans-3d"/>
      <use transform="translate(186.572266 0.390625)" xlink:href="#DejaVuSans-31"/>
      <use transform="translate(250.195312 0.390625)" xlink:href="#DejaVuSans-2e"/>
      <use transform="translate(281.982422 0.390625)" xlink:href="#DejaVuSans-30"/>
     </g>
    </g>
   </g>
  </g>
 </g>
 <defs>
  <clipPath id="p17aace4be1">
   <rect height="304.92" width="306.9" x="49.5" y="47.52"/>
  </clipPath>
 </defs>
</svg>
