<?xml version="1.0" encoding="utf-8" standalone="no"?>
<!DOCTYPE svg PUBLIC "-//W3C//DTD SVG 1.1//EN"
  "http://www.w3.org/Graphics/SVG/1.1/DTD/svg11.dtd">
<svg height="360pt" version="1.1" viewBox="0 0 1080 360" width="1080pt" xmlns="http://www.w3.org/2000/svg" xmlns:xlink="http://www.w3.org/1999/xlink">
 <metadata>
  <rdf:RDF xmlns:cc="http://creativecommons.org/ns#" xmlns:dc="http://purl.org/dc/elements/1.1/" xmlns:rdf="http://www.w3.org/1999/02/22-rdf-syntax-ns#">
   <cc:Work>
    <dc:type rdf:resource="http://purl.org/dc/dcmitype/StillImage"/>
    <dc:date>2021-07-02T17:04:18.773781</dc:date>
    <dc:format>image/svg+xml</dc:format>
    <dc:creator>
     <cc:Agent>
      <dc:title>Matplotlib v3.4.1, https://matplotlib.org/</dc:title>
     </cc:Agent>
    </dc:creator>
   </cc:Work>
  </rdf:RDF>
 </metadata>
 <defs>
  <style type="text/css">*{stroke-linecap:butt;stroke-linejoin:round;}</style>
 </defs>
 <g id="figure_1">
  <g id="patch_1">
   <path d="M 0 360 
L 1080 360 
L 1080 0 
L 0 0 
z
" style="fill:#ffffff;"/>
  </g>
  <g id="axes_1">
   <g id="patch_2">
    <path d="M 135 320.4 
L 381.176471 320.4 
L 381.176471 43.2 
L 135 43.2 
z
" style="fill:#ffffff;"/>
   </g>
   <g id="matplotlib.axis_1">
    <g id="xtick_1">
     <g id="line2d_1">
      <path clip-path="url(#pfeba3dd82b)" d="M 135 320.4 
L 135 43.2 
" style="fill:none;stroke:#b0b0b0;stroke-linecap:square;stroke-width:0.8;"/>
     </g>
     <g id="line2d_2">
      <defs>
       <path d="M 0 0 
L 0 3.5 
" id="me9e4ca512a" style="stroke:#000000;stroke-width:0.8;"/>
      </defs>
      <g>
       <use style="stroke:#000000;stroke-width:0.8;" x="135" xlink:href="#me9e4ca512a" y="320.4"/>
      </g>
     </g>
     <g id="text_1">
      <!-- −8 -->
      <g transform="translate(127.628906 334.998438)scale(0.1 -0.1)">
       <defs>
        <path d="M 678 2272 
L 4684 2272 
L 4684 1741 
L 678 1741 
L 678 2272 
z
" id="DejaVuSans-2212" transform="scale(0.015625)"/>
        <path d="M 2034 2216 
Q 1584 2216 1326 1975 
Q 1069 1734 1069 1313 
Q 1069 891 1326 650 
Q 1584 409 2034 409 
Q 2484 409 2743 651 
Q 3003 894 3003 1313 
Q 3003 1734 2745 1975 
Q 2488 2216 2034 2216 
z
M 1403 2484 
Q 997 2584 770 2862 
Q 544 3141 544 3541 
Q 544 4100 942 4425 
Q 1341 4750 2034 4750 
Q 2731 4750 3128 4425 
Q 3525 4100 3525 3541 
Q 3525 3141 3298 2862 
Q 3072 2584 2669 2484 
Q 3125 2378 3379 2068 
Q 3634 1759 3634 1313 
Q 3634 634 3220 271 
Q 2806 -91 2034 -91 
Q 1263 -91 848 271 
Q 434 634 434 1313 
Q 434 1759 690 2068 
Q 947 2378 1403 2484 
z
M 1172 3481 
Q 1172 3119 1398 2916 
Q 1625 2713 2034 2713 
Q 2441 2713 2670 2916 
Q 2900 3119 2900 3481 
Q 2900 3844 2670 4047 
Q 2441 4250 2034 4250 
Q 1625 4250 1398 4047 
Q 1172 3844 1172 3481 
z
" id="DejaVuSans-38" transform="scale(0.015625)"/>
       </defs>
       <use xlink:href="#DejaVuSans-2212"/>
       <use x="83.789062" xlink:href="#DejaVuSans-38"/>
      </g>
     </g>
    </g>
    <g id="xtick_2">
     <g id="line2d_3">
      <path clip-path="url(#pfeba3dd82b)" d="M 165.772059 320.4 
L 165.772059 43.2 
" style="fill:none;stroke:#b0b0b0;stroke-linecap:square;stroke-width:0.8;"/>
     </g>
     <g id="line2d_4">
      <g>
       <use style="stroke:#000000;stroke-width:0.8;" x="165.772059" xlink:href="#me9e4ca512a" y="320.4"/>
      </g>
     </g>
     <g id="text_2">
      <!-- −6 -->
      <g transform="translate(158.400965 334.998438)scale(0.1 -0.1)">
       <defs>
        <path d="M 2113 2584 
Q 1688 2584 1439 2293 
Q 1191 2003 1191 1497 
Q 1191 994 1439 701 
Q 1688 409 2113 409 
Q 2538 409 2786 701 
Q 3034 994 3034 1497 
Q 3034 2003 2786 2293 
Q 2538 2584 2113 2584 
z
M 3366 4563 
L 3366 3988 
Q 3128 4100 2886 4159 
Q 2644 4219 2406 4219 
Q 1781 4219 1451 3797 
Q 1122 3375 1075 2522 
Q 1259 2794 1537 2939 
Q 1816 3084 2150 3084 
Q 2853 3084 3261 2657 
Q 3669 2231 3669 1497 
Q 3669 778 3244 343 
Q 2819 -91 2113 -91 
Q 1303 -91 875 529 
Q 447 1150 447 2328 
Q 447 3434 972 4092 
Q 1497 4750 2381 4750 
Q 2619 4750 2861 4703 
Q 3103 4656 3366 4563 
z
" id="DejaVuSans-36" transform="scale(0.015625)"/>
       </defs>
       <use xlink:href="#DejaVuSans-2212"/>
       <use x="83.789062" xlink:href="#DejaVuSans-36"/>
      </g>
     </g>
    </g>
    <g id="xtick_3">
     <g id="line2d_5">
      <path clip-path="url(#pfeba3dd82b)" d="M 196.544118 320.4 
L 196.544118 43.2 
" style="fill:none;stroke:#b0b0b0;stroke-linecap:square;stroke-width:0.8;"/>
     </g>
     <g id="line2d_6">
      <g>
       <use style="stroke:#000000;stroke-width:0.8;" x="196.544118" xlink:href="#me9e4ca512a" y="320.4"/>
      </g>
     </g>
     <g id="text_3">
      <!-- −4 -->
      <g transform="translate(189.173024 334.998438)scale(0.1 -0.1)">
       <defs>
        <path d="M 2419 4116 
L 825 1625 
L 2419 1625 
L 2419 4116 
z
M 2253 4666 
L 3047 4666 
L 3047 1625 
L 3713 1625 
L 3713 1100 
L 3047 1100 
L 3047 0 
L 2419 0 
L 2419 1100 
L 313 1100 
L 313 1709 
L 2253 4666 
z
" id="DejaVuSans-34" transform="scale(0.015625)"/>
       </defs>
       <use xlink:href="#DejaVuSans-2212"/>
       <use x="83.789062" xlink:href="#DejaVuSans-34"/>
      </g>
     </g>
    </g>
    <g id="xtick_4">
     <g id="line2d_7">
      <path clip-path="url(#pfeba3dd82b)" d="M 227.316176 320.4 
L 227.316176 43.2 
" style="fill:none;stroke:#b0b0b0;stroke-linecap:square;stroke-width:0.8;"/>
     </g>
     <g id="line2d_8">
      <g>
       <use style="stroke:#000000;stroke-width:0.8;" x="227.316176" xlink:href="#me9e4ca512a" y="320.4"/>
      </g>
     </g>
     <g id="text_4">
      <!-- −2 -->
      <g transform="translate(219.945083 334.998438)scale(0.1 -0.1)">
       <defs>
        <path d="M 1228 531 
L 3431 531 
L 3431 0 
L 469 0 
L 469 531 
Q 828 903 1448 1529 
Q 2069 2156 2228 2338 
Q 2531 2678 2651 2914 
Q 2772 3150 2772 3378 
Q 2772 3750 2511 3984 
Q 2250 4219 1831 4219 
Q 1534 4219 1204 4116 
Q 875 4013 500 3803 
L 500 4441 
Q 881 4594 1212 4672 
Q 1544 4750 1819 4750 
Q 2544 4750 2975 4387 
Q 3406 4025 3406 3419 
Q 3406 3131 3298 2873 
Q 3191 2616 2906 2266 
Q 2828 2175 2409 1742 
Q 1991 1309 1228 531 
z
" id="DejaVuSans-32" transform="scale(0.015625)"/>
       </defs>
       <use xlink:href="#DejaVuSans-2212"/>
       <use x="83.789062" xlink:href="#DejaVuSans-32"/>
      </g>
     </g>
    </g>
    <g id="xtick_5">
     <g id="line2d_9">
      <path clip-path="url(#pfeba3dd82b)" d="M 258.088235 320.4 
L 258.088235 43.2 
" style="fill:none;stroke:#b0b0b0;stroke-linecap:square;stroke-width:0.8;"/>
     </g>
     <g id="line2d_10">
      <g>
       <use style="stroke:#000000;stroke-width:0.8;" x="258.088235" xlink:href="#me9e4ca512a" y="320.4"/>
      </g>
     </g>
     <g id="text_5">
      <!-- 0 -->
      <g transform="translate(254.906985 334.998438)scale(0.1 -0.1)">
       <defs>
        <path d="M 2034 4250 
Q 1547 4250 1301 3770 
Q 1056 3291 1056 2328 
Q 1056 1369 1301 889 
Q 1547 409 2034 409 
Q 2525 409 2770 889 
Q 3016 1369 3016 2328 
Q 3016 3291 2770 3770 
Q 2525 4250 2034 4250 
z
M 2034 4750 
Q 2819 4750 3233 4129 
Q 3647 3509 3647 2328 
Q 3647 1150 3233 529 
Q 2819 -91 2034 -91 
Q 1250 -91 836 529 
Q 422 1150 422 2328 
Q 422 3509 836 4129 
Q 1250 4750 2034 4750 
z
" id="DejaVuSans-30" transform="scale(0.015625)"/>
       </defs>
       <use xlink:href="#DejaVuSans-30"/>
      </g>
     </g>
    </g>
    <g id="xtick_6">
     <g id="line2d_11">
      <path clip-path="url(#pfeba3dd82b)" d="M 288.860294 320.4 
L 288.860294 43.2 
" style="fill:none;stroke:#b0b0b0;stroke-linecap:square;stroke-width:0.8;"/>
     </g>
     <g id="line2d_12">
      <g>
       <use style="stroke:#000000;stroke-width:0.8;" x="288.860294" xlink:href="#me9e4ca512a" y="320.4"/>
      </g>
     </g>
     <g id="text_6">
      <!-- 2 -->
      <g transform="translate(285.679044 334.998438)scale(0.1 -0.1)">
       <use xlink:href="#DejaVuSans-32"/>
      </g>
     </g>
    </g>
    <g id="xtick_7">
     <g id="line2d_13">
      <path clip-path="url(#pfeba3dd82b)" d="M 319.632353 320.4 
L 319.632353 43.2 
" style="fill:none;stroke:#b0b0b0;stroke-linecap:square;stroke-width:0.8;"/>
     </g>
     <g id="line2d_14">
      <g>
       <use style="stroke:#000000;stroke-width:0.8;" x="319.632353" xlink:href="#me9e4ca512a" y="320.4"/>
      </g>
     </g>
     <g id="text_7">
      <!-- 4 -->
      <g transform="translate(316.451103 334.998438)scale(0.1 -0.1)">
       <use xlink:href="#DejaVuSans-34"/>
      </g>
     </g>
    </g>
    <g id="xtick_8">
     <g id="line2d_15">
      <path clip-path="url(#pfeba3dd82b)" d="M 350.404412 320.4 
L 350.404412 43.2 
" style="fill:none;stroke:#b0b0b0;stroke-linecap:square;stroke-width:0.8;"/>
     </g>
     <g id="line2d_16">
      <g>
       <use style="stroke:#000000;stroke-width:0.8;" x="350.404412" xlink:href="#me9e4ca512a" y="320.4"/>
      </g>
     </g>
     <g id="text_8">
      <!-- 6 -->
      <g transform="translate(347.223162 334.998438)scale(0.1 -0.1)">
       <use xlink:href="#DejaVuSans-36"/>
      </g>
     </g>
    </g>
    <g id="xtick_9">
     <g id="line2d_17">
      <path clip-path="url(#pfeba3dd82b)" d="M 381.176471 320.4 
L 381.176471 43.2 
" style="fill:none;stroke:#b0b0b0;stroke-linecap:square;stroke-width:0.8;"/>
     </g>
     <g id="line2d_18">
      <g>
       <use style="stroke:#000000;stroke-width:0.8;" x="381.176471" xlink:href="#me9e4ca512a" y="320.4"/>
      </g>
     </g>
     <g id="text_9">
      <!-- 8 -->
      <g transform="translate(377.995221 334.998438)scale(0.1 -0.1)">
       <use xlink:href="#DejaVuSans-38"/>
      </g>
     </g>
    </g>
    <g id="text_10">
     <!-- Samples -->
     <g transform="translate(236.73511 348.676562)scale(0.1 -0.1)">
      <defs>
       <path d="M 3425 4513 
L 3425 3897 
Q 3066 4069 2747 4153 
Q 2428 4238 2131 4238 
Q 1616 4238 1336 4038 
Q 1056 3838 1056 3469 
Q 1056 3159 1242 3001 
Q 1428 2844 1947 2747 
L 2328 2669 
Q 3034 2534 3370 2195 
Q 3706 1856 3706 1288 
Q 3706 609 3251 259 
Q 2797 -91 1919 -91 
Q 1588 -91 1214 -16 
Q 841 59 441 206 
L 441 856 
Q 825 641 1194 531 
Q 1563 422 1919 422 
Q 2459 422 2753 634 
Q 3047 847 3047 1241 
Q 3047 1584 2836 1778 
Q 2625 1972 2144 2069 
L 1759 2144 
Q 1053 2284 737 2584 
Q 422 2884 422 3419 
Q 422 4038 858 4394 
Q 1294 4750 2059 4750 
Q 2388 4750 2728 4690 
Q 3069 4631 3425 4513 
z
" id="DejaVuSans-53" transform="scale(0.015625)"/>
       <path d="M 2194 1759 
Q 1497 1759 1228 1600 
Q 959 1441 959 1056 
Q 959 750 1161 570 
Q 1363 391 1709 391 
Q 2188 391 2477 730 
Q 2766 1069 2766 1631 
L 2766 1759 
L 2194 1759 
z
M 3341 1997 
L 3341 0 
L 2766 0 
L 2766 531 
Q 2569 213 2275 61 
Q 1981 -91 1556 -91 
Q 1019 -91 701 211 
Q 384 513 384 1019 
Q 384 1609 779 1909 
Q 1175 2209 1959 2209 
L 2766 2209 
L 2766 2266 
Q 2766 2663 2505 2880 
Q 2244 3097 1772 3097 
Q 1472 3097 1187 3025 
Q 903 2953 641 2809 
L 641 3341 
Q 956 3463 1253 3523 
Q 1550 3584 1831 3584 
Q 2591 3584 2966 3190 
Q 3341 2797 3341 1997 
z
" id="DejaVuSans-61" transform="scale(0.015625)"/>
       <path d="M 3328 2828 
Q 3544 3216 3844 3400 
Q 4144 3584 4550 3584 
Q 5097 3584 5394 3201 
Q 5691 2819 5691 2113 
L 5691 0 
L 5113 0 
L 5113 2094 
Q 5113 2597 4934 2840 
Q 4756 3084 4391 3084 
Q 3944 3084 3684 2787 
Q 3425 2491 3425 1978 
L 3425 0 
L 2847 0 
L 2847 2094 
Q 2847 2600 2669 2842 
Q 2491 3084 2119 3084 
Q 1678 3084 1418 2786 
Q 1159 2488 1159 1978 
L 1159 0 
L 581 0 
L 581 3500 
L 1159 3500 
L 1159 2956 
Q 1356 3278 1631 3431 
Q 1906 3584 2284 3584 
Q 2666 3584 2933 3390 
Q 3200 3197 3328 2828 
z
" id="DejaVuSans-6d" transform="scale(0.015625)"/>
       <path d="M 1159 525 
L 1159 -1331 
L 581 -1331 
L 581 3500 
L 1159 3500 
L 1159 2969 
Q 1341 3281 1617 3432 
Q 1894 3584 2278 3584 
Q 2916 3584 3314 3078 
Q 3713 2572 3713 1747 
Q 3713 922 3314 415 
Q 2916 -91 2278 -91 
Q 1894 -91 1617 61 
Q 1341 213 1159 525 
z
M 3116 1747 
Q 3116 2381 2855 2742 
Q 2594 3103 2138 3103 
Q 1681 3103 1420 2742 
Q 1159 2381 1159 1747 
Q 1159 1113 1420 752 
Q 1681 391 2138 391 
Q 2594 391 2855 752 
Q 3116 1113 3116 1747 
z
" id="DejaVuSans-70" transform="scale(0.015625)"/>
       <path d="M 603 4863 
L 1178 4863 
L 1178 0 
L 603 0 
L 603 4863 
z
" id="DejaVuSans-6c" transform="scale(0.015625)"/>
       <path d="M 3597 1894 
L 3597 1613 
L 953 1613 
Q 991 1019 1311 708 
Q 1631 397 2203 397 
Q 2534 397 2845 478 
Q 3156 559 3463 722 
L 3463 178 
Q 3153 47 2828 -22 
Q 2503 -91 2169 -91 
Q 1331 -91 842 396 
Q 353 884 353 1716 
Q 353 2575 817 3079 
Q 1281 3584 2069 3584 
Q 2775 3584 3186 3129 
Q 3597 2675 3597 1894 
z
M 3022 2063 
Q 3016 2534 2758 2815 
Q 2500 3097 2075 3097 
Q 1594 3097 1305 2825 
Q 1016 2553 972 2059 
L 3022 2063 
z
" id="DejaVuSans-65" transform="scale(0.015625)"/>
       <path d="M 2834 3397 
L 2834 2853 
Q 2591 2978 2328 3040 
Q 2066 3103 1784 3103 
Q 1356 3103 1142 2972 
Q 928 2841 928 2578 
Q 928 2378 1081 2264 
Q 1234 2150 1697 2047 
L 1894 2003 
Q 2506 1872 2764 1633 
Q 3022 1394 3022 966 
Q 3022 478 2636 193 
Q 2250 -91 1575 -91 
Q 1294 -91 989 -36 
Q 684 19 347 128 
L 347 722 
Q 666 556 975 473 
Q 1284 391 1588 391 
Q 1994 391 2212 530 
Q 2431 669 2431 922 
Q 2431 1156 2273 1281 
Q 2116 1406 1581 1522 
L 1381 1569 
Q 847 1681 609 1914 
Q 372 2147 372 2553 
Q 372 3047 722 3315 
Q 1072 3584 1716 3584 
Q 2034 3584 2315 3537 
Q 2597 3491 2834 3397 
z
" id="DejaVuSans-73" transform="scale(0.015625)"/>
      </defs>
      <use xlink:href="#DejaVuSans-53"/>
      <use x="63.476562" xlink:href="#DejaVuSans-61"/>
      <use x="124.755859" xlink:href="#DejaVuSans-6d"/>
      <use x="222.167969" xlink:href="#DejaVuSans-70"/>
      <use x="285.644531" xlink:href="#DejaVuSans-6c"/>
      <use x="313.427734" xlink:href="#DejaVuSans-65"/>
      <use x="374.951172" xlink:href="#DejaVuSans-73"/>
     </g>
    </g>
    <g id="text_11">
     <!-- 1e−9 -->
     <g transform="translate(353.918658 347.676562)scale(0.1 -0.1)">
      <defs>
       <path d="M 794 531 
L 1825 531 
L 1825 4091 
L 703 3866 
L 703 4441 
L 1819 4666 
L 2450 4666 
L 2450 531 
L 3481 531 
L 3481 0 
L 794 0 
L 794 531 
z
" id="DejaVuSans-31" transform="scale(0.015625)"/>
       <path d="M 703 97 
L 703 672 
Q 941 559 1184 500 
Q 1428 441 1663 441 
Q 2288 441 2617 861 
Q 2947 1281 2994 2138 
Q 2813 1869 2534 1725 
Q 2256 1581 1919 1581 
Q 1219 1581 811 2004 
Q 403 2428 403 3163 
Q 403 3881 828 4315 
Q 1253 4750 1959 4750 
Q 2769 4750 3195 4129 
Q 3622 3509 3622 2328 
Q 3622 1225 3098 567 
Q 2575 -91 1691 -91 
Q 1453 -91 1209 -44 
Q 966 3 703 97 
z
M 1959 2075 
Q 2384 2075 2632 2365 
Q 2881 2656 2881 3163 
Q 2881 3666 2632 3958 
Q 2384 4250 1959 4250 
Q 1534 4250 1286 3958 
Q 1038 3666 1038 3163 
Q 1038 2656 1286 2365 
Q 1534 2075 1959 2075 
z
" id="DejaVuSans-39" transform="scale(0.015625)"/>
      </defs>
      <use xlink:href="#DejaVuSans-31"/>
      <use x="63.623047" xlink:href="#DejaVuSans-65"/>
      <use x="125.146484" xlink:href="#DejaVuSans-2212"/>
      <use x="208.935547" xlink:href="#DejaVuSans-39"/>
     </g>
    </g>
   </g>
   <g id="matplotlib.axis_2">
    <g id="ytick_1">
     <g id="line2d_19">
      <path clip-path="url(#pfeba3dd82b)" d="M 135 297.72 
L 381.176471 297.72 
" style="fill:none;stroke:#b0b0b0;stroke-linecap:square;stroke-width:0.8;"/>
     </g>
     <g id="line2d_20">
      <defs>
       <path d="M 0 0 
L -3.5 0 
" id="m05232a7895" style="stroke:#000000;stroke-width:0.8;"/>
      </defs>
      <g>
       <use style="stroke:#000000;stroke-width:0.8;" x="135" xlink:href="#m05232a7895" y="297.72"/>
      </g>
     </g>
     <g id="text_12">
      <!-- −0.2 -->
      <g transform="translate(103.717187 301.519219)scale(0.1 -0.1)">
       <defs>
        <path d="M 684 794 
L 1344 794 
L 1344 0 
L 684 0 
L 684 794 
z
" id="DejaVuSans-2e" transform="scale(0.015625)"/>
       </defs>
       <use xlink:href="#DejaVuSans-2212"/>
       <use x="83.789062" xlink:href="#DejaVuSans-30"/>
       <use x="147.412109" xlink:href="#DejaVuSans-2e"/>
       <use x="179.199219" xlink:href="#DejaVuSans-32"/>
      </g>
     </g>
    </g>
    <g id="ytick_2">
     <g id="line2d_21">
      <path clip-path="url(#pfeba3dd82b)" d="M 135 257.4 
L 381.176471 257.4 
" style="fill:none;stroke:#b0b0b0;stroke-linecap:square;stroke-width:0.8;"/>
     </g>
     <g id="line2d_22">
      <g>
       <use style="stroke:#000000;stroke-width:0.8;" x="135" xlink:href="#m05232a7895" y="257.4"/>
      </g>
     </g>
     <g id="text_13">
      <!-- 0.0 -->
      <g transform="translate(112.096875 261.199219)scale(0.1 -0.1)">
       <use xlink:href="#DejaVuSans-30"/>
       <use x="63.623047" xlink:href="#DejaVuSans-2e"/>
       <use x="95.410156" xlink:href="#DejaVuSans-30"/>
      </g>
     </g>
    </g>
    <g id="ytick_3">
     <g id="line2d_23">
      <path clip-path="url(#pfeba3dd82b)" d="M 135 217.08 
L 381.176471 217.08 
" style="fill:none;stroke:#b0b0b0;stroke-linecap:square;stroke-width:0.8;"/>
     </g>
     <g id="line2d_24">
      <g>
       <use style="stroke:#000000;stroke-width:0.8;" x="135" xlink:href="#m05232a7895" y="217.08"/>
      </g>
     </g>
     <g id="text_14">
      <!-- 0.2 -->
      <g transform="translate(112.096875 220.879219)scale(0.1 -0.1)">
       <use xlink:href="#DejaVuSans-30"/>
       <use x="63.623047" xlink:href="#DejaVuSans-2e"/>
       <use x="95.410156" xlink:href="#DejaVuSans-32"/>
      </g>
     </g>
    </g>
    <g id="ytick_4">
     <g id="line2d_25">
      <path clip-path="url(#pfeba3dd82b)" d="M 135 176.76 
L 381.176471 176.76 
" style="fill:none;stroke:#b0b0b0;stroke-linecap:square;stroke-width:0.8;"/>
     </g>
     <g id="line2d_26">
      <g>
       <use style="stroke:#000000;stroke-width:0.8;" x="135" xlink:href="#m05232a7895" y="176.76"/>
      </g>
     </g>
     <g id="text_15">
      <!-- 0.4 -->
      <g transform="translate(112.096875 180.559219)scale(0.1 -0.1)">
       <use xlink:href="#DejaVuSans-30"/>
       <use x="63.623047" xlink:href="#DejaVuSans-2e"/>
       <use x="95.410156" xlink:href="#DejaVuSans-34"/>
      </g>
     </g>
    </g>
    <g id="ytick_5">
     <g id="line2d_27">
      <path clip-path="url(#pfeba3dd82b)" d="M 135 136.44 
L 381.176471 136.44 
" style="fill:none;stroke:#b0b0b0;stroke-linecap:square;stroke-width:0.8;"/>
     </g>
     <g id="line2d_28">
      <g>
       <use style="stroke:#000000;stroke-width:0.8;" x="135" xlink:href="#m05232a7895" y="136.44"/>
      </g>
     </g>
     <g id="text_16">
      <!-- 0.6 -->
      <g transform="translate(112.096875 140.239219)scale(0.1 -0.1)">
       <use xlink:href="#DejaVuSans-30"/>
       <use x="63.623047" xlink:href="#DejaVuSans-2e"/>
       <use x="95.410156" xlink:href="#DejaVuSans-36"/>
      </g>
     </g>
    </g>
    <g id="ytick_6">
     <g id="line2d_29">
      <path clip-path="url(#pfeba3dd82b)" d="M 135 96.12 
L 381.176471 96.12 
" style="fill:none;stroke:#b0b0b0;stroke-linecap:square;stroke-width:0.8;"/>
     </g>
     <g id="line2d_30">
      <g>
       <use style="stroke:#000000;stroke-width:0.8;" x="135" xlink:href="#m05232a7895" y="96.12"/>
      </g>
     </g>
     <g id="text_17">
      <!-- 0.8 -->
      <g transform="translate(112.096875 99.919219)scale(0.1 -0.1)">
       <use xlink:href="#DejaVuSans-30"/>
       <use x="63.623047" xlink:href="#DejaVuSans-2e"/>
       <use x="95.410156" xlink:href="#DejaVuSans-38"/>
      </g>
     </g>
    </g>
    <g id="ytick_7">
     <g id="line2d_31">
      <path clip-path="url(#pfeba3dd82b)" d="M 135 55.8 
L 381.176471 55.8 
" style="fill:none;stroke:#b0b0b0;stroke-linecap:square;stroke-width:0.8;"/>
     </g>
     <g id="line2d_32">
      <g>
       <use style="stroke:#000000;stroke-width:0.8;" x="135" xlink:href="#m05232a7895" y="55.8"/>
      </g>
     </g>
     <g id="text_18">
      <!-- 1.0 -->
      <g transform="translate(112.096875 59.599219)scale(0.1 -0.1)">
       <use xlink:href="#DejaVuSans-31"/>
       <use x="63.623047" xlink:href="#DejaVuSans-2e"/>
       <use x="95.410156" xlink:href="#DejaVuSans-30"/>
      </g>
     </g>
    </g>
    <g id="text_19">
     <!-- Amplitude -->
     <g transform="translate(97.6375 207.422656)rotate(-90)scale(0.1 -0.1)">
      <defs>
       <path d="M 2188 4044 
L 1331 1722 
L 3047 1722 
L 2188 4044 
z
M 1831 4666 
L 2547 4666 
L 4325 0 
L 3669 0 
L 3244 1197 
L 1141 1197 
L 716 0 
L 50 0 
L 1831 4666 
z
" id="DejaVuSans-41" transform="scale(0.015625)"/>
       <path d="M 603 3500 
L 1178 3500 
L 1178 0 
L 603 0 
L 603 3500 
z
M 603 4863 
L 1178 4863 
L 1178 4134 
L 603 4134 
L 603 4863 
z
" id="DejaVuSans-69" transform="scale(0.015625)"/>
       <path d="M 1172 4494 
L 1172 3500 
L 2356 3500 
L 2356 3053 
L 1172 3053 
L 1172 1153 
Q 1172 725 1289 603 
Q 1406 481 1766 481 
L 2356 481 
L 2356 0 
L 1766 0 
Q 1100 0 847 248 
Q 594 497 594 1153 
L 594 3053 
L 172 3053 
L 172 3500 
L 594 3500 
L 594 4494 
L 1172 4494 
z
" id="DejaVuSans-74" transform="scale(0.015625)"/>
       <path d="M 544 1381 
L 544 3500 
L 1119 3500 
L 1119 1403 
Q 1119 906 1312 657 
Q 1506 409 1894 409 
Q 2359 409 2629 706 
Q 2900 1003 2900 1516 
L 2900 3500 
L 3475 3500 
L 3475 0 
L 2900 0 
L 2900 538 
Q 2691 219 2414 64 
Q 2138 -91 1772 -91 
Q 1169 -91 856 284 
Q 544 659 544 1381 
z
M 1991 3584 
L 1991 3584 
z
" id="DejaVuSans-75" transform="scale(0.015625)"/>
       <path d="M 2906 2969 
L 2906 4863 
L 3481 4863 
L 3481 0 
L 2906 0 
L 2906 525 
Q 2725 213 2448 61 
Q 2172 -91 1784 -91 
Q 1150 -91 751 415 
Q 353 922 353 1747 
Q 353 2572 751 3078 
Q 1150 3584 1784 3584 
Q 2172 3584 2448 3432 
Q 2725 3281 2906 2969 
z
M 947 1747 
Q 947 1113 1208 752 
Q 1469 391 1925 391 
Q 2381 391 2643 752 
Q 2906 1113 2906 1747 
Q 2906 2381 2643 2742 
Q 2381 3103 1925 3103 
Q 1469 3103 1208 2742 
Q 947 2381 947 1747 
z
" id="DejaVuSans-64" transform="scale(0.015625)"/>
      </defs>
      <use xlink:href="#DejaVuSans-41"/>
      <use x="68.408203" xlink:href="#DejaVuSans-6d"/>
      <use x="165.820312" xlink:href="#DejaVuSans-70"/>
      <use x="229.296875" xlink:href="#DejaVuSans-6c"/>
      <use x="257.080078" xlink:href="#DejaVuSans-69"/>
      <use x="284.863281" xlink:href="#DejaVuSans-74"/>
      <use x="324.072266" xlink:href="#DejaVuSans-75"/>
      <use x="387.451172" xlink:href="#DejaVuSans-64"/>
      <use x="450.927734" xlink:href="#DejaVuSans-65"/>
     </g>
    </g>
   </g>
   <g id="line2d_33">
    <path clip-path="url(#pfeba3dd82b)" d="M 135 257.4 
L 136.923254 260.518385 
L 138.846507 263.25496 
L 140.769761 265.175282 
L 142.693015 265.95617 
L 144.616268 265.438851 
L 146.539522 263.658751 
L 148.462776 260.846636 
L 154.232537 250.677638 
L 156.15579 248.45109 
L 158.079044 247.527496 
L 160.002298 248.100153 
L 161.925551 250.139849 
L 163.848805 253.390648 
L 169.618566 265.291468 
L 171.54182 267.939827 
L 173.465074 269.067504 
L 175.388327 268.430051 
L 177.311581 266.043037 
L 179.234835 262.191665 
L 185.004596 247.84717 
L 186.927849 244.581292 
L 188.851103 243.139717 
L 190.774357 243.848794 
L 192.69761 246.723308 
L 194.620864 251.446719 
L 196.544118 257.4 
L 198.467371 263.737363 
L 200.390625 269.500251 
L 202.313879 273.754904 
L 204.237132 275.734649 
L 206.160386 274.966378 
L 208.08364 271.361828 
L 210.006893 265.258331 
L 211.930147 257.4 
L 213.853401 248.858336 
L 215.776654 240.899657 
L 217.699908 234.814657 
L 219.623162 231.731491 
L 221.546415 232.437252 
L 223.469669 237.232915 
L 225.392923 245.843632 
L 227.316176 257.4 
L 231.162684 283.32911 
L 233.085937 293.884016 
L 235.009191 300.180849 
L 236.932445 300.517473 
L 238.855699 293.700754 
L 240.778952 279.228696 
L 242.702206 257.4 
L 244.62546 229.334534 
L 246.548713 196.898744 
L 250.395221 129.057454 
L 252.318474 99.302598 
L 254.241728 75.896231 
L 256.164982 60.941736 
L 258.088235 55.8 
L 260.011489 60.941736 
L 261.934743 75.896231 
L 263.857996 99.302598 
L 265.78125 129.057454 
L 271.551011 229.334534 
L 273.474265 257.4 
L 275.397518 279.228696 
L 277.320772 293.700754 
L 279.244026 300.517473 
L 281.167279 300.180849 
L 283.090533 293.884016 
L 285.013787 283.32911 
L 288.860294 257.4 
L 290.783548 245.843632 
L 292.706801 237.232915 
L 294.630055 232.437252 
L 296.553309 231.731491 
L 298.476562 234.814657 
L 300.399816 240.899657 
L 302.32307 248.858336 
L 304.246324 257.4 
L 306.169577 265.258331 
L 308.092831 271.361828 
L 310.016085 274.966378 
L 311.939338 275.734649 
L 313.862592 273.754904 
L 315.785846 269.500251 
L 317.709099 263.737363 
L 319.632353 257.4 
L 321.555607 251.446719 
L 323.47886 246.723308 
L 325.402114 243.848794 
L 327.325368 243.139717 
L 329.248621 244.581292 
L 331.171875 247.84717 
L 333.095129 252.362609 
L 336.941636 262.191665 
L 338.86489 266.043037 
L 340.788143 268.430051 
L 342.711397 269.067504 
L 344.634651 267.939827 
L 346.557904 265.291468 
L 348.481158 261.579963 
L 352.327665 253.390648 
L 354.250919 250.139849 
L 356.174173 248.100153 
L 358.097426 247.527496 
L 360.02068 248.45109 
L 361.943934 250.677638 
L 363.867187 253.828032 
L 367.713695 260.846636 
L 369.636949 263.658751 
L 371.560202 265.438851 
L 373.483456 265.95617 
L 375.40671 265.175282 
L 377.329963 263.25496 
L 379.253217 260.518385 
L 379.253217 260.518385 
" style="fill:none;stroke:#ff0000;stroke-linecap:square;"/>
   </g>
   <g id="line2d_34">
    <path clip-path="url(#pfeba3dd82b)" d="M 135 307.8 
L 150.386029 307.8 
L 152.309283 257.4 
L 165.772059 257.4 
L 167.695312 307.8 
L 181.158088 307.8 
L 183.081342 257.4 
L 196.544118 257.4 
L 198.467371 307.8 
L 211.930147 307.8 
L 213.853401 257.4 
L 227.316176 257.4 
L 229.23943 307.8 
L 242.702206 307.8 
L 246.548713 207 
L 248.471967 207 
L 252.318474 106.2 
L 263.857996 106.2 
L 267.704504 207 
L 269.627757 207 
L 271.551011 257.4 
L 273.474265 257.4 
L 275.397518 307.8 
L 288.860294 307.8 
L 290.783548 257.4 
L 304.246324 257.4 
L 306.169577 307.8 
L 319.632353 307.8 
L 321.555607 257.4 
L 335.018382 257.4 
L 336.941636 307.8 
L 350.404412 307.8 
L 352.327665 257.4 
L 365.790441 257.4 
L 367.713695 307.8 
L 379.253217 307.8 
L 379.253217 307.8 
" style="fill:none;stroke:#008000;stroke-dasharray:6.4,1.6,1,1.6;stroke-dashoffset:0;"/>
   </g>
   <g id="line2d_35">
    <path clip-path="url(#pfeba3dd82b)" d="M 135 257.4 
L 217.699908 257.4 
L 219.623162 207 
L 221.546415 257.4 
L 229.23943 257.4 
L 231.162684 307.8 
L 238.855699 307.8 
L 240.778952 257.4 
L 242.702206 257.4 
L 244.62546 207 
L 246.548713 207 
L 250.395221 106.2 
L 265.78125 106.2 
L 269.627757 207 
L 271.551011 207 
L 273.474265 257.4 
L 275.397518 257.4 
L 277.320772 307.8 
L 285.013787 307.8 
L 286.93704 257.4 
L 294.630055 257.4 
L 296.553309 207 
L 298.476562 257.4 
L 379.253217 257.4 
L 379.253217 257.4 
" style="fill:none;stroke:#000000;stroke-dasharray:3.7,1.6;stroke-dashoffset:0;"/>
   </g>
   <g id="patch_3">
    <path d="M 135 320.4 
L 135 43.2 
" style="fill:none;stroke:#000000;stroke-linecap:square;stroke-linejoin:miter;stroke-width:0.8;"/>
   </g>
   <g id="patch_4">
    <path d="M 381.176471 320.4 
L 381.176471 43.2 
" style="fill:none;stroke:#000000;stroke-linecap:square;stroke-linejoin:miter;stroke-width:0.8;"/>
   </g>
   <g id="patch_5">
    <path d="M 135 320.4 
L 381.176471 320.4 
" style="fill:none;stroke:#000000;stroke-linecap:square;stroke-linejoin:miter;stroke-width:0.8;"/>
   </g>
   <g id="patch_6">
    <path d="M 135 43.2 
L 381.176471 43.2 
" style="fill:none;stroke:#000000;stroke-linecap:square;stroke-linejoin:miter;stroke-width:0.8;"/>
   </g>
   <g id="text_20">
    <!-- Impulse responses -->
    <g transform="translate(202.096048 37.2)scale(0.12 -0.12)">
     <defs>
      <path d="M 628 4666 
L 1259 4666 
L 1259 0 
L 628 0 
L 628 4666 
z
" id="DejaVuSans-49" transform="scale(0.015625)"/>
      <path id="DejaVuSans-20" transform="scale(0.015625)"/>
      <path d="M 2631 2963 
Q 2534 3019 2420 3045 
Q 2306 3072 2169 3072 
Q 1681 3072 1420 2755 
Q 1159 2438 1159 1844 
L 1159 0 
L 581 0 
L 581 3500 
L 1159 3500 
L 1159 2956 
Q 1341 3275 1631 3429 
Q 1922 3584 2338 3584 
Q 2397 3584 2469 3576 
Q 2541 3569 2628 3553 
L 2631 2963 
z
" id="DejaVuSans-72" transform="scale(0.015625)"/>
      <path d="M 1959 3097 
Q 1497 3097 1228 2736 
Q 959 2375 959 1747 
Q 959 1119 1226 758 
Q 1494 397 1959 397 
Q 2419 397 2687 759 
Q 2956 1122 2956 1747 
Q 2956 2369 2687 2733 
Q 2419 3097 1959 3097 
z
M 1959 3584 
Q 2709 3584 3137 3096 
Q 3566 2609 3566 1747 
Q 3566 888 3137 398 
Q 2709 -91 1959 -91 
Q 1206 -91 779 398 
Q 353 888 353 1747 
Q 353 2609 779 3096 
Q 1206 3584 1959 3584 
z
" id="DejaVuSans-6f" transform="scale(0.015625)"/>
      <path d="M 3513 2113 
L 3513 0 
L 2938 0 
L 2938 2094 
Q 2938 2591 2744 2837 
Q 2550 3084 2163 3084 
Q 1697 3084 1428 2787 
Q 1159 2491 1159 1978 
L 1159 0 
L 581 0 
L 581 3500 
L 1159 3500 
L 1159 2956 
Q 1366 3272 1645 3428 
Q 1925 3584 2291 3584 
Q 2894 3584 3203 3211 
Q 3513 2838 3513 2113 
z
" id="DejaVuSans-6e" transform="scale(0.015625)"/>
     </defs>
     <use xlink:href="#DejaVuSans-49"/>
     <use x="29.492188" xlink:href="#DejaVuSans-6d"/>
     <use x="126.904297" xlink:href="#DejaVuSans-70"/>
     <use x="190.380859" xlink:href="#DejaVuSans-75"/>
     <use x="253.759766" xlink:href="#DejaVuSans-6c"/>
     <use x="281.542969" xlink:href="#DejaVuSans-73"/>
     <use x="333.642578" xlink:href="#DejaVuSans-65"/>
     <use x="395.166016" xlink:href="#DejaVuSans-20"/>
     <use x="426.953125" xlink:href="#DejaVuSans-72"/>
     <use x="465.816406" xlink:href="#DejaVuSans-65"/>
     <use x="527.339844" xlink:href="#DejaVuSans-73"/>
     <use x="579.439453" xlink:href="#DejaVuSans-70"/>
     <use x="642.916016" xlink:href="#DejaVuSans-6f"/>
     <use x="704.097656" xlink:href="#DejaVuSans-6e"/>
     <use x="767.476562" xlink:href="#DejaVuSans-73"/>
     <use x="819.576172" xlink:href="#DejaVuSans-65"/>
     <use x="881.099609" xlink:href="#DejaVuSans-73"/>
    </g>
   </g>
   <g id="legend_1">
    <g id="patch_7">
     <path d="M 273.953471 79.5656 
L 376.318471 79.5656 
Q 377.706471 79.5656 377.706471 78.1776 
L 377.706471 48.058 
Q 377.706471 46.67 376.318471 46.67 
L 273.953471 46.67 
Q 272.565471 46.67 272.565471 48.058 
L 272.565471 78.1776 
Q 272.565471 79.5656 273.953471 79.5656 
z
" style="fill:#ffffff;opacity:0.8;stroke:#cccccc;stroke-linejoin:miter;"/>
    </g>
    <g id="line2d_36">
     <path d="M 275.341471 52.3608 
L 289.221471 52.3608 
" style="fill:none;stroke:#ff0000;stroke-linecap:square;"/>
    </g>
    <g id="line2d_37"/>
    <g id="text_21">
     <!-- $\beta=0.0,\ Float$ -->
     <g transform="translate(294.773471 54.7898)scale(0.0694 -0.0694)">
      <defs>
       <path d="M 872 216 
L 572 -1331 
L -6 -1331 
L 928 3478 
Q 1206 4903 2538 4903 
Q 3888 4903 3659 3700 
Q 3503 2844 2894 2531 
Q 3713 2250 3553 1416 
Q 3272 -69 1759 -66 
Q 1097 -63 872 216 
z
M 1019 966 
Q 1259 422 1875 425 
Q 2775 425 2966 1406 
Q 3138 2288 1675 2219 
L 1778 2750 
Q 2909 2731 3106 3750 
Q 3241 4438 2509 4434 
Q 1691 4434 1503 3459 
L 1019 966 
z
" id="DejaVuSans-Oblique-3b2" transform="scale(0.015625)"/>
       <path d="M 678 2906 
L 4684 2906 
L 4684 2381 
L 678 2381 
L 678 2906 
z
M 678 1631 
L 4684 1631 
L 4684 1100 
L 678 1100 
L 678 1631 
z
" id="DejaVuSans-3d" transform="scale(0.015625)"/>
       <path d="M 750 794 
L 1409 794 
L 1409 256 
L 897 -744 
L 494 -744 
L 750 256 
L 750 794 
z
" id="DejaVuSans-2c" transform="scale(0.015625)"/>
       <path d="M 1081 4666 
L 3756 4666 
L 3653 4134 
L 1606 4134 
L 1338 2759 
L 3188 2759 
L 3084 2228 
L 1234 2228 
L 800 0 
L 172 0 
L 1081 4666 
z
" id="DejaVuSans-Oblique-46" transform="scale(0.015625)"/>
       <path d="M 1172 4863 
L 1747 4863 
L 800 0 
L 225 0 
L 1172 4863 
z
" id="DejaVuSans-Oblique-6c" transform="scale(0.015625)"/>
       <path d="M 1625 -91 
Q 1009 -91 651 289 
Q 294 669 294 1325 
Q 294 1706 417 2101 
Q 541 2497 738 2766 
Q 1047 3184 1428 3384 
Q 1809 3584 2291 3584 
Q 2888 3584 3255 3212 
Q 3622 2841 3622 2241 
Q 3622 1825 3500 1412 
Q 3378 1000 3181 728 
Q 2875 309 2494 109 
Q 2113 -91 1625 -91 
z
M 891 1344 
Q 891 869 1089 633 
Q 1288 397 1691 397 
Q 2269 397 2648 901 
Q 3028 1406 3028 2181 
Q 3028 2634 2825 2865 
Q 2622 3097 2228 3097 
Q 1903 3097 1650 2945 
Q 1397 2794 1197 2484 
Q 1050 2253 970 1956 
Q 891 1659 891 1344 
z
" id="DejaVuSans-Oblique-6f" transform="scale(0.015625)"/>
       <path d="M 3438 1997 
L 3047 0 
L 2472 0 
L 2578 531 
Q 2325 219 2001 64 
Q 1678 -91 1281 -91 
Q 834 -91 548 182 
Q 263 456 263 884 
Q 263 1497 752 1853 
Q 1241 2209 2100 2209 
L 2900 2209 
L 2931 2363 
Q 2938 2388 2941 2417 
Q 2944 2447 2944 2509 
Q 2944 2788 2717 2942 
Q 2491 3097 2081 3097 
Q 1800 3097 1504 3025 
Q 1209 2953 897 2809 
L 997 3341 
Q 1322 3463 1633 3523 
Q 1944 3584 2234 3584 
Q 2853 3584 3176 3315 
Q 3500 3047 3500 2534 
Q 3500 2431 3484 2292 
Q 3469 2153 3438 1997 
z
M 2816 1759 
L 2241 1759 
Q 1534 1759 1195 1570 
Q 856 1381 856 984 
Q 856 709 1029 553 
Q 1203 397 1509 397 
Q 1978 397 2328 733 
Q 2678 1069 2791 1631 
L 2816 1759 
z
" id="DejaVuSans-Oblique-61" transform="scale(0.015625)"/>
       <path d="M 2706 3500 
L 2619 3053 
L 1472 3053 
L 1100 1153 
Q 1081 1047 1072 975 
Q 1063 903 1063 863 
Q 1063 663 1183 572 
Q 1303 481 1569 481 
L 2150 481 
L 2053 0 
L 1503 0 
Q 991 0 739 200 
Q 488 400 488 806 
Q 488 878 497 964 
Q 506 1050 525 1153 
L 897 3053 
L 409 3053 
L 500 3500 
L 978 3500 
L 1172 4494 
L 1747 4494 
L 1556 3500 
L 2706 3500 
z
" id="DejaVuSans-Oblique-74" transform="scale(0.015625)"/>
      </defs>
      <use transform="translate(0 0.390625)" xlink:href="#DejaVuSans-Oblique-3b2"/>
      <use transform="translate(83.300781 0.390625)" xlink:href="#DejaVuSans-3d"/>
      <use transform="translate(186.572266 0.390625)" xlink:href="#DejaVuSans-30"/>
      <use transform="translate(250.195312 0.390625)" xlink:href="#DejaVuSans-2e"/>
      <use transform="translate(281.982422 0.390625)" xlink:href="#DejaVuSans-30"/>
      <use transform="translate(345.605469 0.390625)" xlink:href="#DejaVuSans-2c"/>
      <use transform="translate(429.345378 0.390625)" xlink:href="#DejaVuSans-Oblique-46"/>
      <use transform="translate(486.86491 0.390625)" xlink:href="#DejaVuSans-Oblique-6c"/>
      <use transform="translate(514.648113 0.390625)" xlink:href="#DejaVuSans-Oblique-6f"/>
      <use transform="translate(575.829753 0.390625)" xlink:href="#DejaVuSans-Oblique-61"/>
      <use transform="translate(637.10905 0.390625)" xlink:href="#DejaVuSans-Oblique-74"/>
     </g>
    </g>
    <g id="line2d_38">
     <path d="M 275.341471 62.632 
L 289.221471 62.632 
" style="fill:none;stroke:#008000;stroke-dasharray:6.4,1.6,1,1.6;stroke-dashoffset:0;"/>
    </g>
    <g id="line2d_39"/>
    <g id="text_22">
     <!-- $\beta=0.0,\ S(3,2),\ Trunc$ -->
     <g transform="translate(294.773471 65.061)scale(0.0694 -0.0694)">
      <defs>
       <path d="M 3859 4513 
L 3738 3897 
Q 3422 4066 3111 4152 
Q 2800 4238 2509 4238 
Q 1944 4238 1609 3991 
Q 1275 3744 1275 3334 
Q 1275 3109 1398 2989 
Q 1522 2869 2034 2731 
L 2413 2638 
Q 3053 2472 3303 2217 
Q 3553 1963 3553 1503 
Q 3553 797 2998 353 
Q 2444 -91 1538 -91 
Q 1166 -91 791 -17 
Q 416 56 38 206 
L 166 856 
Q 513 641 861 531 
Q 1209 422 1556 422 
Q 2147 422 2503 684 
Q 2859 947 2859 1369 
Q 2859 1650 2717 1795 
Q 2575 1941 2106 2059 
L 1728 2156 
Q 1081 2325 845 2545 
Q 609 2766 609 3163 
Q 609 3859 1145 4304 
Q 1681 4750 2541 4750 
Q 2875 4750 3203 4690 
Q 3531 4631 3859 4513 
z
" id="DejaVuSans-Oblique-53" transform="scale(0.015625)"/>
       <path d="M 1984 4856 
Q 1566 4138 1362 3434 
Q 1159 2731 1159 2009 
Q 1159 1288 1364 580 
Q 1569 -128 1984 -844 
L 1484 -844 
Q 1016 -109 783 600 
Q 550 1309 550 2009 
Q 550 2706 781 3412 
Q 1013 4119 1484 4856 
L 1984 4856 
z
" id="DejaVuSans-28" transform="scale(0.015625)"/>
       <path d="M 2597 2516 
Q 3050 2419 3304 2112 
Q 3559 1806 3559 1356 
Q 3559 666 3084 287 
Q 2609 -91 1734 -91 
Q 1441 -91 1130 -33 
Q 819 25 488 141 
L 488 750 
Q 750 597 1062 519 
Q 1375 441 1716 441 
Q 2309 441 2620 675 
Q 2931 909 2931 1356 
Q 2931 1769 2642 2001 
Q 2353 2234 1838 2234 
L 1294 2234 
L 1294 2753 
L 1863 2753 
Q 2328 2753 2575 2939 
Q 2822 3125 2822 3475 
Q 2822 3834 2567 4026 
Q 2313 4219 1838 4219 
Q 1578 4219 1281 4162 
Q 984 4106 628 3988 
L 628 4550 
Q 988 4650 1302 4700 
Q 1616 4750 1894 4750 
Q 2613 4750 3031 4423 
Q 3450 4097 3450 3541 
Q 3450 3153 3228 2886 
Q 3006 2619 2597 2516 
z
" id="DejaVuSans-33" transform="scale(0.015625)"/>
       <path d="M 513 4856 
L 1013 4856 
Q 1481 4119 1714 3412 
Q 1947 2706 1947 2009 
Q 1947 1309 1714 600 
Q 1481 -109 1013 -844 
L 513 -844 
Q 928 -128 1133 580 
Q 1338 1288 1338 2009 
Q 1338 2731 1133 3434 
Q 928 4138 513 4856 
z
" id="DejaVuSans-29" transform="scale(0.015625)"/>
       <path d="M 378 4666 
L 4325 4666 
L 4225 4134 
L 2559 4134 
L 1759 0 
L 1125 0 
L 1925 4134 
L 275 4134 
L 378 4666 
z
" id="DejaVuSans-Oblique-54" transform="scale(0.015625)"/>
       <path d="M 2853 2969 
Q 2766 3016 2653 3041 
Q 2541 3066 2413 3066 
Q 1953 3066 1609 2717 
Q 1266 2369 1153 1784 
L 800 0 
L 225 0 
L 909 3500 
L 1484 3500 
L 1375 2956 
Q 1603 3259 1920 3421 
Q 2238 3584 2597 3584 
Q 2691 3584 2781 3573 
Q 2872 3563 2963 3538 
L 2853 2969 
z
" id="DejaVuSans-Oblique-72" transform="scale(0.015625)"/>
       <path d="M 428 1388 
L 838 3500 
L 1416 3500 
L 1006 1409 
Q 975 1256 961 1147 
Q 947 1038 947 966 
Q 947 700 1109 554 
Q 1272 409 1569 409 
Q 2031 409 2368 721 
Q 2706 1034 2809 1563 
L 3194 3500 
L 3769 3500 
L 3091 0 
L 2516 0 
L 2631 550 
Q 2388 244 2052 76 
Q 1716 -91 1338 -91 
Q 878 -91 622 161 
Q 366 413 366 863 
Q 366 956 381 1097 
Q 397 1238 428 1388 
z
" id="DejaVuSans-Oblique-75" transform="scale(0.015625)"/>
       <path d="M 3566 2113 
L 3156 0 
L 2578 0 
L 2988 2091 
Q 3016 2238 3031 2350 
Q 3047 2463 3047 2528 
Q 3047 2791 2881 2937 
Q 2716 3084 2419 3084 
Q 1956 3084 1622 2776 
Q 1288 2469 1184 1941 
L 800 0 
L 225 0 
L 903 3500 
L 1478 3500 
L 1363 2950 
Q 1603 3253 1940 3418 
Q 2278 3584 2650 3584 
Q 3113 3584 3367 3334 
Q 3622 3084 3622 2631 
Q 3622 2519 3608 2391 
Q 3594 2263 3566 2113 
z
" id="DejaVuSans-Oblique-6e" transform="scale(0.015625)"/>
       <path d="M 3431 3366 
L 3316 2797 
Q 3109 2947 2876 3022 
Q 2644 3097 2394 3097 
Q 2119 3097 1870 3000 
Q 1622 2903 1453 2725 
Q 1184 2453 1037 2087 
Q 891 1722 891 1331 
Q 891 859 1127 628 
Q 1363 397 1844 397 
Q 2081 397 2348 469 
Q 2616 541 2906 684 
L 2797 116 
Q 2547 13 2283 -39 
Q 2019 -91 1741 -91 
Q 1044 -91 669 257 
Q 294 606 294 1253 
Q 294 1797 489 2255 
Q 684 2713 1069 3078 
Q 1331 3328 1684 3456 
Q 2038 3584 2456 3584 
Q 2700 3584 2940 3529 
Q 3181 3475 3431 3366 
z
" id="DejaVuSans-Oblique-63" transform="scale(0.015625)"/>
      </defs>
      <use transform="translate(0 0.390625)" xlink:href="#DejaVuSans-Oblique-3b2"/>
      <use transform="translate(83.300781 0.390625)" xlink:href="#DejaVuSans-3d"/>
      <use transform="translate(186.572266 0.390625)" xlink:href="#DejaVuSans-30"/>
      <use transform="translate(250.195312 0.390625)" xlink:href="#DejaVuSans-2e"/>
      <use transform="translate(281.982422 0.390625)" xlink:href="#DejaVuSans-30"/>
      <use transform="translate(345.605469 0.390625)" xlink:href="#DejaVuSans-2c"/>
      <use transform="translate(429.345378 0.390625)" xlink:href="#DejaVuSans-Oblique-53"/>
      <use transform="translate(492.821941 0.390625)" xlink:href="#DejaVuSans-28"/>
      <use transform="translate(531.835613 0.390625)" xlink:href="#DejaVuSans-33"/>
      <use transform="translate(595.45866 0.390625)" xlink:href="#DejaVuSans-2c"/>
      <use transform="translate(646.728191 0.390625)" xlink:href="#DejaVuSans-32"/>
      <use transform="translate(710.351238 0.390625)" xlink:href="#DejaVuSans-29"/>
      <use transform="translate(749.36491 0.390625)" xlink:href="#DejaVuSans-2c"/>
      <use transform="translate(833.104819 0.390625)" xlink:href="#DejaVuSans-Oblique-54"/>
      <use transform="translate(894.188804 0.390625)" xlink:href="#DejaVuSans-Oblique-72"/>
      <use transform="translate(935.302085 0.390625)" xlink:href="#DejaVuSans-Oblique-75"/>
      <use transform="translate(998.680991 0.390625)" xlink:href="#DejaVuSans-Oblique-6e"/>
      <use transform="translate(1062.059897 0.390625)" xlink:href="#DejaVuSans-Oblique-63"/>
     </g>
    </g>
    <g id="line2d_40">
     <path d="M 275.341471 72.9032 
L 289.221471 72.9032 
" style="fill:none;stroke:#000000;stroke-dasharray:3.7,1.6;stroke-dashoffset:0;"/>
    </g>
    <g id="line2d_41"/>
    <g id="text_23">
     <!-- $\beta=0.0,\ S(3,2),\ Round$ -->
     <g transform="translate(294.773471 75.3322)scale(0.0694 -0.0694)">
      <defs>
       <path d="M 1613 4147 
L 1294 2491 
L 2106 2491 
Q 2584 2491 2879 2755 
Q 3175 3019 3175 3444 
Q 3175 3784 2976 3965 
Q 2778 4147 2406 4147 
L 1613 4147 
z
M 2772 2241 
Q 2972 2194 3105 2009 
Q 3238 1825 3413 1275 
L 3809 0 
L 3144 0 
L 2778 1197 
Q 2638 1659 2453 1815 
Q 2269 1972 1888 1972 
L 1191 1972 
L 806 0 
L 172 0 
L 1081 4666 
L 2503 4666 
Q 3150 4666 3495 4373 
Q 3841 4081 3841 3531 
Q 3841 3044 3547 2687 
Q 3253 2331 2772 2241 
z
" id="DejaVuSans-Oblique-52" transform="scale(0.015625)"/>
       <path d="M 2675 525 
Q 2444 222 2128 65 
Q 1813 -91 1428 -91 
Q 903 -91 598 267 
Q 294 625 294 1247 
Q 294 1766 478 2236 
Q 663 2706 1013 3078 
Q 1244 3325 1534 3454 
Q 1825 3584 2144 3584 
Q 2481 3584 2739 3421 
Q 2997 3259 3138 2956 
L 3513 4863 
L 4091 4863 
L 3144 0 
L 2566 0 
L 2675 525 
z
M 891 1350 
Q 891 897 1095 644 
Q 1300 391 1663 391 
Q 1931 391 2161 520 
Q 2391 650 2566 903 
Q 2750 1166 2856 1509 
Q 2963 1853 2963 2188 
Q 2963 2622 2758 2865 
Q 2553 3109 2194 3109 
Q 1922 3109 1687 2981 
Q 1453 2853 1288 2613 
Q 1106 2353 998 2009 
Q 891 1666 891 1350 
z
" id="DejaVuSans-Oblique-64" transform="scale(0.015625)"/>
      </defs>
      <use transform="translate(0 0.390625)" xlink:href="#DejaVuSans-Oblique-3b2"/>
      <use transform="translate(83.300781 0.390625)" xlink:href="#DejaVuSans-3d"/>
      <use transform="translate(186.572266 0.390625)" xlink:href="#DejaVuSans-30"/>
      <use transform="translate(250.195312 0.390625)" xlink:href="#DejaVuSans-2e"/>
      <use transform="translate(281.982422 0.390625)" xlink:href="#DejaVuSans-30"/>
      <use transform="translate(345.605469 0.390625)" xlink:href="#DejaVuSans-2c"/>
      <use transform="translate(429.345378 0.390625)" xlink:href="#DejaVuSans-Oblique-53"/>
      <use transform="translate(492.821941 0.390625)" xlink:href="#DejaVuSans-28"/>
      <use transform="translate(531.835613 0.390625)" xlink:href="#DejaVuSans-33"/>
      <use transform="translate(595.45866 0.390625)" xlink:href="#DejaVuSans-2c"/>
      <use transform="translate(646.728191 0.390625)" xlink:href="#DejaVuSans-32"/>
      <use transform="translate(710.351238 0.390625)" xlink:href="#DejaVuSans-29"/>
      <use transform="translate(749.36491 0.390625)" xlink:href="#DejaVuSans-2c"/>
      <use transform="translate(833.104819 0.390625)" xlink:href="#DejaVuSans-Oblique-52"/>
      <use transform="translate(902.587241 0.390625)" xlink:href="#DejaVuSans-Oblique-6f"/>
      <use transform="translate(963.768882 0.390625)" xlink:href="#DejaVuSans-Oblique-75"/>
      <use transform="translate(1027.147788 0.390625)" xlink:href="#DejaVuSans-Oblique-6e"/>
      <use transform="translate(1090.526694 0.390625)" xlink:href="#DejaVuSans-Oblique-64"/>
     </g>
    </g>
   </g>
  </g>
  <g id="axes_2">
   <g id="patch_8">
    <path d="M 430.411765 320.4 
L 676.588235 320.4 
L 676.588235 43.2 
L 430.411765 43.2 
z
" style="fill:#ffffff;"/>
   </g>
   <g id="matplotlib.axis_3">
    <g id="xtick_10">
     <g id="line2d_42">
      <path clip-path="url(#pfcd1106afa)" d="M 430.411765 320.4 
L 430.411765 43.2 
" style="fill:none;stroke:#b0b0b0;stroke-linecap:square;stroke-width:0.8;"/>
     </g>
     <g id="line2d_43">
      <g>
       <use style="stroke:#000000;stroke-width:0.8;" x="430.411765" xlink:href="#me9e4ca512a" y="320.4"/>
      </g>
     </g>
     <g id="text_24">
      <!-- −8 -->
      <g transform="translate(423.040671 334.998438)scale(0.1 -0.1)">
       <use xlink:href="#DejaVuSans-2212"/>
       <use x="83.789062" xlink:href="#DejaVuSans-38"/>
      </g>
     </g>
    </g>
    <g id="xtick_11">
     <g id="line2d_44">
      <path clip-path="url(#pfcd1106afa)" d="M 461.183824 320.4 
L 461.183824 43.2 
" style="fill:none;stroke:#b0b0b0;stroke-linecap:square;stroke-width:0.8;"/>
     </g>
     <g id="line2d_45">
      <g>
       <use style="stroke:#000000;stroke-width:0.8;" x="461.183824" xlink:href="#me9e4ca512a" y="320.4"/>
      </g>
     </g>
     <g id="text_25">
      <!-- −6 -->
      <g transform="translate(453.81273 334.998438)scale(0.1 -0.1)">
       <use xlink:href="#DejaVuSans-2212"/>
       <use x="83.789062" xlink:href="#DejaVuSans-36"/>
      </g>
     </g>
    </g>
    <g id="xtick_12">
     <g id="line2d_46">
      <path clip-path="url(#pfcd1106afa)" d="M 491.955882 320.4 
L 491.955882 43.2 
" style="fill:none;stroke:#b0b0b0;stroke-linecap:square;stroke-width:0.8;"/>
     </g>
     <g id="line2d_47">
      <g>
       <use style="stroke:#000000;stroke-width:0.8;" x="491.955882" xlink:href="#me9e4ca512a" y="320.4"/>
      </g>
     </g>
     <g id="text_26">
      <!-- −4 -->
      <g transform="translate(484.584789 334.998438)scale(0.1 -0.1)">
       <use xlink:href="#DejaVuSans-2212"/>
       <use x="83.789062" xlink:href="#DejaVuSans-34"/>
      </g>
     </g>
    </g>
    <g id="xtick_13">
     <g id="line2d_48">
      <path clip-path="url(#pfcd1106afa)" d="M 522.727941 320.4 
L 522.727941 43.2 
" style="fill:none;stroke:#b0b0b0;stroke-linecap:square;stroke-width:0.8;"/>
     </g>
     <g id="line2d_49">
      <g>
       <use style="stroke:#000000;stroke-width:0.8;" x="522.727941" xlink:href="#me9e4ca512a" y="320.4"/>
      </g>
     </g>
     <g id="text_27">
      <!-- −2 -->
      <g transform="translate(515.356847 334.998438)scale(0.1 -0.1)">
       <use xlink:href="#DejaVuSans-2212"/>
       <use x="83.789062" xlink:href="#DejaVuSans-32"/>
      </g>
     </g>
    </g>
    <g id="xtick_14">
     <g id="line2d_50">
      <path clip-path="url(#pfcd1106afa)" d="M 553.5 320.4 
L 553.5 43.2 
" style="fill:none;stroke:#b0b0b0;stroke-linecap:square;stroke-width:0.8;"/>
     </g>
     <g id="line2d_51">
      <g>
       <use style="stroke:#000000;stroke-width:0.8;" x="553.5" xlink:href="#me9e4ca512a" y="320.4"/>
      </g>
     </g>
     <g id="text_28">
      <!-- 0 -->
      <g transform="translate(550.31875 334.998438)scale(0.1 -0.1)">
       <use xlink:href="#DejaVuSans-30"/>
      </g>
     </g>
    </g>
    <g id="xtick_15">
     <g id="line2d_52">
      <path clip-path="url(#pfcd1106afa)" d="M 584.272059 320.4 
L 584.272059 43.2 
" style="fill:none;stroke:#b0b0b0;stroke-linecap:square;stroke-width:0.8;"/>
     </g>
     <g id="line2d_53">
      <g>
       <use style="stroke:#000000;stroke-width:0.8;" x="584.272059" xlink:href="#me9e4ca512a" y="320.4"/>
      </g>
     </g>
     <g id="text_29">
      <!-- 2 -->
      <g transform="translate(581.090809 334.998438)scale(0.1 -0.1)">
       <use xlink:href="#DejaVuSans-32"/>
      </g>
     </g>
    </g>
    <g id="xtick_16">
     <g id="line2d_54">
      <path clip-path="url(#pfcd1106afa)" d="M 615.044118 320.4 
L 615.044118 43.2 
" style="fill:none;stroke:#b0b0b0;stroke-linecap:square;stroke-width:0.8;"/>
     </g>
     <g id="line2d_55">
      <g>
       <use style="stroke:#000000;stroke-width:0.8;" x="615.044118" xlink:href="#me9e4ca512a" y="320.4"/>
      </g>
     </g>
     <g id="text_30">
      <!-- 4 -->
      <g transform="translate(611.862868 334.998438)scale(0.1 -0.1)">
       <use xlink:href="#DejaVuSans-34"/>
      </g>
     </g>
    </g>
    <g id="xtick_17">
     <g id="line2d_56">
      <path clip-path="url(#pfcd1106afa)" d="M 645.816176 320.4 
L 645.816176 43.2 
" style="fill:none;stroke:#b0b0b0;stroke-linecap:square;stroke-width:0.8;"/>
     </g>
     <g id="line2d_57">
      <g>
       <use style="stroke:#000000;stroke-width:0.8;" x="645.816176" xlink:href="#me9e4ca512a" y="320.4"/>
      </g>
     </g>
     <g id="text_31">
      <!-- 6 -->
      <g transform="translate(642.634926 334.998438)scale(0.1 -0.1)">
       <use xlink:href="#DejaVuSans-36"/>
      </g>
     </g>
    </g>
    <g id="xtick_18">
     <g id="line2d_58">
      <path clip-path="url(#pfcd1106afa)" d="M 676.588235 320.4 
L 676.588235 43.2 
" style="fill:none;stroke:#b0b0b0;stroke-linecap:square;stroke-width:0.8;"/>
     </g>
     <g id="line2d_59">
      <g>
       <use style="stroke:#000000;stroke-width:0.8;" x="676.588235" xlink:href="#me9e4ca512a" y="320.4"/>
      </g>
     </g>
     <g id="text_32">
      <!-- 8 -->
      <g transform="translate(673.406985 334.998438)scale(0.1 -0.1)">
       <use xlink:href="#DejaVuSans-38"/>
      </g>
     </g>
    </g>
    <g id="text_33">
     <!-- Samples -->
     <g transform="translate(532.146875 348.676562)scale(0.1 -0.1)">
      <use xlink:href="#DejaVuSans-53"/>
      <use x="63.476562" xlink:href="#DejaVuSans-61"/>
      <use x="124.755859" xlink:href="#DejaVuSans-6d"/>
      <use x="222.167969" xlink:href="#DejaVuSans-70"/>
      <use x="285.644531" xlink:href="#DejaVuSans-6c"/>
      <use x="313.427734" xlink:href="#DejaVuSans-65"/>
      <use x="374.951172" xlink:href="#DejaVuSans-73"/>
     </g>
    </g>
    <g id="text_34">
     <!-- 1e−9 -->
     <g transform="translate(649.330423 347.676562)scale(0.1 -0.1)">
      <use xlink:href="#DejaVuSans-31"/>
      <use x="63.623047" xlink:href="#DejaVuSans-65"/>
      <use x="125.146484" xlink:href="#DejaVuSans-2212"/>
      <use x="208.935547" xlink:href="#DejaVuSans-39"/>
     </g>
    </g>
   </g>
   <g id="matplotlib.axis_4">
    <g id="ytick_8">
     <g id="line2d_60">
      <path clip-path="url(#pfcd1106afa)" d="M 430.411765 297.72 
L 676.588235 297.72 
" style="fill:none;stroke:#b0b0b0;stroke-linecap:square;stroke-width:0.8;"/>
     </g>
     <g id="line2d_61">
      <g>
       <use style="stroke:#000000;stroke-width:0.8;" x="430.411765" xlink:href="#m05232a7895" y="297.72"/>
      </g>
     </g>
     <g id="text_35">
      <!-- −0.2 -->
      <g transform="translate(399.128952 301.519219)scale(0.1 -0.1)">
       <use xlink:href="#DejaVuSans-2212"/>
       <use x="83.789062" xlink:href="#DejaVuSans-30"/>
       <use x="147.412109" xlink:href="#DejaVuSans-2e"/>
       <use x="179.199219" xlink:href="#DejaVuSans-32"/>
      </g>
     </g>
    </g>
    <g id="ytick_9">
     <g id="line2d_62">
      <path clip-path="url(#pfcd1106afa)" d="M 430.411765 257.4 
L 676.588235 257.4 
" style="fill:none;stroke:#b0b0b0;stroke-linecap:square;stroke-width:0.8;"/>
     </g>
     <g id="line2d_63">
      <g>
       <use style="stroke:#000000;stroke-width:0.8;" x="430.411765" xlink:href="#m05232a7895" y="257.4"/>
      </g>
     </g>
     <g id="text_36">
      <!-- 0.0 -->
      <g transform="translate(407.50864 261.199219)scale(0.1 -0.1)">
       <use xlink:href="#DejaVuSans-30"/>
       <use x="63.623047" xlink:href="#DejaVuSans-2e"/>
       <use x="95.410156" xlink:href="#DejaVuSans-30"/>
      </g>
     </g>
    </g>
    <g id="ytick_10">
     <g id="line2d_64">
      <path clip-path="url(#pfcd1106afa)" d="M 430.411765 217.08 
L 676.588235 217.08 
" style="fill:none;stroke:#b0b0b0;stroke-linecap:square;stroke-width:0.8;"/>
     </g>
     <g id="line2d_65">
      <g>
       <use style="stroke:#000000;stroke-width:0.8;" x="430.411765" xlink:href="#m05232a7895" y="217.08"/>
      </g>
     </g>
     <g id="text_37">
      <!-- 0.2 -->
      <g transform="translate(407.50864 220.879219)scale(0.1 -0.1)">
       <use xlink:href="#DejaVuSans-30"/>
       <use x="63.623047" xlink:href="#DejaVuSans-2e"/>
       <use x="95.410156" xlink:href="#DejaVuSans-32"/>
      </g>
     </g>
    </g>
    <g id="ytick_11">
     <g id="line2d_66">
      <path clip-path="url(#pfcd1106afa)" d="M 430.411765 176.76 
L 676.588235 176.76 
" style="fill:none;stroke:#b0b0b0;stroke-linecap:square;stroke-width:0.8;"/>
     </g>
     <g id="line2d_67">
      <g>
       <use style="stroke:#000000;stroke-width:0.8;" x="430.411765" xlink:href="#m05232a7895" y="176.76"/>
      </g>
     </g>
     <g id="text_38">
      <!-- 0.4 -->
      <g transform="translate(407.50864 180.559219)scale(0.1 -0.1)">
       <use xlink:href="#DejaVuSans-30"/>
       <use x="63.623047" xlink:href="#DejaVuSans-2e"/>
       <use x="95.410156" xlink:href="#DejaVuSans-34"/>
      </g>
     </g>
    </g>
    <g id="ytick_12">
     <g id="line2d_68">
      <path clip-path="url(#pfcd1106afa)" d="M 430.411765 136.44 
L 676.588235 136.44 
" style="fill:none;stroke:#b0b0b0;stroke-linecap:square;stroke-width:0.8;"/>
     </g>
     <g id="line2d_69">
      <g>
       <use style="stroke:#000000;stroke-width:0.8;" x="430.411765" xlink:href="#m05232a7895" y="136.44"/>
      </g>
     </g>
     <g id="text_39">
      <!-- 0.6 -->
      <g transform="translate(407.50864 140.239219)scale(0.1 -0.1)">
       <use xlink:href="#DejaVuSans-30"/>
       <use x="63.623047" xlink:href="#DejaVuSans-2e"/>
       <use x="95.410156" xlink:href="#DejaVuSans-36"/>
      </g>
     </g>
    </g>
    <g id="ytick_13">
     <g id="line2d_70">
      <path clip-path="url(#pfcd1106afa)" d="M 430.411765 96.12 
L 676.588235 96.12 
" style="fill:none;stroke:#b0b0b0;stroke-linecap:square;stroke-width:0.8;"/>
     </g>
     <g id="line2d_71">
      <g>
       <use style="stroke:#000000;stroke-width:0.8;" x="430.411765" xlink:href="#m05232a7895" y="96.12"/>
      </g>
     </g>
     <g id="text_40">
      <!-- 0.8 -->
      <g transform="translate(407.50864 99.919219)scale(0.1 -0.1)">
       <use xlink:href="#DejaVuSans-30"/>
       <use x="63.623047" xlink:href="#DejaVuSans-2e"/>
       <use x="95.410156" xlink:href="#DejaVuSans-38"/>
      </g>
     </g>
    </g>
    <g id="ytick_14">
     <g id="line2d_72">
      <path clip-path="url(#pfcd1106afa)" d="M 430.411765 55.8 
L 676.588235 55.8 
" style="fill:none;stroke:#b0b0b0;stroke-linecap:square;stroke-width:0.8;"/>
     </g>
     <g id="line2d_73">
      <g>
       <use style="stroke:#000000;stroke-width:0.8;" x="430.411765" xlink:href="#m05232a7895" y="55.8"/>
      </g>
     </g>
     <g id="text_41">
      <!-- 1.0 -->
      <g transform="translate(407.50864 59.599219)scale(0.1 -0.1)">
       <use xlink:href="#DejaVuSans-31"/>
       <use x="63.623047" xlink:href="#DejaVuSans-2e"/>
       <use x="95.410156" xlink:href="#DejaVuSans-30"/>
      </g>
     </g>
    </g>
    <g id="text_42">
     <!-- Amplitude -->
     <g transform="translate(393.049265 207.422656)rotate(-90)scale(0.1 -0.1)">
      <use xlink:href="#DejaVuSans-41"/>
      <use x="68.408203" xlink:href="#DejaVuSans-6d"/>
      <use x="165.820312" xlink:href="#DejaVuSans-70"/>
      <use x="229.296875" xlink:href="#DejaVuSans-6c"/>
      <use x="257.080078" xlink:href="#DejaVuSans-69"/>
      <use x="284.863281" xlink:href="#DejaVuSans-74"/>
      <use x="324.072266" xlink:href="#DejaVuSans-75"/>
      <use x="387.451172" xlink:href="#DejaVuSans-64"/>
      <use x="450.927734" xlink:href="#DejaVuSans-65"/>
     </g>
    </g>
   </g>
   <g id="line2d_74">
    <path clip-path="url(#pfcd1106afa)" d="M 430.411765 257.4 
L 438.104779 257.290495 
L 449.644301 257.342271 
L 455.414062 257.204934 
L 459.26057 257.292311 
L 466.953585 257.686011 
L 470.800092 257.619714 
L 476.569853 257.4 
L 480.41636 257.56954 
L 486.186121 258.021115 
L 488.109375 257.978109 
L 490.032629 257.764575 
L 493.879136 256.956524 
L 495.80239 256.544178 
L 497.725643 256.279909 
L 499.648897 256.247595 
L 501.572151 256.460754 
L 505.418658 257.225103 
L 507.341912 257.4 
L 509.265165 257.170647 
L 511.188419 256.437805 
L 513.111673 255.269879 
L 515.034926 253.942785 
L 516.95818 252.927377 
L 518.881434 252.813672 
L 520.804687 254.176017 
L 522.727941 257.4 
L 524.651195 262.506309 
L 528.497702 275.890118 
L 530.420956 281.600503 
L 532.34421 284.2966 
L 534.267463 282.09635 
L 536.190717 273.432254 
L 538.113971 257.4 
L 540.037224 234.038716 
L 541.960478 204.479249 
L 547.730239 104.436293 
L 549.653493 78.533208 
L 551.576746 61.65816 
L 553.5 55.8 
L 555.423254 61.65816 
L 557.346507 78.533208 
L 559.269761 104.436293 
L 561.193015 136.397487 
L 565.039522 204.479249 
L 566.962776 234.038716 
L 568.886029 257.4 
L 570.809283 273.432254 
L 572.732537 282.09635 
L 574.65579 284.2966 
L 576.579044 281.600503 
L 578.502298 275.890118 
L 582.348805 262.506309 
L 584.272059 257.4 
L 586.195312 254.176017 
L 588.118566 252.813672 
L 590.04182 252.927377 
L 591.965074 253.942785 
L 593.888327 255.269879 
L 595.811581 256.437805 
L 597.734835 257.170647 
L 599.658088 257.4 
L 601.581342 257.225103 
L 605.427849 256.460754 
L 607.351103 256.247595 
L 609.274357 256.279909 
L 611.19761 256.544178 
L 616.967371 257.764575 
L 618.890625 257.978109 
L 620.813879 258.021115 
L 624.660386 257.749263 
L 628.506893 257.443168 
L 632.353401 257.436999 
L 640.046415 257.686011 
L 645.816176 257.4 
L 649.662684 257.223777 
L 653.509191 257.230766 
L 663.12546 257.386489 
L 672.741728 257.308414 
L 674.664982 257.349874 
L 674.664982 257.349874 
" style="fill:none;stroke:#ff0000;stroke-linecap:square;"/>
   </g>
   <g id="line2d_75">
    <path clip-path="url(#pfcd1106afa)" d="M 430.411765 257.4 
L 461.183824 257.4 
L 463.107077 307.8 
L 491.955882 307.8 
L 493.879136 257.4 
L 522.727941 257.4 
L 524.651195 307.8 
L 538.113971 307.8 
L 541.960478 207 
L 543.883732 207 
L 547.730239 106.2 
L 559.269761 106.2 
L 563.116268 207 
L 565.039522 207 
L 566.962776 257.4 
L 568.886029 257.4 
L 570.809283 307.8 
L 584.272059 307.8 
L 586.195312 257.4 
L 615.044118 257.4 
L 616.967371 307.8 
L 645.816176 307.8 
L 647.73943 257.4 
L 674.664982 257.4 
L 674.664982 257.4 
" style="fill:none;stroke:#008000;stroke-dasharray:6.4,1.6,1,1.6;stroke-dashoffset:0;"/>
   </g>
   <g id="line2d_76">
    <path clip-path="url(#pfcd1106afa)" d="M 430.411765 257.4 
L 530.420956 257.4 
L 532.34421 307.8 
L 534.267463 257.4 
L 540.037224 257.4 
L 543.883732 156.6 
L 545.806985 156.6 
L 547.730239 106.2 
L 559.269761 106.2 
L 561.193015 156.6 
L 563.116268 156.6 
L 566.962776 257.4 
L 572.732537 257.4 
L 574.65579 307.8 
L 576.579044 257.4 
L 674.664982 257.4 
L 674.664982 257.4 
" style="fill:none;stroke:#000000;stroke-dasharray:3.7,1.6;stroke-dashoffset:0;"/>
   </g>
   <g id="patch_9">
    <path d="M 430.411765 320.4 
L 430.411765 43.2 
" style="fill:none;stroke:#000000;stroke-linecap:square;stroke-linejoin:miter;stroke-width:0.8;"/>
   </g>
   <g id="patch_10">
    <path d="M 676.588235 320.4 
L 676.588235 43.2 
" style="fill:none;stroke:#000000;stroke-linecap:square;stroke-linejoin:miter;stroke-width:0.8;"/>
   </g>
   <g id="patch_11">
    <path d="M 430.411765 320.4 
L 676.588235 320.4 
" style="fill:none;stroke:#000000;stroke-linecap:square;stroke-linejoin:miter;stroke-width:0.8;"/>
   </g>
   <g id="patch_12">
    <path d="M 430.411765 43.2 
L 676.588235 43.2 
" style="fill:none;stroke:#000000;stroke-linecap:square;stroke-linejoin:miter;stroke-width:0.8;"/>
   </g>
   <g id="text_43">
    <!-- Impulse responses -->
    <g transform="translate(497.507812 37.2)scale(0.12 -0.12)">
     <use xlink:href="#DejaVuSans-49"/>
     <use x="29.492188" xlink:href="#DejaVuSans-6d"/>
     <use x="126.904297" xlink:href="#DejaVuSans-70"/>
     <use x="190.380859" xlink:href="#DejaVuSans-75"/>
     <use x="253.759766" xlink:href="#DejaVuSans-6c"/>
     <use x="281.542969" xlink:href="#DejaVuSans-73"/>
     <use x="333.642578" xlink:href="#DejaVuSans-65"/>
     <use x="395.166016" xlink:href="#DejaVuSans-20"/>
     <use x="426.953125" xlink:href="#DejaVuSans-72"/>
     <use x="465.816406" xlink:href="#DejaVuSans-65"/>
     <use x="527.339844" xlink:href="#DejaVuSans-73"/>
     <use x="579.439453" xlink:href="#DejaVuSans-70"/>
     <use x="642.916016" xlink:href="#DejaVuSans-6f"/>
     <use x="704.097656" xlink:href="#DejaVuSans-6e"/>
     <use x="767.476562" xlink:href="#DejaVuSans-73"/>
     <use x="819.576172" xlink:href="#DejaVuSans-65"/>
     <use x="881.099609" xlink:href="#DejaVuSans-73"/>
    </g>
   </g>
   <g id="legend_2">
    <g id="patch_13">
     <path d="M 569.365235 79.5656 
L 671.730235 79.5656 
Q 673.118235 79.5656 673.118235 78.1776 
L 673.118235 48.058 
Q 673.118235 46.67 671.730235 46.67 
L 569.365235 46.67 
Q 567.977235 46.67 567.977235 48.058 
L 567.977235 78.1776 
Q 567.977235 79.5656 569.365235 79.5656 
z
" style="fill:#ffffff;opacity:0.8;stroke:#cccccc;stroke-linejoin:miter;"/>
    </g>
    <g id="line2d_77">
     <path d="M 570.753235 52.3608 
L 584.633235 52.3608 
" style="fill:none;stroke:#ff0000;stroke-linecap:square;"/>
    </g>
    <g id="line2d_78"/>
    <g id="text_44">
     <!-- $\beta=0.5,\ Float$ -->
     <g transform="translate(590.185235 54.7898)scale(0.0694 -0.0694)">
      <defs>
       <path d="M 691 4666 
L 3169 4666 
L 3169 4134 
L 1269 4134 
L 1269 2991 
Q 1406 3038 1543 3061 
Q 1681 3084 1819 3084 
Q 2600 3084 3056 2656 
Q 3513 2228 3513 1497 
Q 3513 744 3044 326 
Q 2575 -91 1722 -91 
Q 1428 -91 1123 -41 
Q 819 9 494 109 
L 494 744 
Q 775 591 1075 516 
Q 1375 441 1709 441 
Q 2250 441 2565 725 
Q 2881 1009 2881 1497 
Q 2881 1984 2565 2268 
Q 2250 2553 1709 2553 
Q 1456 2553 1204 2497 
Q 953 2441 691 2322 
L 691 4666 
z
" id="DejaVuSans-35" transform="scale(0.015625)"/>
      </defs>
      <use transform="translate(0 0.390625)" xlink:href="#DejaVuSans-Oblique-3b2"/>
      <use transform="translate(83.300781 0.390625)" xlink:href="#DejaVuSans-3d"/>
      <use transform="translate(186.572266 0.390625)" xlink:href="#DejaVuSans-30"/>
      <use transform="translate(250.195312 0.390625)" xlink:href="#DejaVuSans-2e"/>
      <use transform="translate(281.982422 0.390625)" xlink:href="#DejaVuSans-35"/>
      <use transform="translate(345.605469 0.390625)" xlink:href="#DejaVuSans-2c"/>
      <use transform="translate(429.345378 0.390625)" xlink:href="#DejaVuSans-Oblique-46"/>
      <use transform="translate(486.86491 0.390625)" xlink:href="#DejaVuSans-Oblique-6c"/>
      <use transform="translate(514.648113 0.390625)" xlink:href="#DejaVuSans-Oblique-6f"/>
      <use transform="translate(575.829753 0.390625)" xlink:href="#DejaVuSans-Oblique-61"/>
      <use transform="translate(637.10905 0.390625)" xlink:href="#DejaVuSans-Oblique-74"/>
     </g>
    </g>
    <g id="line2d_79">
     <path d="M 570.753235 62.632 
L 584.633235 62.632 
" style="fill:none;stroke:#008000;stroke-dasharray:6.4,1.6,1,1.6;stroke-dashoffset:0;"/>
    </g>
    <g id="line2d_80"/>
    <g id="text_45">
     <!-- $\beta=0.5,\ S(3,2),\ Trunc$ -->
     <g transform="translate(590.185235 65.061)scale(0.0694 -0.0694)">
      <use transform="translate(0 0.390625)" xlink:href="#DejaVuSans-Oblique-3b2"/>
      <use transform="translate(83.300781 0.390625)" xlink:href="#DejaVuSans-3d"/>
      <use transform="translate(186.572266 0.390625)" xlink:href="#DejaVuSans-30"/>
      <use transform="translate(250.195312 0.390625)" xlink:href="#DejaVuSans-2e"/>
      <use transform="translate(281.982422 0.390625)" xlink:href="#DejaVuSans-35"/>
      <use transform="translate(345.605469 0.390625)" xlink:href="#DejaVuSans-2c"/>
      <use transform="translate(429.345378 0.390625)" xlink:href="#DejaVuSans-Oblique-53"/>
      <use transform="translate(492.821941 0.390625)" xlink:href="#DejaVuSans-28"/>
      <use transform="translate(531.835613 0.390625)" xlink:href="#DejaVuSans-33"/>
      <use transform="translate(595.45866 0.390625)" xlink:href="#DejaVuSans-2c"/>
      <use transform="translate(646.728191 0.390625)" xlink:href="#DejaVuSans-32"/>
      <use transform="translate(710.351238 0.390625)" xlink:href="#DejaVuSans-29"/>
      <use transform="translate(749.36491 0.390625)" xlink:href="#DejaVuSans-2c"/>
      <use transform="translate(833.104819 0.390625)" xlink:href="#DejaVuSans-Oblique-54"/>
      <use transform="translate(894.188804 0.390625)" xlink:href="#DejaVuSans-Oblique-72"/>
      <use transform="translate(935.302085 0.390625)" xlink:href="#DejaVuSans-Oblique-75"/>
      <use transform="translate(998.680991 0.390625)" xlink:href="#DejaVuSans-Oblique-6e"/>
      <use transform="translate(1062.059897 0.390625)" xlink:href="#DejaVuSans-Oblique-63"/>
     </g>
    </g>
    <g id="line2d_81">
     <path d="M 570.753235 72.9032 
L 584.633235 72.9032 
" style="fill:none;stroke:#000000;stroke-dasharray:3.7,1.6;stroke-dashoffset:0;"/>
    </g>
    <g id="line2d_82"/>
    <g id="text_46">
     <!-- $\beta=0.5,\ S(3,2),\ Round$ -->
     <g transform="translate(590.185235 75.3322)scale(0.0694 -0.0694)">
      <use transform="translate(0 0.390625)" xlink:href="#DejaVuSans-Oblique-3b2"/>
      <use transform="translate(83.300781 0.390625)" xlink:href="#DejaVuSans-3d"/>
      <use transform="translate(186.572266 0.390625)" xlink:href="#DejaVuSans-30"/>
      <use transform="translate(250.195312 0.390625)" xlink:href="#DejaVuSans-2e"/>
      <use transform="translate(281.982422 0.390625)" xlink:href="#DejaVuSans-35"/>
      <use transform="translate(345.605469 0.390625)" xlink:href="#DejaVuSans-2c"/>
      <use transform="translate(429.345378 0.390625)" xlink:href="#DejaVuSans-Oblique-53"/>
      <use transform="translate(492.821941 0.390625)" xlink:href="#DejaVuSans-28"/>
      <use transform="translate(531.835613 0.390625)" xlink:href="#DejaVuSans-33"/>
      <use transform="translate(595.45866 0.390625)" xlink:href="#DejaVuSans-2c"/>
      <use transform="translate(646.728191 0.390625)" xlink:href="#DejaVuSans-32"/>
      <use transform="translate(710.351238 0.390625)" xlink:href="#DejaVuSans-29"/>
      <use transform="translate(749.36491 0.390625)" xlink:href="#DejaVuSans-2c"/>
      <use transform="translate(833.104819 0.390625)" xlink:href="#DejaVuSans-Oblique-52"/>
      <use transform="translate(902.587241 0.390625)" xlink:href="#DejaVuSans-Oblique-6f"/>
      <use transform="translate(963.768882 0.390625)" xlink:href="#DejaVuSans-Oblique-75"/>
      <use transform="translate(1027.147788 0.390625)" xlink:href="#DejaVuSans-Oblique-6e"/>
      <use transform="translate(1090.526694 0.390625)" xlink:href="#DejaVuSans-Oblique-64"/>
     </g>
    </g>
   </g>
  </g>
  <g id="axes_3">
   <g id="patch_14">
    <path d="M 725.823529 320.4 
L 972 320.4 
L 972 43.2 
L 725.823529 43.2 
z
" style="fill:#ffffff;"/>
   </g>
   <g id="matplotlib.axis_5">
    <g id="xtick_19">
     <g id="line2d_83">
      <path clip-path="url(#p1ed1118708)" d="M 725.823529 320.4 
L 725.823529 43.2 
" style="fill:none;stroke:#b0b0b0;stroke-linecap:square;stroke-width:0.8;"/>
     </g>
     <g id="line2d_84">
      <g>
       <use style="stroke:#000000;stroke-width:0.8;" x="725.823529" xlink:href="#me9e4ca512a" y="320.4"/>
      </g>
     </g>
     <g id="text_47">
      <!-- −8 -->
      <g transform="translate(718.452436 334.998438)scale(0.1 -0.1)">
       <use xlink:href="#DejaVuSans-2212"/>
       <use x="83.789062" xlink:href="#DejaVuSans-38"/>
      </g>
     </g>
    </g>
    <g id="xtick_20">
     <g id="line2d_85">
      <path clip-path="url(#p1ed1118708)" d="M 756.595588 320.4 
L 756.595588 43.2 
" style="fill:none;stroke:#b0b0b0;stroke-linecap:square;stroke-width:0.8;"/>
     </g>
     <g id="line2d_86">
      <g>
       <use style="stroke:#000000;stroke-width:0.8;" x="756.595588" xlink:href="#me9e4ca512a" y="320.4"/>
      </g>
     </g>
     <g id="text_48">
      <!-- −6 -->
      <g transform="translate(749.224494 334.998438)scale(0.1 -0.1)">
       <use xlink:href="#DejaVuSans-2212"/>
       <use x="83.789062" xlink:href="#DejaVuSans-36"/>
      </g>
     </g>
    </g>
    <g id="xtick_21">
     <g id="line2d_87">
      <path clip-path="url(#p1ed1118708)" d="M 787.367647 320.4 
L 787.367647 43.2 
" style="fill:none;stroke:#b0b0b0;stroke-linecap:square;stroke-width:0.8;"/>
     </g>
     <g id="line2d_88">
      <g>
       <use style="stroke:#000000;stroke-width:0.8;" x="787.367647" xlink:href="#me9e4ca512a" y="320.4"/>
      </g>
     </g>
     <g id="text_49">
      <!-- −4 -->
      <g transform="translate(779.996553 334.998438)scale(0.1 -0.1)">
       <use xlink:href="#DejaVuSans-2212"/>
       <use x="83.789062" xlink:href="#DejaVuSans-34"/>
      </g>
     </g>
    </g>
    <g id="xtick_22">
     <g id="line2d_89">
      <path clip-path="url(#p1ed1118708)" d="M 818.139706 320.4 
L 818.139706 43.2 
" style="fill:none;stroke:#b0b0b0;stroke-linecap:square;stroke-width:0.8;"/>
     </g>
     <g id="line2d_90">
      <g>
       <use style="stroke:#000000;stroke-width:0.8;" x="818.139706" xlink:href="#me9e4ca512a" y="320.4"/>
      </g>
     </g>
     <g id="text_50">
      <!-- −2 -->
      <g transform="translate(810.768612 334.998438)scale(0.1 -0.1)">
       <use xlink:href="#DejaVuSans-2212"/>
       <use x="83.789062" xlink:href="#DejaVuSans-32"/>
      </g>
     </g>
    </g>
    <g id="xtick_23">
     <g id="line2d_91">
      <path clip-path="url(#p1ed1118708)" d="M 848.911765 320.4 
L 848.911765 43.2 
" style="fill:none;stroke:#b0b0b0;stroke-linecap:square;stroke-width:0.8;"/>
     </g>
     <g id="line2d_92">
      <g>
       <use style="stroke:#000000;stroke-width:0.8;" x="848.911765" xlink:href="#me9e4ca512a" y="320.4"/>
      </g>
     </g>
     <g id="text_51">
      <!-- 0 -->
      <g transform="translate(845.730515 334.998438)scale(0.1 -0.1)">
       <use xlink:href="#DejaVuSans-30"/>
      </g>
     </g>
    </g>
    <g id="xtick_24">
     <g id="line2d_93">
      <path clip-path="url(#p1ed1118708)" d="M 879.683824 320.4 
L 879.683824 43.2 
" style="fill:none;stroke:#b0b0b0;stroke-linecap:square;stroke-width:0.8;"/>
     </g>
     <g id="line2d_94">
      <g>
       <use style="stroke:#000000;stroke-width:0.8;" x="879.683824" xlink:href="#me9e4ca512a" y="320.4"/>
      </g>
     </g>
     <g id="text_52">
      <!-- 2 -->
      <g transform="translate(876.502574 334.998438)scale(0.1 -0.1)">
       <use xlink:href="#DejaVuSans-32"/>
      </g>
     </g>
    </g>
    <g id="xtick_25">
     <g id="line2d_95">
      <path clip-path="url(#p1ed1118708)" d="M 910.455882 320.4 
L 910.455882 43.2 
" style="fill:none;stroke:#b0b0b0;stroke-linecap:square;stroke-width:0.8;"/>
     </g>
     <g id="line2d_96">
      <g>
       <use style="stroke:#000000;stroke-width:0.8;" x="910.455882" xlink:href="#me9e4ca512a" y="320.4"/>
      </g>
     </g>
     <g id="text_53">
      <!-- 4 -->
      <g transform="translate(907.274632 334.998438)scale(0.1 -0.1)">
       <use xlink:href="#DejaVuSans-34"/>
      </g>
     </g>
    </g>
    <g id="xtick_26">
     <g id="line2d_97">
      <path clip-path="url(#p1ed1118708)" d="M 941.227941 320.4 
L 941.227941 43.2 
" style="fill:none;stroke:#b0b0b0;stroke-linecap:square;stroke-width:0.8;"/>
     </g>
     <g id="line2d_98">
      <g>
       <use style="stroke:#000000;stroke-width:0.8;" x="941.227941" xlink:href="#me9e4ca512a" y="320.4"/>
      </g>
     </g>
     <g id="text_54">
      <!-- 6 -->
      <g transform="translate(938.046691 334.998438)scale(0.1 -0.1)">
       <use xlink:href="#DejaVuSans-36"/>
      </g>
     </g>
    </g>
    <g id="xtick_27">
     <g id="line2d_99">
      <path clip-path="url(#p1ed1118708)" d="M 972 320.4 
L 972 43.2 
" style="fill:none;stroke:#b0b0b0;stroke-linecap:square;stroke-width:0.8;"/>
     </g>
     <g id="line2d_100">
      <g>
       <use style="stroke:#000000;stroke-width:0.8;" x="972" xlink:href="#me9e4ca512a" y="320.4"/>
      </g>
     </g>
     <g id="text_55">
      <!-- 8 -->
      <g transform="translate(968.81875 334.998438)scale(0.1 -0.1)">
       <use xlink:href="#DejaVuSans-38"/>
      </g>
     </g>
    </g>
    <g id="text_56">
     <!-- Samples -->
     <g transform="translate(827.55864 348.676562)scale(0.1 -0.1)">
      <use xlink:href="#DejaVuSans-53"/>
      <use x="63.476562" xlink:href="#DejaVuSans-61"/>
      <use x="124.755859" xlink:href="#DejaVuSans-6d"/>
      <use x="222.167969" xlink:href="#DejaVuSans-70"/>
      <use x="285.644531" xlink:href="#DejaVuSans-6c"/>
      <use x="313.427734" xlink:href="#DejaVuSans-65"/>
      <use x="374.951172" xlink:href="#DejaVuSans-73"/>
     </g>
    </g>
    <g id="text_57">
     <!-- 1e−9 -->
     <g transform="translate(944.742188 347.676562)scale(0.1 -0.1)">
      <use xlink:href="#DejaVuSans-31"/>
      <use x="63.623047" xlink:href="#DejaVuSans-65"/>
      <use x="125.146484" xlink:href="#DejaVuSans-2212"/>
      <use x="208.935547" xlink:href="#DejaVuSans-39"/>
     </g>
    </g>
   </g>
   <g id="matplotlib.axis_6">
    <g id="ytick_15">
     <g id="line2d_101">
      <path clip-path="url(#p1ed1118708)" d="M 725.823529 297.72 
L 972 297.72 
" style="fill:none;stroke:#b0b0b0;stroke-linecap:square;stroke-width:0.8;"/>
     </g>
     <g id="line2d_102">
      <g>
       <use style="stroke:#000000;stroke-width:0.8;" x="725.823529" xlink:href="#m05232a7895" y="297.72"/>
      </g>
     </g>
     <g id="text_58">
      <!-- −0.2 -->
      <g transform="translate(694.540717 301.519219)scale(0.1 -0.1)">
       <use xlink:href="#DejaVuSans-2212"/>
       <use x="83.789062" xlink:href="#DejaVuSans-30"/>
       <use x="147.412109" xlink:href="#DejaVuSans-2e"/>
       <use x="179.199219" xlink:href="#DejaVuSans-32"/>
      </g>
     </g>
    </g>
    <g id="ytick_16">
     <g id="line2d_103">
      <path clip-path="url(#p1ed1118708)" d="M 725.823529 257.4 
L 972 257.4 
" style="fill:none;stroke:#b0b0b0;stroke-linecap:square;stroke-width:0.8;"/>
     </g>
     <g id="line2d_104">
      <g>
       <use style="stroke:#000000;stroke-width:0.8;" x="725.823529" xlink:href="#m05232a7895" y="257.4"/>
      </g>
     </g>
     <g id="text_59">
      <!-- 0.0 -->
      <g transform="translate(702.920404 261.199219)scale(0.1 -0.1)">
       <use xlink:href="#DejaVuSans-30"/>
       <use x="63.623047" xlink:href="#DejaVuSans-2e"/>
       <use x="95.410156" xlink:href="#DejaVuSans-30"/>
      </g>
     </g>
    </g>
    <g id="ytick_17">
     <g id="line2d_105">
      <path clip-path="url(#p1ed1118708)" d="M 725.823529 217.08 
L 972 217.08 
" style="fill:none;stroke:#b0b0b0;stroke-linecap:square;stroke-width:0.8;"/>
     </g>
     <g id="line2d_106">
      <g>
       <use style="stroke:#000000;stroke-width:0.8;" x="725.823529" xlink:href="#m05232a7895" y="217.08"/>
      </g>
     </g>
     <g id="text_60">
      <!-- 0.2 -->
      <g transform="translate(702.920404 220.879219)scale(0.1 -0.1)">
       <use xlink:href="#DejaVuSans-30"/>
       <use x="63.623047" xlink:href="#DejaVuSans-2e"/>
       <use x="95.410156" xlink:href="#DejaVuSans-32"/>
      </g>
     </g>
    </g>
    <g id="ytick_18">
     <g id="line2d_107">
      <path clip-path="url(#p1ed1118708)" d="M 725.823529 176.76 
L 972 176.76 
" style="fill:none;stroke:#b0b0b0;stroke-linecap:square;stroke-width:0.8;"/>
     </g>
     <g id="line2d_108">
      <g>
       <use style="stroke:#000000;stroke-width:0.8;" x="725.823529" xlink:href="#m05232a7895" y="176.76"/>
      </g>
     </g>
     <g id="text_61">
      <!-- 0.4 -->
      <g transform="translate(702.920404 180.559219)scale(0.1 -0.1)">
       <use xlink:href="#DejaVuSans-30"/>
       <use x="63.623047" xlink:href="#DejaVuSans-2e"/>
       <use x="95.410156" xlink:href="#DejaVuSans-34"/>
      </g>
     </g>
    </g>
    <g id="ytick_19">
     <g id="line2d_109">
      <path clip-path="url(#p1ed1118708)" d="M 725.823529 136.44 
L 972 136.44 
" style="fill:none;stroke:#b0b0b0;stroke-linecap:square;stroke-width:0.8;"/>
     </g>
     <g id="line2d_110">
      <g>
       <use style="stroke:#000000;stroke-width:0.8;" x="725.823529" xlink:href="#m05232a7895" y="136.44"/>
      </g>
     </g>
     <g id="text_62">
      <!-- 0.6 -->
      <g transform="translate(702.920404 140.239219)scale(0.1 -0.1)">
       <use xlink:href="#DejaVuSans-30"/>
       <use x="63.623047" xlink:href="#DejaVuSans-2e"/>
       <use x="95.410156" xlink:href="#DejaVuSans-36"/>
      </g>
     </g>
    </g>
    <g id="ytick_20">
     <g id="line2d_111">
      <path clip-path="url(#p1ed1118708)" d="M 725.823529 96.12 
L 972 96.12 
" style="fill:none;stroke:#b0b0b0;stroke-linecap:square;stroke-width:0.8;"/>
     </g>
     <g id="line2d_112">
      <g>
       <use style="stroke:#000000;stroke-width:0.8;" x="725.823529" xlink:href="#m05232a7895" y="96.12"/>
      </g>
     </g>
     <g id="text_63">
      <!-- 0.8 -->
      <g transform="translate(702.920404 99.919219)scale(0.1 -0.1)">
       <use xlink:href="#DejaVuSans-30"/>
       <use x="63.623047" xlink:href="#DejaVuSans-2e"/>
       <use x="95.410156" xlink:href="#DejaVuSans-38"/>
      </g>
     </g>
    </g>
    <g id="ytick_21">
     <g id="line2d_113">
      <path clip-path="url(#p1ed1118708)" d="M 725.823529 55.8 
L 972 55.8 
" style="fill:none;stroke:#b0b0b0;stroke-linecap:square;stroke-width:0.8;"/>
     </g>
     <g id="line2d_114">
      <g>
       <use style="stroke:#000000;stroke-width:0.8;" x="725.823529" xlink:href="#m05232a7895" y="55.8"/>
      </g>
     </g>
     <g id="text_64">
      <!-- 1.0 -->
      <g transform="translate(702.920404 59.599219)scale(0.1 -0.1)">
       <use xlink:href="#DejaVuSans-31"/>
       <use x="63.623047" xlink:href="#DejaVuSans-2e"/>
       <use x="95.410156" xlink:href="#DejaVuSans-30"/>
      </g>
     </g>
    </g>
    <g id="text_65">
     <!-- Amplitude -->
     <g transform="translate(688.461029 207.422656)rotate(-90)scale(0.1 -0.1)">
      <use xlink:href="#DejaVuSans-41"/>
      <use x="68.408203" xlink:href="#DejaVuSans-6d"/>
      <use x="165.820312" xlink:href="#DejaVuSans-70"/>
      <use x="229.296875" xlink:href="#DejaVuSans-6c"/>
      <use x="257.080078" xlink:href="#DejaVuSans-69"/>
      <use x="284.863281" xlink:href="#DejaVuSans-74"/>
      <use x="324.072266" xlink:href="#DejaVuSans-75"/>
      <use x="387.451172" xlink:href="#DejaVuSans-64"/>
      <use x="450.927734" xlink:href="#DejaVuSans-65"/>
     </g>
    </g>
   </g>
   <g id="line2d_115">
    <path clip-path="url(#p1ed1118708)" d="M 725.823529 257.4 
L 746.97932 257.380382 
L 756.595588 257.4 
L 762.365349 257.367877 
L 770.058364 257.442541 
L 777.751379 257.34199 
L 785.444393 257.482015 
L 791.214154 257.245137 
L 795.060662 257.4 
L 798.907169 257.639333 
L 800.830423 257.590743 
L 806.600184 257.001111 
L 808.523437 257.074615 
L 810.446691 257.4 
L 812.369945 257.84303 
L 814.293199 258.140794 
L 816.216452 258.02574 
L 818.139706 257.4 
L 820.06296 256.473665 
L 821.986213 255.770253 
L 823.909467 255.93994 
L 825.832721 257.4 
L 829.679228 262.28924 
L 831.602482 262.364206 
L 833.525735 257.4 
L 835.448989 244.82831 
L 837.372243 223.175321 
L 839.295496 192.865326 
L 845.065257 86.276605 
L 846.988511 63.795979 
L 848.911765 55.8 
L 850.835018 63.795979 
L 852.758272 86.276605 
L 854.681526 119.111414 
L 858.528033 192.865326 
L 860.451287 223.175321 
L 862.37454 244.82831 
L 864.297794 257.4 
L 866.221048 262.364206 
L 868.144301 262.28924 
L 871.990809 257.4 
L 873.914062 255.93994 
L 875.837316 255.770253 
L 877.76057 256.473665 
L 879.683824 257.4 
L 881.607077 258.02574 
L 883.530331 258.140794 
L 885.453585 257.84303 
L 887.376838 257.4 
L 889.300092 257.074615 
L 891.223346 257.001111 
L 895.069853 257.4 
L 896.993107 257.590743 
L 898.91636 257.639333 
L 908.532629 257.300868 
L 914.30239 257.505959 
L 923.918658 257.350523 
L 929.688419 257.455941 
L 943.151195 257.42485 
L 962.383732 257.414205 
L 970.076746 257.388339 
L 970.076746 257.388339 
" style="fill:none;stroke:#ff0000;stroke-linecap:square;"/>
   </g>
   <g id="line2d_116">
    <path clip-path="url(#p1ed1118708)" d="M 725.823529 257.4 
L 733.516544 257.4 
L 735.439798 307.8 
L 741.209559 307.8 
L 743.132812 257.4 
L 748.902574 257.4 
L 750.825827 307.8 
L 756.595588 307.8 
L 758.518842 257.4 
L 764.288603 257.4 
L 766.211857 307.8 
L 771.981618 307.8 
L 773.904871 257.4 
L 779.674632 257.4 
L 781.597886 307.8 
L 787.367647 307.8 
L 789.290901 257.4 
L 795.060662 257.4 
L 796.983915 307.8 
L 802.753676 307.8 
L 804.67693 257.4 
L 810.446691 257.4 
L 812.369945 307.8 
L 818.139706 307.8 
L 820.06296 257.4 
L 825.832721 257.4 
L 827.755974 307.8 
L 833.525735 307.8 
L 835.448989 257.4 
L 837.372243 257.4 
L 839.295496 207 
L 841.21875 207 
L 845.065257 106.2 
L 852.758272 106.2 
L 854.681526 156.6 
L 856.604779 156.6 
L 860.451287 257.4 
L 864.297794 257.4 
L 866.221048 307.8 
L 871.990809 307.8 
L 873.914062 257.4 
L 879.683824 257.4 
L 881.607077 307.8 
L 887.376838 307.8 
L 889.300092 257.4 
L 895.069853 257.4 
L 896.993107 307.8 
L 902.762868 307.8 
L 904.686121 257.4 
L 910.455882 257.4 
L 912.379136 307.8 
L 918.148897 307.8 
L 920.072151 257.4 
L 925.841912 257.4 
L 927.765165 307.8 
L 933.534926 307.8 
L 935.45818 257.4 
L 941.227941 257.4 
L 943.151195 307.8 
L 948.920956 307.8 
L 950.84421 257.4 
L 956.613971 257.4 
L 958.537224 307.8 
L 964.306985 307.8 
L 966.230239 257.4 
L 970.076746 257.4 
L 970.076746 257.4 
" style="fill:none;stroke:#008000;stroke-dasharray:6.4,1.6,1,1.6;stroke-dashoffset:0;"/>
   </g>
   <g id="line2d_117">
    <path clip-path="url(#p1ed1118708)" d="M 725.823529 257.4 
L 835.448989 257.4 
L 837.372243 207 
L 839.295496 207 
L 843.142004 106.2 
L 854.681526 106.2 
L 858.528033 207 
L 860.451287 207 
L 862.37454 257.4 
L 970.076746 257.4 
L 970.076746 257.4 
" style="fill:none;stroke:#000000;stroke-dasharray:3.7,1.6;stroke-dashoffset:0;"/>
   </g>
   <g id="patch_15">
    <path d="M 725.823529 320.4 
L 725.823529 43.2 
" style="fill:none;stroke:#000000;stroke-linecap:square;stroke-linejoin:miter;stroke-width:0.8;"/>
   </g>
   <g id="patch_16">
    <path d="M 972 320.4 
L 972 43.2 
" style="fill:none;stroke:#000000;stroke-linecap:square;stroke-linejoin:miter;stroke-width:0.8;"/>
   </g>
   <g id="patch_17">
    <path d="M 725.823529 320.4 
L 972 320.4 
" style="fill:none;stroke:#000000;stroke-linecap:square;stroke-linejoin:miter;stroke-width:0.8;"/>
   </g>
   <g id="patch_18">
    <path d="M 725.823529 43.2 
L 972 43.2 
" style="fill:none;stroke:#000000;stroke-linecap:square;stroke-linejoin:miter;stroke-width:0.8;"/>
   </g>
   <g id="text_66">
    <!-- Impulse responses -->
    <g transform="translate(792.919577 37.2)scale(0.12 -0.12)">
     <use xlink:href="#DejaVuSans-49"/>
     <use x="29.492188" xlink:href="#DejaVuSans-6d"/>
     <use x="126.904297" xlink:href="#DejaVuSans-70"/>
     <use x="190.380859" xlink:href="#DejaVuSans-75"/>
     <use x="253.759766" xlink:href="#DejaVuSans-6c"/>
     <use x="281.542969" xlink:href="#DejaVuSans-73"/>
     <use x="333.642578" xlink:href="#DejaVuSans-65"/>
     <use x="395.166016" xlink:href="#DejaVuSans-20"/>
     <use x="426.953125" xlink:href="#DejaVuSans-72"/>
     <use x="465.816406" xlink:href="#DejaVuSans-65"/>
     <use x="527.339844" xlink:href="#DejaVuSans-73"/>
     <use x="579.439453" xlink:href="#DejaVuSans-70"/>
     <use x="642.916016" xlink:href="#DejaVuSans-6f"/>
     <use x="704.097656" xlink:href="#DejaVuSans-6e"/>
     <use x="767.476562" xlink:href="#DejaVuSans-73"/>
     <use x="819.576172" xlink:href="#DejaVuSans-65"/>
     <use x="881.099609" xlink:href="#DejaVuSans-73"/>
    </g>
   </g>
   <g id="legend_3">
    <g id="patch_19">
     <path d="M 864.777 79.5656 
L 967.142 79.5656 
Q 968.53 79.5656 968.53 78.1776 
L 968.53 48.058 
Q 968.53 46.67 967.142 46.67 
L 864.777 46.67 
Q 863.389 46.67 863.389 48.058 
L 863.389 78.1776 
Q 863.389 79.5656 864.777 79.5656 
z
" style="fill:#ffffff;opacity:0.8;stroke:#cccccc;stroke-linejoin:miter;"/>
    </g>
    <g id="line2d_118">
     <path d="M 866.165 52.3608 
L 880.045 52.3608 
" style="fill:none;stroke:#ff0000;stroke-linecap:square;"/>
    </g>
    <g id="line2d_119"/>
    <g id="text_67">
     <!-- $\beta=1.0,\ Float$ -->
     <g transform="translate(885.597 54.7898)scale(0.0694 -0.0694)">
      <use transform="translate(0 0.390625)" xlink:href="#DejaVuSans-Oblique-3b2"/>
      <use transform="translate(83.300781 0.390625)" xlink:href="#DejaVuSans-3d"/>
      <use transform="translate(186.572266 0.390625)" xlink:href="#DejaVuSans-31"/>
      <use transform="translate(250.195312 0.390625)" xlink:href="#DejaVuSans-2e"/>
      <use transform="translate(281.982422 0.390625)" xlink:href="#DejaVuSans-30"/>
      <use transform="translate(345.605469 0.390625)" xlink:href="#DejaVuSans-2c"/>
      <use transform="translate(429.345378 0.390625)" xlink:href="#DejaVuSans-Oblique-46"/>
      <use transform="translate(486.86491 0.390625)" xlink:href="#DejaVuSans-Oblique-6c"/>
      <use transform="translate(514.648113 0.390625)" xlink:href="#DejaVuSans-Oblique-6f"/>
      <use transform="translate(575.829753 0.390625)" xlink:href="#DejaVuSans-Oblique-61"/>
      <use transform="translate(637.10905 0.390625)" xlink:href="#DejaVuSans-Oblique-74"/>
     </g>
    </g>
    <g id="line2d_120">
     <path d="M 866.165 62.632 
L 880.045 62.632 
" style="fill:none;stroke:#008000;stroke-dasharray:6.4,1.6,1,1.6;stroke-dashoffset:0;"/>
    </g>
    <g id="line2d_121"/>
    <g id="text_68">
     <!-- $\beta=1.0,\ S(3,2),\ Trunc$ -->
     <g transform="translate(885.597 65.061)scale(0.0694 -0.0694)">
      <use transform="translate(0 0.390625)" xlink:href="#DejaVuSans-Oblique-3b2"/>
      <use transform="translate(83.300781 0.390625)" xlink:href="#DejaVuSans-3d"/>
      <use transform="translate(186.572266 0.390625)" xlink:href="#DejaVuSans-31"/>
      <use transform="translate(250.195312 0.390625)" xlink:href="#DejaVuSans-2e"/>
      <use transform="translate(281.982422 0.390625)" xlink:href="#DejaVuSans-30"/>
      <use transform="translate(345.605469 0.390625)" xlink:href="#DejaVuSans-2c"/>
      <use transform="translate(429.345378 0.390625)" xlink:href="#DejaVuSans-Oblique-53"/>
      <use transform="translate(492.821941 0.390625)" xlink:href="#DejaVuSans-28"/>
      <use transform="translate(531.835613 0.390625)" xlink:href="#DejaVuSans-33"/>
      <use transform="translate(595.45866 0.390625)" xlink:href="#DejaVuSans-2c"/>
      <use transform="translate(646.728191 0.390625)" xlink:href="#DejaVuSans-32"/>
      <use transform="translate(710.351238 0.390625)" xlink:href="#DejaVuSans-29"/>
      <use transform="translate(749.36491 0.390625)" xlink:href="#DejaVuSans-2c"/>
      <use transform="translate(833.104819 0.390625)" xlink:href="#DejaVuSans-Oblique-54"/>
      <use transform="translate(894.188804 0.390625)" xlink:href="#DejaVuSans-Oblique-72"/>
      <use transform="translate(935.302085 0.390625)" xlink:href="#DejaVuSans-Oblique-75"/>
      <use transform="translate(998.680991 0.390625)" xlink:href="#DejaVuSans-Oblique-6e"/>
      <use transform="translate(1062.059897 0.390625)" xlink:href="#DejaVuSans-Oblique-63"/>
     </g>
    </g>
    <g id="line2d_122">
     <path d="M 866.165 72.9032 
L 880.045 72.9032 
" style="fill:none;stroke:#000000;stroke-dasharray:3.7,1.6;stroke-dashoffset:0;"/>
    </g>
    <g id="line2d_123"/>
    <g id="text_69">
     <!-- $\beta=1.0,\ S(3,2),\ Round$ -->
     <g transform="translate(885.597 75.3322)scale(0.0694 -0.0694)">
      <use transform="translate(0 0.390625)" xlink:href="#DejaVuSans-Oblique-3b2"/>
      <use transform="translate(83.300781 0.390625)" xlink:href="#DejaVuSans-3d"/>
      <use transform="translate(186.572266 0.390625)" xlink:href="#DejaVuSans-31"/>
      <use transform="translate(250.195312 0.390625)" xlink:href="#DejaVuSans-2e"/>
      <use transform="translate(281.982422 0.390625)" xlink:href="#DejaVuSans-30"/>
      <use transform="translate(345.605469 0.390625)" xlink:href="#DejaVuSans-2c"/>
      <use transform="translate(429.345378 0.390625)" xlink:href="#DejaVuSans-Oblique-53"/>
      <use transform="translate(492.821941 0.390625)" xlink:href="#DejaVuSans-28"/>
      <use transform="translate(531.835613 0.390625)" xlink:href="#DejaVuSans-33"/>
      <use transform="translate(595.45866 0.390625)" xlink:href="#DejaVuSans-2c"/>
      <use transform="translate(646.728191 0.390625)" xlink:href="#DejaVuSans-32"/>
      <use transform="translate(710.351238 0.390625)" xlink:href="#DejaVuSans-29"/>
      <use transform="translate(749.36491 0.390625)" xlink:href="#DejaVuSans-2c"/>
      <use transform="translate(833.104819 0.390625)" xlink:href="#DejaVuSans-Oblique-52"/>
      <use transform="translate(902.587241 0.390625)" xlink:href="#DejaVuSans-Oblique-6f"/>
      <use transform="translate(963.768882 0.390625)" xlink:href="#DejaVuSans-Oblique-75"/>
      <use transform="translate(1027.147788 0.390625)" xlink:href="#DejaVuSans-Oblique-6e"/>
      <use transform="translate(1090.526694 0.390625)" xlink:href="#DejaVuSans-Oblique-64"/>
     </g>
    </g>
   </g>
  </g>
 </g>
 <defs>
  <clipPath id="pfeba3dd82b">
   <rect height="277.2" width="246.176471" x="135" y="43.2"/>
  </clipPath>
  <clipPath id="pfcd1106afa">
   <rect height="277.2" width="246.176471" x="430.411765" y="43.2"/>
  </clipPath>
  <clipPath id="p1ed1118708">
   <rect height="277.2" width="246.176471" x="725.823529" y="43.2"/>
  </clipPath>
 </defs>
</svg>
