<?xml version="1.0" encoding="utf-8" standalone="no"?>
<!DOCTYPE svg PUBLIC "-//W3C//DTD SVG 1.1//EN"
  "http://www.w3.org/Graphics/SVG/1.1/DTD/svg11.dtd">
<svg height="396pt" version="1.1" viewBox="0 0 396 396" width="396pt" xmlns="http://www.w3.org/2000/svg" xmlns:xlink="http://www.w3.org/1999/xlink">
 <metadata>
  <rdf:RDF xmlns:cc="http://creativecommons.org/ns#" xmlns:dc="http://purl.org/dc/elements/1.1/" xmlns:rdf="http://www.w3.org/1999/02/22-rdf-syntax-ns#">
   <cc:Work>
    <dc:type rdf:resource="http://purl.org/dc/dcmitype/StillImage"/>
    <dc:date>2021-07-01T23:00:05.892539</dc:date>
    <dc:format>image/svg+xml</dc:format>
    <dc:creator>
     <cc:Agent>
      <dc:title>Matplotlib v3.4.1, https://matplotlib.org/</dc:title>
     </cc:Agent>
    </dc:creator>
   </cc:Work>
  </rdf:RDF>
 </metadata>
 <defs>
  <style type="text/css">*{stroke-linecap:butt;stroke-linejoin:round;}</style>
 </defs>
 <g id="figure_1">
  <g id="patch_1">
   <path d="M 0 396 
L 396 396 
L 396 0 
L 0 0 
z
" style="fill:#ffffff;"/>
  </g>
  <g id="axes_1">
   <g id="patch_2">
    <path d="M 49.5 352.44 
L 356.4 352.44 
L 356.4 47.52 
L 49.5 47.52 
z
" style="fill:#ffffff;"/>
   </g>
   <g id="matplotlib.axis_1">
    <g id="xtick_1">
     <g id="line2d_1">
      <path clip-path="url(#p3876b68b0a)" d="M 49.5 352.44 
L 49.5 47.52 
" style="fill:none;stroke:#b0b0b0;stroke-linecap:square;stroke-width:0.8;"/>
     </g>
     <g id="line2d_2">
      <defs>
       <path d="M 0 0 
L 0 3.5 
" id="m1b795f0fd2" style="stroke:#000000;stroke-width:0.8;"/>
      </defs>
      <g>
       <use style="stroke:#000000;stroke-width:0.8;" x="49.5" xlink:href="#m1b795f0fd2" y="352.44"/>
      </g>
     </g>
     <g id="text_1">
      <!-- 200 -->
      <g transform="translate(39.95625 367.038437)scale(0.1 -0.1)">
       <defs>
        <path d="M 1228 531 
L 3431 531 
L 3431 0 
L 469 0 
L 469 531 
Q 828 903 1448 1529 
Q 2069 2156 2228 2338 
Q 2531 2678 2651 2914 
Q 2772 3150 2772 3378 
Q 2772 3750 2511 3984 
Q 2250 4219 1831 4219 
Q 1534 4219 1204 4116 
Q 875 4013 500 3803 
L 500 4441 
Q 881 4594 1212 4672 
Q 1544 4750 1819 4750 
Q 2544 4750 2975 4387 
Q 3406 4025 3406 3419 
Q 3406 3131 3298 2873 
Q 3191 2616 2906 2266 
Q 2828 2175 2409 1742 
Q 1991 1309 1228 531 
z
" id="DejaVuSans-32" transform="scale(0.015625)"/>
        <path d="M 2034 4250 
Q 1547 4250 1301 3770 
Q 1056 3291 1056 2328 
Q 1056 1369 1301 889 
Q 1547 409 2034 409 
Q 2525 409 2770 889 
Q 3016 1369 3016 2328 
Q 3016 3291 2770 3770 
Q 2525 4250 2034 4250 
z
M 2034 4750 
Q 2819 4750 3233 4129 
Q 3647 3509 3647 2328 
Q 3647 1150 3233 529 
Q 2819 -91 2034 -91 
Q 1250 -91 836 529 
Q 422 1150 422 2328 
Q 422 3509 836 4129 
Q 1250 4750 2034 4750 
z
" id="DejaVuSans-30" transform="scale(0.015625)"/>
       </defs>
       <use xlink:href="#DejaVuSans-32"/>
       <use x="63.623047" xlink:href="#DejaVuSans-30"/>
       <use x="127.246094" xlink:href="#DejaVuSans-30"/>
      </g>
     </g>
    </g>
    <g id="xtick_2">
     <g id="line2d_3">
      <path clip-path="url(#p3876b68b0a)" d="M 100.65 352.44 
L 100.65 47.52 
" style="fill:none;stroke:#b0b0b0;stroke-linecap:square;stroke-width:0.8;"/>
     </g>
     <g id="line2d_4">
      <g>
       <use style="stroke:#000000;stroke-width:0.8;" x="100.65" xlink:href="#m1b795f0fd2" y="352.44"/>
      </g>
     </g>
     <g id="text_2">
      <!-- 250 -->
      <g transform="translate(91.10625 367.038437)scale(0.1 -0.1)">
       <defs>
        <path d="M 691 4666 
L 3169 4666 
L 3169 4134 
L 1269 4134 
L 1269 2991 
Q 1406 3038 1543 3061 
Q 1681 3084 1819 3084 
Q 2600 3084 3056 2656 
Q 3513 2228 3513 1497 
Q 3513 744 3044 326 
Q 2575 -91 1722 -91 
Q 1428 -91 1123 -41 
Q 819 9 494 109 
L 494 744 
Q 775 591 1075 516 
Q 1375 441 1709 441 
Q 2250 441 2565 725 
Q 2881 1009 2881 1497 
Q 2881 1984 2565 2268 
Q 2250 2553 1709 2553 
Q 1456 2553 1204 2497 
Q 953 2441 691 2322 
L 691 4666 
z
" id="DejaVuSans-35" transform="scale(0.015625)"/>
       </defs>
       <use xlink:href="#DejaVuSans-32"/>
       <use x="63.623047" xlink:href="#DejaVuSans-35"/>
       <use x="127.246094" xlink:href="#DejaVuSans-30"/>
      </g>
     </g>
    </g>
    <g id="xtick_3">
     <g id="line2d_5">
      <path clip-path="url(#p3876b68b0a)" d="M 151.8 352.44 
L 151.8 47.52 
" style="fill:none;stroke:#b0b0b0;stroke-linecap:square;stroke-width:0.8;"/>
     </g>
     <g id="line2d_6">
      <g>
       <use style="stroke:#000000;stroke-width:0.8;" x="151.8" xlink:href="#m1b795f0fd2" y="352.44"/>
      </g>
     </g>
     <g id="text_3">
      <!-- 300 -->
      <g transform="translate(142.25625 367.038437)scale(0.1 -0.1)">
       <defs>
        <path d="M 2597 2516 
Q 3050 2419 3304 2112 
Q 3559 1806 3559 1356 
Q 3559 666 3084 287 
Q 2609 -91 1734 -91 
Q 1441 -91 1130 -33 
Q 819 25 488 141 
L 488 750 
Q 750 597 1062 519 
Q 1375 441 1716 441 
Q 2309 441 2620 675 
Q 2931 909 2931 1356 
Q 2931 1769 2642 2001 
Q 2353 2234 1838 2234 
L 1294 2234 
L 1294 2753 
L 1863 2753 
Q 2328 2753 2575 2939 
Q 2822 3125 2822 3475 
Q 2822 3834 2567 4026 
Q 2313 4219 1838 4219 
Q 1578 4219 1281 4162 
Q 984 4106 628 3988 
L 628 4550 
Q 988 4650 1302 4700 
Q 1616 4750 1894 4750 
Q 2613 4750 3031 4423 
Q 3450 4097 3450 3541 
Q 3450 3153 3228 2886 
Q 3006 2619 2597 2516 
z
" id="DejaVuSans-33" transform="scale(0.015625)"/>
       </defs>
       <use xlink:href="#DejaVuSans-33"/>
       <use x="63.623047" xlink:href="#DejaVuSans-30"/>
       <use x="127.246094" xlink:href="#DejaVuSans-30"/>
      </g>
     </g>
    </g>
    <g id="xtick_4">
     <g id="line2d_7">
      <path clip-path="url(#p3876b68b0a)" d="M 202.95 352.44 
L 202.95 47.52 
" style="fill:none;stroke:#b0b0b0;stroke-linecap:square;stroke-width:0.8;"/>
     </g>
     <g id="line2d_8">
      <g>
       <use style="stroke:#000000;stroke-width:0.8;" x="202.95" xlink:href="#m1b795f0fd2" y="352.44"/>
      </g>
     </g>
     <g id="text_4">
      <!-- 350 -->
      <g transform="translate(193.40625 367.038437)scale(0.1 -0.1)">
       <use xlink:href="#DejaVuSans-33"/>
       <use x="63.623047" xlink:href="#DejaVuSans-35"/>
       <use x="127.246094" xlink:href="#DejaVuSans-30"/>
      </g>
     </g>
    </g>
    <g id="xtick_5">
     <g id="line2d_9">
      <path clip-path="url(#p3876b68b0a)" d="M 254.1 352.44 
L 254.1 47.52 
" style="fill:none;stroke:#b0b0b0;stroke-linecap:square;stroke-width:0.8;"/>
     </g>
     <g id="line2d_10">
      <g>
       <use style="stroke:#000000;stroke-width:0.8;" x="254.1" xlink:href="#m1b795f0fd2" y="352.44"/>
      </g>
     </g>
     <g id="text_5">
      <!-- 400 -->
      <g transform="translate(244.55625 367.038437)scale(0.1 -0.1)">
       <defs>
        <path d="M 2419 4116 
L 825 1625 
L 2419 1625 
L 2419 4116 
z
M 2253 4666 
L 3047 4666 
L 3047 1625 
L 3713 1625 
L 3713 1100 
L 3047 1100 
L 3047 0 
L 2419 0 
L 2419 1100 
L 313 1100 
L 313 1709 
L 2253 4666 
z
" id="DejaVuSans-34" transform="scale(0.015625)"/>
       </defs>
       <use xlink:href="#DejaVuSans-34"/>
       <use x="63.623047" xlink:href="#DejaVuSans-30"/>
       <use x="127.246094" xlink:href="#DejaVuSans-30"/>
      </g>
     </g>
    </g>
    <g id="xtick_6">
     <g id="line2d_11">
      <path clip-path="url(#p3876b68b0a)" d="M 305.25 352.44 
L 305.25 47.52 
" style="fill:none;stroke:#b0b0b0;stroke-linecap:square;stroke-width:0.8;"/>
     </g>
     <g id="line2d_12">
      <g>
       <use style="stroke:#000000;stroke-width:0.8;" x="305.25" xlink:href="#m1b795f0fd2" y="352.44"/>
      </g>
     </g>
     <g id="text_6">
      <!-- 450 -->
      <g transform="translate(295.70625 367.038437)scale(0.1 -0.1)">
       <use xlink:href="#DejaVuSans-34"/>
       <use x="63.623047" xlink:href="#DejaVuSans-35"/>
       <use x="127.246094" xlink:href="#DejaVuSans-30"/>
      </g>
     </g>
    </g>
    <g id="xtick_7">
     <g id="line2d_13">
      <path clip-path="url(#p3876b68b0a)" d="M 356.4 352.44 
L 356.4 47.52 
" style="fill:none;stroke:#b0b0b0;stroke-linecap:square;stroke-width:0.8;"/>
     </g>
     <g id="line2d_14">
      <g>
       <use style="stroke:#000000;stroke-width:0.8;" x="356.4" xlink:href="#m1b795f0fd2" y="352.44"/>
      </g>
     </g>
     <g id="text_7">
      <!-- 500 -->
      <g transform="translate(346.85625 367.038437)scale(0.1 -0.1)">
       <use xlink:href="#DejaVuSans-35"/>
       <use x="63.623047" xlink:href="#DejaVuSans-30"/>
       <use x="127.246094" xlink:href="#DejaVuSans-30"/>
      </g>
     </g>
    </g>
    <g id="text_8">
     <!-- Samples -->
     <g transform="translate(181.596875 380.716563)scale(0.1 -0.1)">
      <defs>
       <path d="M 3425 4513 
L 3425 3897 
Q 3066 4069 2747 4153 
Q 2428 4238 2131 4238 
Q 1616 4238 1336 4038 
Q 1056 3838 1056 3469 
Q 1056 3159 1242 3001 
Q 1428 2844 1947 2747 
L 2328 2669 
Q 3034 2534 3370 2195 
Q 3706 1856 3706 1288 
Q 3706 609 3251 259 
Q 2797 -91 1919 -91 
Q 1588 -91 1214 -16 
Q 841 59 441 206 
L 441 856 
Q 825 641 1194 531 
Q 1563 422 1919 422 
Q 2459 422 2753 634 
Q 3047 847 3047 1241 
Q 3047 1584 2836 1778 
Q 2625 1972 2144 2069 
L 1759 2144 
Q 1053 2284 737 2584 
Q 422 2884 422 3419 
Q 422 4038 858 4394 
Q 1294 4750 2059 4750 
Q 2388 4750 2728 4690 
Q 3069 4631 3425 4513 
z
" id="DejaVuSans-53" transform="scale(0.015625)"/>
       <path d="M 2194 1759 
Q 1497 1759 1228 1600 
Q 959 1441 959 1056 
Q 959 750 1161 570 
Q 1363 391 1709 391 
Q 2188 391 2477 730 
Q 2766 1069 2766 1631 
L 2766 1759 
L 2194 1759 
z
M 3341 1997 
L 3341 0 
L 2766 0 
L 2766 531 
Q 2569 213 2275 61 
Q 1981 -91 1556 -91 
Q 1019 -91 701 211 
Q 384 513 384 1019 
Q 384 1609 779 1909 
Q 1175 2209 1959 2209 
L 2766 2209 
L 2766 2266 
Q 2766 2663 2505 2880 
Q 2244 3097 1772 3097 
Q 1472 3097 1187 3025 
Q 903 2953 641 2809 
L 641 3341 
Q 956 3463 1253 3523 
Q 1550 3584 1831 3584 
Q 2591 3584 2966 3190 
Q 3341 2797 3341 1997 
z
" id="DejaVuSans-61" transform="scale(0.015625)"/>
       <path d="M 3328 2828 
Q 3544 3216 3844 3400 
Q 4144 3584 4550 3584 
Q 5097 3584 5394 3201 
Q 5691 2819 5691 2113 
L 5691 0 
L 5113 0 
L 5113 2094 
Q 5113 2597 4934 2840 
Q 4756 3084 4391 3084 
Q 3944 3084 3684 2787 
Q 3425 2491 3425 1978 
L 3425 0 
L 2847 0 
L 2847 2094 
Q 2847 2600 2669 2842 
Q 2491 3084 2119 3084 
Q 1678 3084 1418 2786 
Q 1159 2488 1159 1978 
L 1159 0 
L 581 0 
L 581 3500 
L 1159 3500 
L 1159 2956 
Q 1356 3278 1631 3431 
Q 1906 3584 2284 3584 
Q 2666 3584 2933 3390 
Q 3200 3197 3328 2828 
z
" id="DejaVuSans-6d" transform="scale(0.015625)"/>
       <path d="M 1159 525 
L 1159 -1331 
L 581 -1331 
L 581 3500 
L 1159 3500 
L 1159 2969 
Q 1341 3281 1617 3432 
Q 1894 3584 2278 3584 
Q 2916 3584 3314 3078 
Q 3713 2572 3713 1747 
Q 3713 922 3314 415 
Q 2916 -91 2278 -91 
Q 1894 -91 1617 61 
Q 1341 213 1159 525 
z
M 3116 1747 
Q 3116 2381 2855 2742 
Q 2594 3103 2138 3103 
Q 1681 3103 1420 2742 
Q 1159 2381 1159 1747 
Q 1159 1113 1420 752 
Q 1681 391 2138 391 
Q 2594 391 2855 752 
Q 3116 1113 3116 1747 
z
" id="DejaVuSans-70" transform="scale(0.015625)"/>
       <path d="M 603 4863 
L 1178 4863 
L 1178 0 
L 603 0 
L 603 4863 
z
" id="DejaVuSans-6c" transform="scale(0.015625)"/>
       <path d="M 3597 1894 
L 3597 1613 
L 953 1613 
Q 991 1019 1311 708 
Q 1631 397 2203 397 
Q 2534 397 2845 478 
Q 3156 559 3463 722 
L 3463 178 
Q 3153 47 2828 -22 
Q 2503 -91 2169 -91 
Q 1331 -91 842 396 
Q 353 884 353 1716 
Q 353 2575 817 3079 
Q 1281 3584 2069 3584 
Q 2775 3584 3186 3129 
Q 3597 2675 3597 1894 
z
M 3022 2063 
Q 3016 2534 2758 2815 
Q 2500 3097 2075 3097 
Q 1594 3097 1305 2825 
Q 1016 2553 972 2059 
L 3022 2063 
z
" id="DejaVuSans-65" transform="scale(0.015625)"/>
       <path d="M 2834 3397 
L 2834 2853 
Q 2591 2978 2328 3040 
Q 2066 3103 1784 3103 
Q 1356 3103 1142 2972 
Q 928 2841 928 2578 
Q 928 2378 1081 2264 
Q 1234 2150 1697 2047 
L 1894 2003 
Q 2506 1872 2764 1633 
Q 3022 1394 3022 966 
Q 3022 478 2636 193 
Q 2250 -91 1575 -91 
Q 1294 -91 989 -36 
Q 684 19 347 128 
L 347 722 
Q 666 556 975 473 
Q 1284 391 1588 391 
Q 1994 391 2212 530 
Q 2431 669 2431 922 
Q 2431 1156 2273 1281 
Q 2116 1406 1581 1522 
L 1381 1569 
Q 847 1681 609 1914 
Q 372 2147 372 2553 
Q 372 3047 722 3315 
Q 1072 3584 1716 3584 
Q 2034 3584 2315 3537 
Q 2597 3491 2834 3397 
z
" id="DejaVuSans-73" transform="scale(0.015625)"/>
      </defs>
      <use xlink:href="#DejaVuSans-53"/>
      <use x="63.476562" xlink:href="#DejaVuSans-61"/>
      <use x="124.755859" xlink:href="#DejaVuSans-6d"/>
      <use x="222.167969" xlink:href="#DejaVuSans-70"/>
      <use x="285.644531" xlink:href="#DejaVuSans-6c"/>
      <use x="313.427734" xlink:href="#DejaVuSans-65"/>
      <use x="374.951172" xlink:href="#DejaVuSans-73"/>
     </g>
    </g>
   </g>
   <g id="matplotlib.axis_2">
    <g id="ytick_1">
     <g id="line2d_15">
      <path clip-path="url(#p3876b68b0a)" d="M 49.5 322.207047 
L 356.4 322.207047 
" style="fill:none;stroke:#b0b0b0;stroke-linecap:square;stroke-width:0.8;"/>
     </g>
     <g id="line2d_16">
      <defs>
       <path d="M 0 0 
L -3.5 0 
" id="m682a757ed8" style="stroke:#000000;stroke-width:0.8;"/>
      </defs>
      <g>
       <use style="stroke:#000000;stroke-width:0.8;" x="49.5" xlink:href="#m682a757ed8" y="322.207047"/>
      </g>
     </g>
     <g id="text_9">
      <!-- −2 -->
      <g transform="translate(27.757812 326.006266)scale(0.1 -0.1)">
       <defs>
        <path d="M 678 2272 
L 4684 2272 
L 4684 1741 
L 678 1741 
L 678 2272 
z
" id="DejaVuSans-2212" transform="scale(0.015625)"/>
       </defs>
       <use xlink:href="#DejaVuSans-2212"/>
       <use x="83.789062" xlink:href="#DejaVuSans-32"/>
      </g>
     </g>
    </g>
    <g id="ytick_2">
     <g id="line2d_17">
      <path clip-path="url(#p3876b68b0a)" d="M 49.5 262.812247 
L 356.4 262.812247 
" style="fill:none;stroke:#b0b0b0;stroke-linecap:square;stroke-width:0.8;"/>
     </g>
     <g id="line2d_18">
      <g>
       <use style="stroke:#000000;stroke-width:0.8;" x="49.5" xlink:href="#m682a757ed8" y="262.812247"/>
      </g>
     </g>
     <g id="text_10">
      <!-- −1 -->
      <g transform="translate(27.757812 266.611465)scale(0.1 -0.1)">
       <defs>
        <path d="M 794 531 
L 1825 531 
L 1825 4091 
L 703 3866 
L 703 4441 
L 1819 4666 
L 2450 4666 
L 2450 531 
L 3481 531 
L 3481 0 
L 794 0 
L 794 531 
z
" id="DejaVuSans-31" transform="scale(0.015625)"/>
       </defs>
       <use xlink:href="#DejaVuSans-2212"/>
       <use x="83.789062" xlink:href="#DejaVuSans-31"/>
      </g>
     </g>
    </g>
    <g id="ytick_3">
     <g id="line2d_19">
      <path clip-path="url(#p3876b68b0a)" d="M 49.5 203.417446 
L 356.4 203.417446 
" style="fill:none;stroke:#b0b0b0;stroke-linecap:square;stroke-width:0.8;"/>
     </g>
     <g id="line2d_20">
      <g>
       <use style="stroke:#000000;stroke-width:0.8;" x="49.5" xlink:href="#m682a757ed8" y="203.417446"/>
      </g>
     </g>
     <g id="text_11">
      <!-- 0 -->
      <g transform="translate(36.1375 207.216665)scale(0.1 -0.1)">
       <use xlink:href="#DejaVuSans-30"/>
      </g>
     </g>
    </g>
    <g id="ytick_4">
     <g id="line2d_21">
      <path clip-path="url(#p3876b68b0a)" d="M 49.5 144.022645 
L 356.4 144.022645 
" style="fill:none;stroke:#b0b0b0;stroke-linecap:square;stroke-width:0.8;"/>
     </g>
     <g id="line2d_22">
      <g>
       <use style="stroke:#000000;stroke-width:0.8;" x="49.5" xlink:href="#m682a757ed8" y="144.022645"/>
      </g>
     </g>
     <g id="text_12">
      <!-- 1 -->
      <g transform="translate(36.1375 147.821864)scale(0.1 -0.1)">
       <use xlink:href="#DejaVuSans-31"/>
      </g>
     </g>
    </g>
    <g id="ytick_5">
     <g id="line2d_23">
      <path clip-path="url(#p3876b68b0a)" d="M 49.5 84.627844 
L 356.4 84.627844 
" style="fill:none;stroke:#b0b0b0;stroke-linecap:square;stroke-width:0.8;"/>
     </g>
     <g id="line2d_24">
      <g>
       <use style="stroke:#000000;stroke-width:0.8;" x="49.5" xlink:href="#m682a757ed8" y="84.627844"/>
      </g>
     </g>
     <g id="text_13">
      <!-- 2 -->
      <g transform="translate(36.1375 88.427063)scale(0.1 -0.1)">
       <use xlink:href="#DejaVuSans-32"/>
      </g>
     </g>
    </g>
    <g id="text_14">
     <!-- Amplitude -->
     <g transform="translate(21.678125 225.602656)rotate(-90)scale(0.1 -0.1)">
      <defs>
       <path d="M 2188 4044 
L 1331 1722 
L 3047 1722 
L 2188 4044 
z
M 1831 4666 
L 2547 4666 
L 4325 0 
L 3669 0 
L 3244 1197 
L 1141 1197 
L 716 0 
L 50 0 
L 1831 4666 
z
" id="DejaVuSans-41" transform="scale(0.015625)"/>
       <path d="M 603 3500 
L 1178 3500 
L 1178 0 
L 603 0 
L 603 3500 
z
M 603 4863 
L 1178 4863 
L 1178 4134 
L 603 4134 
L 603 4863 
z
" id="DejaVuSans-69" transform="scale(0.015625)"/>
       <path d="M 1172 4494 
L 1172 3500 
L 2356 3500 
L 2356 3053 
L 1172 3053 
L 1172 1153 
Q 1172 725 1289 603 
Q 1406 481 1766 481 
L 2356 481 
L 2356 0 
L 1766 0 
Q 1100 0 847 248 
Q 594 497 594 1153 
L 594 3053 
L 172 3053 
L 172 3500 
L 594 3500 
L 594 4494 
L 1172 4494 
z
" id="DejaVuSans-74" transform="scale(0.015625)"/>
       <path d="M 544 1381 
L 544 3500 
L 1119 3500 
L 1119 1403 
Q 1119 906 1312 657 
Q 1506 409 1894 409 
Q 2359 409 2629 706 
Q 2900 1003 2900 1516 
L 2900 3500 
L 3475 3500 
L 3475 0 
L 2900 0 
L 2900 538 
Q 2691 219 2414 64 
Q 2138 -91 1772 -91 
Q 1169 -91 856 284 
Q 544 659 544 1381 
z
M 1991 3584 
L 1991 3584 
z
" id="DejaVuSans-75" transform="scale(0.015625)"/>
       <path d="M 2906 2969 
L 2906 4863 
L 3481 4863 
L 3481 0 
L 2906 0 
L 2906 525 
Q 2725 213 2448 61 
Q 2172 -91 1784 -91 
Q 1150 -91 751 415 
Q 353 922 353 1747 
Q 353 2572 751 3078 
Q 1150 3584 1784 3584 
Q 2172 3584 2448 3432 
Q 2725 3281 2906 2969 
z
M 947 1747 
Q 947 1113 1208 752 
Q 1469 391 1925 391 
Q 2381 391 2643 752 
Q 2906 1113 2906 1747 
Q 2906 2381 2643 2742 
Q 2381 3103 1925 3103 
Q 1469 3103 1208 2742 
Q 947 2381 947 1747 
z
" id="DejaVuSans-64" transform="scale(0.015625)"/>
      </defs>
      <use xlink:href="#DejaVuSans-41"/>
      <use x="68.408203" xlink:href="#DejaVuSans-6d"/>
      <use x="165.820312" xlink:href="#DejaVuSans-70"/>
      <use x="229.296875" xlink:href="#DejaVuSans-6c"/>
      <use x="257.080078" xlink:href="#DejaVuSans-69"/>
      <use x="284.863281" xlink:href="#DejaVuSans-74"/>
      <use x="324.072266" xlink:href="#DejaVuSans-75"/>
      <use x="387.451172" xlink:href="#DejaVuSans-64"/>
      <use x="450.927734" xlink:href="#DejaVuSans-65"/>
     </g>
    </g>
   </g>
   <g id="line2d_25">
    <path clip-path="url(#p3876b68b0a)" d="M 48.477 164.698072 
L 49.5 153.146052 
L 51.546 135.588293 
L 52.569 129.870888 
L 53.592 126.937451 
L 54.615 126.680559 
L 55.638 128.806865 
L 56.661 132.842542 
L 58.707 144.022645 
L 59.73 147.848138 
L 60.753 150.982494 
L 61.776 153.044844 
L 62.799 153.777202 
L 63.822 153.078308 
L 64.845 151.023897 
L 65.868 147.868086 
L 66.891 144.022645 
L 67.914 138.20465 
L 68.937 133.074546 
L 69.96 129.419543 
L 70.983 127.849039 
L 72.006 128.699074 
L 73.029 131.969478 
L 74.052 137.304541 
L 77.121 157.861873 
L 78.144 162.870787 
L 79.167 165.332728 
L 80.19 164.633724 
L 81.213 160.577254 
L 82.236 153.449584 
L 83.259 144.022645 
L 85.305 123.444792 
L 86.328 115.386954 
L 87.351 110.83557 
L 88.374 110.989281 
L 89.397 116.581895 
L 90.42 127.759102 
L 91.443 144.022645 
L 93.489 190.149904 
L 95.535 235.500274 
L 96.558 252.389103 
L 97.581 263.095642 
L 98.604 266.639568 
L 99.627 262.812247 
L 100.65 250.398601 
L 101.673 232.813674 
L 104.742 171.725661 
L 105.765 156.467202 
L 106.788 146.911093 
L 107.811 144.022645 
L 108.834 148.020855 
L 109.857 158.353958 
L 110.88 173.769125 
L 112.926 212.639311 
L 113.949 232.130223 
L 114.972 249.277728 
L 115.995 262.812247 
L 117.018 273.851648 
L 118.041 280.24142 
L 119.064 282.249217 
L 120.087 280.666382 
L 121.11 276.650852 
L 123.156 266.56996 
L 124.179 262.812247 
L 125.202 260.86068 
L 126.225 260.849006 
L 127.248 262.463129 
L 129.294 267.36194 
L 130.317 268.481528 
L 131.34 267.248028 
L 132.363 262.812247 
L 133.386 254.673561 
L 134.409 242.802904 
L 135.432 227.696658 
L 139.524 157.44772 
L 140.547 144.022645 
L 141.57 134.256214 
L 142.593 128.446581 
L 143.616 126.439944 
L 144.639 127.640861 
L 145.662 131.113926 
L 147.708 140.36161 
L 149.754 147.867457 
L 150.777 149.575911 
L 151.8 149.139134 
L 152.823 147.055086 
L 153.846 144.254611 
L 154.869 141.958069 
L 155.892 141.481975 
L 156.915 144.022645 
L 157.938 150.419398 
L 158.961 161.021059 
L 159.984 175.614522 
L 162.03 212.877077 
L 163.053 232.31987 
L 164.076 249.642182 
L 165.099 262.812247 
L 166.122 268.266644 
L 167.145 266.845987 
L 168.168 258.235823 
L 169.191 242.845244 
L 170.214 221.793828 
L 172.26 170.09104 
L 173.283 144.022645 
L 174.306 122.794716 
L 175.329 106.422036 
L 176.352 96.271739 
L 177.375 93.125379 
L 178.398 97.114049 
L 179.421 107.723628 
L 180.444 123.868294 
L 181.467 144.022645 
L 184.536 210.697129 
L 185.559 229.345609 
L 186.582 244.142298 
L 187.605 254.562578 
L 188.628 260.617379 
L 189.651 262.812247 
L 190.674 262.077958 
L 191.697 259.592524 
L 192.72 256.579618 
L 193.743 254.170768 
L 194.766 253.257874 
L 195.789 254.381343 
L 196.812 257.666163 
L 197.835 262.812247 
L 199.881 272.330694 
L 200.904 276.916639 
L 201.927 280.098931 
L 202.95 280.925388 
L 203.973 278.605541 
L 204.996 272.621555 
L 206.019 262.812247 
L 207.042 251.229634 
L 208.065 236.443132 
L 210.111 200.776614 
L 212.157 165.904054 
L 213.18 152.625007 
L 214.203 144.022645 
L 215.226 141.124111 
L 216.249 144.504761 
L 217.272 154.23416 
L 218.295 169.806864 
L 219.318 190.158763 
L 223.41 284.114026 
L 224.433 300.686032 
L 225.456 311.09939 
L 226.479 314.485141 
L 227.502 310.619169 
L 228.525 299.93925 
L 229.548 283.491586 
L 230.571 262.812247 
L 233.64 189.927337 
L 234.663 170.614391 
L 235.686 156.193311 
L 236.709 147.179542 
L 237.732 143.3941 
L 238.755 144.022645 
L 239.778 149.562596 
L 241.824 162.389956 
L 242.847 166.108357 
L 243.87 166.298616 
L 244.893 162.43249 
L 245.916 154.707481 
L 248.985 123.413272 
L 250.008 115.008382 
L 251.031 110.115344 
L 252.054 110.079007 
L 253.077 115.724636 
L 254.1 127.220492 
L 255.123 144.022645 
L 256.146 164.938733 
L 259.215 233.099518 
L 260.238 250.305456 
L 261.261 261.594614 
L 262.284 265.87358 
L 263.307 262.812247 
L 264.33 252.920524 
L 265.353 237.461916 
L 267.399 197.60023 
L 268.422 177.805221 
L 269.445 161.134002 
L 270.468 149.447195 
L 271.491 144.022645 
L 272.514 143.617705 
L 273.537 150.128127 
L 274.56 162.895165 
L 275.583 180.610265 
L 279.675 262.812247 
L 280.698 278.750922 
L 281.721 289.442447 
L 282.744 294.475668 
L 283.767 294.134119 
L 284.79 289.321464 
L 285.813 281.408477 
L 288.882 253.398625 
L 289.905 246.882361 
L 290.928 243.962718 
L 291.951 244.655044 
L 292.974 248.296362 
L 295.02 259.07928 
L 296.043 262.812247 
L 297.066 263.213414 
L 298.089 259.011581 
L 299.112 249.468208 
L 300.135 234.539972 
L 301.158 214.92025 
L 305.25 125.221716 
L 306.273 111.083032 
L 307.296 102.80348 
L 308.319 100.937069 
L 309.342 105.311292 
L 310.365 115.033789 
L 311.388 128.590235 
L 313.434 159.138617 
L 314.457 171.815728 
L 315.48 180.300778 
L 316.503 183.403872 
L 317.526 180.652531 
L 318.549 172.357822 
L 319.572 159.583684 
L 321.618 129.601898 
L 322.641 116.525393 
L 323.664 106.734733 
L 324.687 101.865474 
L 325.71 103.045406 
L 326.733 110.749509 
L 327.756 124.728914 
L 329.802 165.242145 
L 332.871 232.553892 
L 333.894 249.443188 
L 334.917 260.679588 
L 335.94 265.250485 
L 336.963 262.812247 
L 337.986 253.711716 
L 339.009 238.996045 
L 341.055 199.871714 
L 342.078 179.894665 
L 343.101 162.690975 
L 344.124 150.244155 
L 345.147 144.022645 
L 346.17 143.002088 
L 347.193 149.270022 
L 348.216 162.272964 
L 349.239 180.665667 
L 352.308 246.113116 
L 353.331 262.812247 
L 354.354 273.106938 
L 355.377 275.494926 
L 356.4 269.250526 
L 357.423 254.553545 
L 357.423 254.553545 
" style="fill:none;stroke:#ff0000;stroke-linecap:square;"/>
   </g>
   <g id="line2d_26">
    <path clip-path="url(#p3876b68b0a)" d="M 48.477 168.790784 
L 49.5 155.028384 
L 50.523 144.022645 
L 51.546 136.25145 
L 52.569 131.777315 
L 53.592 130.331326 
L 54.615 131.337925 
L 55.638 134.017977 
L 57.684 141.059656 
L 58.707 144.022645 
L 59.73 146.071591 
L 60.753 147.067222 
L 61.776 147.130171 
L 62.799 146.542639 
L 64.845 144.805451 
L 65.868 144.22565 
L 66.891 144.022645 
L 67.914 144.193563 
L 69.96 144.955496 
L 70.983 145.184567 
L 72.006 145.154744 
L 73.029 144.869081 
L 75.075 144.022645 
L 76.098 143.824112 
L 77.121 143.9701 
L 78.144 144.480337 
L 80.19 145.924633 
L 81.213 146.201978 
L 82.236 145.664803 
L 83.259 144.022645 
L 84.282 141.202906 
L 87.351 129.850804 
L 88.374 128.086746 
L 89.397 129.252966 
L 90.42 134.362748 
L 91.443 144.022645 
L 92.466 158.213964 
L 93.489 176.274913 
L 96.558 237.066657 
L 97.581 252.163063 
L 98.604 261.170367 
L 99.627 262.812247 
L 100.65 256.769179 
L 101.673 243.692854 
L 102.696 225.244896 
L 104.742 182.39248 
L 105.765 163.73342 
L 106.788 150.365014 
L 107.811 144.022645 
L 108.834 145.459986 
L 109.857 154.377615 
L 110.88 169.516099 
L 112.926 210.115771 
L 113.949 230.794605 
L 114.972 248.851611 
L 115.995 262.812247 
L 117.018 271.928099 
L 118.041 276.291426 
L 119.064 276.639385 
L 120.087 274.181631 
L 122.133 266.508441 
L 123.156 263.775895 
L 124.179 262.812247 
L 125.202 263.769709 
L 126.225 266.298149 
L 128.271 272.745627 
L 129.294 274.515793 
L 130.317 273.914001 
L 131.34 270.154946 
L 132.363 262.812247 
L 133.386 251.881871 
L 134.409 237.786181 
L 136.455 203.583644 
L 138.501 169.256069 
L 139.524 155.046897 
L 140.547 144.022645 
L 141.57 136.641928 
L 142.593 132.916952 
L 143.616 132.409957 
L 144.639 134.298199 
L 146.685 140.843368 
L 147.708 143.271127 
L 148.731 144.022645 
L 149.754 142.760188 
L 150.777 139.740836 
L 152.823 131.845177 
L 153.846 129.526115 
L 154.869 130.1329 
L 155.892 134.76624 
L 156.915 144.022645 
L 157.938 157.839263 
L 158.961 175.439313 
L 162.03 234.568431 
L 163.053 249.651019 
L 164.076 259.411771 
L 165.099 262.812247 
L 166.122 259.580301 
L 167.145 250.133218 
L 168.168 235.572614 
L 170.214 197.617144 
L 172.26 159.542226 
L 173.283 144.022645 
L 174.306 131.93357 
L 175.329 123.62303 
L 176.352 119.083649 
L 177.375 118.101046 
L 178.398 120.374747 
L 179.421 125.610037 
L 180.444 133.561427 
L 181.467 144.022645 
L 182.49 156.771447 
L 184.536 187.721519 
L 187.605 237.775489 
L 188.628 251.733902 
L 189.651 262.812247 
L 190.674 270.447385 
L 191.697 274.483973 
L 192.72 275.229414 
L 193.743 273.424663 
L 196.812 263.841637 
L 197.835 262.812247 
L 198.858 263.873724 
L 199.881 266.799415 
L 201.927 274.782736 
L 202.95 277.20484 
L 203.973 276.682114 
L 204.996 272.085755 
L 206.019 262.812247 
L 207.042 248.910374 
L 208.065 231.218371 
L 211.134 172.029632 
L 212.157 157.015869 
L 213.18 147.342171 
L 214.203 144.022645 
L 215.226 147.339619 
L 216.249 156.832106 
L 217.272 171.394594 
L 219.318 209.268674 
L 221.364 247.279966 
L 222.387 262.812247 
L 223.41 274.918158 
L 224.433 283.273248 
L 225.456 287.868835 
L 226.479 288.898088 
L 227.502 286.64175 
L 228.525 281.382657 
L 229.548 273.366454 
L 230.571 262.812247 
L 231.594 249.991369 
L 233.64 218.944846 
L 236.709 168.986032 
L 237.732 155.079189 
L 238.755 144.022645 
L 239.778 136.332534 
L 240.801 132.197055 
L 241.824 131.333014 
L 242.847 133.037052 
L 245.916 142.770474 
L 246.939 144.022645 
L 247.962 143.213604 
L 248.985 140.50574 
L 251.031 132.631473 
L 252.054 130.068548 
L 253.077 130.37817 
L 254.1 134.788738 
L 255.123 144.022645 
L 256.146 158.1022 
L 257.169 176.263501 
L 260.238 237.520856 
L 261.261 252.567444 
L 262.284 261.406242 
L 263.307 262.812247 
L 264.33 256.503022 
L 265.353 243.224876 
L 266.376 224.682784 
L 268.422 181.968866 
L 269.445 163.472163 
L 270.468 150.259541 
L 271.491 144.022645 
L 272.514 145.5223 
L 273.537 154.42803 
L 274.56 169.49994 
L 276.606 209.949896 
L 277.629 230.618167 
L 278.652 248.732919 
L 279.675 262.812247 
L 280.698 272.080465 
L 281.721 276.590637 
L 282.744 277.040443 
L 283.767 274.61179 
L 285.813 266.77363 
L 286.836 263.899561 
L 287.859 262.812247 
L 288.882 263.731031 
L 289.905 266.291431 
L 291.951 272.952606 
L 292.974 274.818978 
L 293.997 274.235237 
L 295.02 270.377501 
L 296.043 262.812247 
L 297.066 251.565588 
L 298.089 237.128037 
L 300.135 202.531431 
L 302.181 168.558828 
L 303.204 154.72106 
L 304.227 144.022645 
L 305.25 136.729685 
L 306.273 132.766292 
L 307.296 131.679844 
L 308.319 132.775884 
L 309.342 135.252948 
L 311.388 141.403087 
L 312.411 144.022645 
L 313.434 145.996878 
L 314.457 147.305525 
L 315.48 148.0312 
L 316.503 148.273051 
L 317.526 148.073746 
L 318.549 147.384159 
L 319.572 146.078981 
L 320.595 144.022645 
L 321.618 141.142036 
L 324.687 130.760562 
L 325.71 129.149693 
L 326.733 130.195146 
L 327.756 134.919359 
L 328.779 144.022645 
L 329.802 157.690967 
L 330.825 175.349128 
L 333.894 236.358039 
L 334.917 251.840623 
L 335.94 261.141244 
L 336.963 262.812247 
L 337.986 256.397816 
L 339.009 242.586198 
L 340.032 223.177741 
L 342.078 178.852354 
L 343.101 160.364994 
L 344.124 148.147711 
L 345.147 144.022645 
L 346.17 148.623842 
L 347.193 161.209915 
L 348.216 179.878332 
L 350.262 223.936975 
L 351.285 243.015326 
L 352.308 256.526308 
L 353.331 262.812247 
L 354.354 261.298188 
L 355.377 252.480953 
L 356.4 237.742642 
L 357.423 219.035281 
L 357.423 219.035281 
" style="fill:none;stroke:#008000;stroke-linecap:square;"/>
   </g>
   <g id="line2d_27">
    <path clip-path="url(#p3876b68b0a)" d="M 48.477 165.314056 
L 49.5 152.080429 
L 50.523 144.022645 
L 51.546 140.652562 
L 52.569 140.610838 
L 54.615 144.02071 
L 55.638 145.116038 
L 56.661 145.265555 
L 57.684 144.739665 
L 58.707 144.022645 
L 59.73 143.536466 
L 60.753 143.448154 
L 64.845 144.302951 
L 68.937 143.926888 
L 72.006 144.01472 
L 74.052 143.963585 
L 78.144 144.20771 
L 81.213 143.548803 
L 82.236 143.61608 
L 83.259 144.022645 
L 84.282 144.630483 
L 85.305 145.089095 
L 86.328 144.972091 
L 87.351 144.02071 
L 89.397 140.943519 
L 90.42 140.936273 
L 91.443 144.022645 
L 92.466 151.636529 
L 93.489 164.52563 
L 94.512 182.323946 
L 97.581 244.237778 
L 98.604 257.586079 
L 99.627 262.812247 
L 100.65 258.845146 
L 101.673 246.136413 
L 102.696 226.628956 
L 104.742 180.215596 
L 105.765 160.725993 
L 106.788 148.019271 
L 107.811 144.022645 
L 108.834 149.20398 
L 109.857 162.516578 
L 110.88 181.629936 
L 112.926 224.610943 
L 113.949 242.475497 
L 114.972 255.335693 
L 115.995 262.812247 
L 117.018 265.699685 
L 118.041 265.567289 
L 120.087 262.814181 
L 121.11 262.220704 
L 122.133 262.339606 
L 123.156 262.700843 
L 124.179 262.812247 
L 125.202 262.504515 
L 126.225 262.051298 
L 127.248 262.003552 
L 128.271 262.814181 
L 130.317 265.995092 
L 131.34 266.052591 
L 132.363 262.812247 
L 133.386 254.831803 
L 134.409 241.589145 
L 135.432 223.81382 
L 137.478 183.023854 
L 138.501 165.253658 
L 139.524 152.011553 
L 140.547 144.022645 
L 141.57 140.76779 
L 142.593 140.814688 
L 144.639 144.02071 
L 145.662 144.860219 
L 146.685 144.830575 
L 148.731 144.022645 
L 149.754 144.078052 
L 150.777 144.406301 
L 151.8 144.543464 
L 152.823 144.02071 
L 154.869 141.410892 
L 155.892 141.250014 
L 156.915 144.022645 
L 157.938 151.343833 
L 158.961 164.108903 
L 159.984 182.020661 
L 163.053 244.774299 
L 164.076 258.014262 
L 165.099 262.812247 
L 166.122 258.260062 
L 167.145 245.133741 
L 168.168 225.747622 
L 170.214 181.700809 
L 171.237 163.599886 
L 172.26 150.930606 
L 173.283 144.022645 
L 174.306 141.82233 
L 175.329 142.401622 
L 176.352 143.651293 
L 177.375 144.02071 
L 178.398 143.054049 
L 179.421 141.520467 
L 180.444 141.153949 
L 181.467 144.022645 
L 182.49 151.77184 
L 183.513 164.983232 
L 184.536 182.870621 
L 186.582 223.912315 
L 187.605 241.699971 
L 188.628 254.893352 
L 189.651 262.812247 
L 190.674 266.017678 
L 191.697 265.9611 
L 193.743 262.814181 
L 194.766 262.000454 
L 195.789 262.035518 
L 196.812 262.485448 
L 197.835 262.812247 
L 198.858 262.742867 
L 199.881 262.411581 
L 200.904 262.281069 
L 201.927 262.814181 
L 203.973 265.433348 
L 204.996 265.590559 
L 206.019 262.812247 
L 207.042 255.480635 
L 208.065 242.712511 
L 209.088 224.8055 
L 212.157 162.070191 
L 213.18 148.826892 
L 214.203 144.022645 
L 215.226 148.576344 
L 216.249 161.704325 
L 217.272 181.090232 
L 219.318 225.129701 
L 220.341 243.227801 
L 221.364 255.898468 
L 222.387 262.812247 
L 223.41 265.013615 
L 224.433 264.436261 
L 225.456 263.186788 
L 226.479 262.814181 
L 227.502 263.775434 
L 228.525 265.305137 
L 229.548 265.673172 
L 230.571 262.812247 
L 231.594 255.079654 
L 232.617 241.876711 
L 233.64 223.983198 
L 235.686 182.900866 
L 236.709 165.101959 
L 237.732 151.916473 
L 238.755 144.022645 
L 239.778 140.839496 
L 240.801 140.908192 
L 242.847 144.02071 
L 243.87 144.80237 
L 244.893 144.749401 
L 245.916 144.310404 
L 246.939 144.022645 
L 247.962 144.140097 
L 248.985 144.499108 
L 250.008 144.613786 
L 251.031 144.02071 
L 253.077 141.280005 
L 254.1 141.146583 
L 255.123 144.022645 
L 256.146 151.475811 
L 257.169 164.322172 
L 258.192 182.19462 
L 261.261 244.373624 
L 262.284 257.673644 
L 263.307 262.812247 
L 264.33 258.764882 
L 265.353 246.03082 
L 266.376 226.559236 
L 268.422 180.277076 
L 269.445 160.808103 
L 270.468 148.074312 
L 271.491 144.022645 
L 272.514 149.160802 
L 273.537 162.458875 
L 274.56 181.591258 
L 276.606 224.64604 
L 277.629 242.523024 
L 278.652 255.367991 
L 279.675 262.812247 
L 280.698 265.669495 
L 281.721 265.525744 
L 283.767 262.814181 
L 284.79 262.248565 
L 285.813 262.378733 
L 286.836 262.728478 
L 287.859 262.812247 
L 288.882 262.482678 
L 289.905 262.019291 
L 290.928 261.979928 
L 291.951 262.814181 
L 293.997 266.034761 
L 295.02 266.082721 
L 296.043 262.812247 
L 297.066 254.795674 
L 298.089 241.532294 
L 299.112 223.768908 
L 301.158 183.080673 
L 302.181 165.344709 
L 303.204 152.084905 
L 304.227 144.022645 
L 305.25 140.663964 
L 306.273 140.64525 
L 308.319 144.02071 
L 309.342 145.05373 
L 310.365 145.157999 
L 313.434 143.65718 
L 314.457 143.65073 
L 316.503 144.02071 
L 317.526 144.020966 
L 319.572 143.836809 
L 320.595 144.022645 
L 322.641 144.838465 
L 323.664 144.805825 
L 324.687 144.02071 
L 326.733 141.150021 
L 327.756 141.07912 
L 328.779 144.022645 
L 329.802 151.50833 
L 330.825 164.342096 
L 331.848 182.190963 
L 334.917 244.455262 
L 335.94 257.751329 
L 336.963 262.812247 
L 337.986 258.641492 
L 339.009 245.817726 
L 340.032 226.376758 
L 342.078 180.542601 
L 343.101 161.262103 
L 344.124 148.464344 
L 345.147 144.022645 
L 346.17 148.571082 
L 347.193 161.415788 
L 348.216 180.654562 
L 350.262 226.253688 
L 351.285 245.632107 
L 352.308 258.499946 
L 353.331 262.812247 
L 354.354 257.921422 
L 355.377 244.723264 
L 356.4 225.493166 
L 357.423 203.458608 
L 357.423 203.458608 
" style="fill:none;stroke:#000000;stroke-linecap:square;"/>
   </g>
   <g id="patch_3">
    <path d="M 49.5 352.44 
L 49.5 47.52 
" style="fill:none;stroke:#000000;stroke-linecap:square;stroke-linejoin:miter;stroke-width:0.8;"/>
   </g>
   <g id="patch_4">
    <path d="M 356.4 352.44 
L 356.4 47.52 
" style="fill:none;stroke:#000000;stroke-linecap:square;stroke-linejoin:miter;stroke-width:0.8;"/>
   </g>
   <g id="patch_5">
    <path d="M 49.5 352.44 
L 356.4 352.44 
" style="fill:none;stroke:#000000;stroke-linecap:square;stroke-linejoin:miter;stroke-width:0.8;"/>
   </g>
   <g id="patch_6">
    <path d="M 49.5 47.52 
L 356.4 47.52 
" style="fill:none;stroke:#000000;stroke-linecap:square;stroke-linejoin:miter;stroke-width:0.8;"/>
   </g>
   <g id="text_15">
    <!-- Quadrature component -->
    <g transform="translate(132.765938 41.52)scale(0.12 -0.12)">
     <defs>
      <path d="M 2522 4238 
Q 1834 4238 1429 3725 
Q 1025 3213 1025 2328 
Q 1025 1447 1429 934 
Q 1834 422 2522 422 
Q 3209 422 3611 934 
Q 4013 1447 4013 2328 
Q 4013 3213 3611 3725 
Q 3209 4238 2522 4238 
z
M 3406 84 
L 4238 -825 
L 3475 -825 
L 2784 -78 
Q 2681 -84 2626 -87 
Q 2572 -91 2522 -91 
Q 1538 -91 948 567 
Q 359 1225 359 2328 
Q 359 3434 948 4092 
Q 1538 4750 2522 4750 
Q 3503 4750 4090 4092 
Q 4678 3434 4678 2328 
Q 4678 1516 4351 937 
Q 4025 359 3406 84 
z
" id="DejaVuSans-51" transform="scale(0.015625)"/>
      <path d="M 2631 2963 
Q 2534 3019 2420 3045 
Q 2306 3072 2169 3072 
Q 1681 3072 1420 2755 
Q 1159 2438 1159 1844 
L 1159 0 
L 581 0 
L 581 3500 
L 1159 3500 
L 1159 2956 
Q 1341 3275 1631 3429 
Q 1922 3584 2338 3584 
Q 2397 3584 2469 3576 
Q 2541 3569 2628 3553 
L 2631 2963 
z
" id="DejaVuSans-72" transform="scale(0.015625)"/>
      <path id="DejaVuSans-20" transform="scale(0.015625)"/>
      <path d="M 3122 3366 
L 3122 2828 
Q 2878 2963 2633 3030 
Q 2388 3097 2138 3097 
Q 1578 3097 1268 2742 
Q 959 2388 959 1747 
Q 959 1106 1268 751 
Q 1578 397 2138 397 
Q 2388 397 2633 464 
Q 2878 531 3122 666 
L 3122 134 
Q 2881 22 2623 -34 
Q 2366 -91 2075 -91 
Q 1284 -91 818 406 
Q 353 903 353 1747 
Q 353 2603 823 3093 
Q 1294 3584 2113 3584 
Q 2378 3584 2631 3529 
Q 2884 3475 3122 3366 
z
" id="DejaVuSans-63" transform="scale(0.015625)"/>
      <path d="M 1959 3097 
Q 1497 3097 1228 2736 
Q 959 2375 959 1747 
Q 959 1119 1226 758 
Q 1494 397 1959 397 
Q 2419 397 2687 759 
Q 2956 1122 2956 1747 
Q 2956 2369 2687 2733 
Q 2419 3097 1959 3097 
z
M 1959 3584 
Q 2709 3584 3137 3096 
Q 3566 2609 3566 1747 
Q 3566 888 3137 398 
Q 2709 -91 1959 -91 
Q 1206 -91 779 398 
Q 353 888 353 1747 
Q 353 2609 779 3096 
Q 1206 3584 1959 3584 
z
" id="DejaVuSans-6f" transform="scale(0.015625)"/>
      <path d="M 3513 2113 
L 3513 0 
L 2938 0 
L 2938 2094 
Q 2938 2591 2744 2837 
Q 2550 3084 2163 3084 
Q 1697 3084 1428 2787 
Q 1159 2491 1159 1978 
L 1159 0 
L 581 0 
L 581 3500 
L 1159 3500 
L 1159 2956 
Q 1366 3272 1645 3428 
Q 1925 3584 2291 3584 
Q 2894 3584 3203 3211 
Q 3513 2838 3513 2113 
z
" id="DejaVuSans-6e" transform="scale(0.015625)"/>
     </defs>
     <use xlink:href="#DejaVuSans-51"/>
     <use x="78.710938" xlink:href="#DejaVuSans-75"/>
     <use x="142.089844" xlink:href="#DejaVuSans-61"/>
     <use x="203.369141" xlink:href="#DejaVuSans-64"/>
     <use x="266.845703" xlink:href="#DejaVuSans-72"/>
     <use x="307.958984" xlink:href="#DejaVuSans-61"/>
     <use x="369.238281" xlink:href="#DejaVuSans-74"/>
     <use x="408.447266" xlink:href="#DejaVuSans-75"/>
     <use x="471.826172" xlink:href="#DejaVuSans-72"/>
     <use x="510.689453" xlink:href="#DejaVuSans-65"/>
     <use x="572.212891" xlink:href="#DejaVuSans-20"/>
     <use x="604" xlink:href="#DejaVuSans-63"/>
     <use x="658.980469" xlink:href="#DejaVuSans-6f"/>
     <use x="720.162109" xlink:href="#DejaVuSans-6d"/>
     <use x="817.574219" xlink:href="#DejaVuSans-70"/>
     <use x="881.050781" xlink:href="#DejaVuSans-6f"/>
     <use x="942.232422" xlink:href="#DejaVuSans-6e"/>
     <use x="1005.611328" xlink:href="#DejaVuSans-65"/>
     <use x="1067.134766" xlink:href="#DejaVuSans-6e"/>
     <use x="1130.513672" xlink:href="#DejaVuSans-74"/>
    </g>
   </g>
   <g id="legend_1">
    <g id="patch_7">
     <path d="M 282.8 99.92 
L 349.4 99.92 
Q 351.4 99.92 351.4 97.92 
L 351.4 54.52 
Q 351.4 52.52 349.4 52.52 
L 282.8 52.52 
Q 280.8 52.52 280.8 54.52 
L 280.8 97.92 
Q 280.8 99.92 282.8 99.92 
z
" style="fill:#ffffff;opacity:0.8;stroke:#cccccc;stroke-linejoin:miter;"/>
    </g>
    <g id="line2d_28">
     <path d="M 284.8 60.72 
L 304.8 60.72 
" style="fill:none;stroke:#ff0000;stroke-linecap:square;"/>
    </g>
    <g id="line2d_29"/>
    <g id="text_16">
     <!-- $\beta=0.0$ -->
     <g transform="translate(312.8 64.22)scale(0.1 -0.1)">
      <defs>
       <path d="M 872 216 
L 572 -1331 
L -6 -1331 
L 928 3478 
Q 1206 4903 2538 4903 
Q 3888 4903 3659 3700 
Q 3503 2844 2894 2531 
Q 3713 2250 3553 1416 
Q 3272 -69 1759 -66 
Q 1097 -63 872 216 
z
M 1019 966 
Q 1259 422 1875 425 
Q 2775 425 2966 1406 
Q 3138 2288 1675 2219 
L 1778 2750 
Q 2909 2731 3106 3750 
Q 3241 4438 2509 4434 
Q 1691 4434 1503 3459 
L 1019 966 
z
" id="DejaVuSans-Oblique-3b2" transform="scale(0.015625)"/>
       <path d="M 678 2906 
L 4684 2906 
L 4684 2381 
L 678 2381 
L 678 2906 
z
M 678 1631 
L 4684 1631 
L 4684 1100 
L 678 1100 
L 678 1631 
z
" id="DejaVuSans-3d" transform="scale(0.015625)"/>
       <path d="M 684 794 
L 1344 794 
L 1344 0 
L 684 0 
L 684 794 
z
" id="DejaVuSans-2e" transform="scale(0.015625)"/>
      </defs>
      <use transform="translate(0 0.390625)" xlink:href="#DejaVuSans-Oblique-3b2"/>
      <use transform="translate(83.300781 0.390625)" xlink:href="#DejaVuSans-3d"/>
      <use transform="translate(186.572266 0.390625)" xlink:href="#DejaVuSans-30"/>
      <use transform="translate(250.195312 0.390625)" xlink:href="#DejaVuSans-2e"/>
      <use transform="translate(281.982422 0.390625)" xlink:href="#DejaVuSans-30"/>
     </g>
    </g>
    <g id="line2d_30">
     <path d="M 284.8 75.52 
L 304.8 75.52 
" style="fill:none;stroke:#008000;stroke-linecap:square;"/>
    </g>
    <g id="line2d_31"/>
    <g id="text_17">
     <!-- $\beta=0.5$ -->
     <g transform="translate(312.8 79.02)scale(0.1 -0.1)">
      <use transform="translate(0 0.390625)" xlink:href="#DejaVuSans-Oblique-3b2"/>
      <use transform="translate(83.300781 0.390625)" xlink:href="#DejaVuSans-3d"/>
      <use transform="translate(186.572266 0.390625)" xlink:href="#DejaVuSans-30"/>
      <use transform="translate(250.195312 0.390625)" xlink:href="#DejaVuSans-2e"/>
      <use transform="translate(281.982422 0.390625)" xlink:href="#DejaVuSans-35"/>
     </g>
    </g>
    <g id="line2d_32">
     <path d="M 284.8 90.32 
L 304.8 90.32 
" style="fill:none;stroke:#000000;stroke-linecap:square;"/>
    </g>
    <g id="line2d_33"/>
    <g id="text_18">
     <!-- $\beta=1.0$ -->
     <g transform="translate(312.8 93.82)scale(0.1 -0.1)">
      <use transform="translate(0 0.390625)" xlink:href="#DejaVuSans-Oblique-3b2"/>
      <use transform="translate(83.300781 0.390625)" xlink:href="#DejaVuSans-3d"/>
      <use transform="translate(186.572266 0.390625)" xlink:href="#DejaVuSans-31"/>
      <use transform="translate(250.195312 0.390625)" xlink:href="#DejaVuSans-2e"/>
      <use transform="translate(281.982422 0.390625)" xlink:href="#DejaVuSans-30"/>
     </g>
    </g>
   </g>
  </g>
 </g>
 <defs>
  <clipPath id="p3876b68b0a">
   <rect height="304.92" width="306.9" x="49.5" y="47.52"/>
  </clipPath>
 </defs>
</svg>
